<?xml version="1.0" encoding="utf-8" standalone="no"?>
<!DOCTYPE svg PUBLIC "-//W3C//DTD SVG 1.1//EN"
  "http://www.w3.org/Graphics/SVG/1.1/DTD/svg11.dtd">
<svg height="550.221559pt" version="1.1" viewBox="0 0 464.124154 550.221559" width="464.124154pt" xmlns="http://www.w3.org/2000/svg" xmlns:xlink="http://www.w3.org/1999/xlink">
 <metadata>
  <rdf:RDF xmlns:cc="http://creativecommons.org/ns#" xmlns:dc="http://purl.org/dc/elements/1.1/" xmlns:rdf="http://www.w3.org/1999/02/22-rdf-syntax-ns#">
   <cc:Work>
    <dc:type rdf:resource="http://purl.org/dc/dcmitype/StillImage"/>
    <dc:date>2021-04-14T17:07:30.864069</dc:date>
    <dc:format>image/svg+xml</dc:format>
    <dc:creator>
     <cc:Agent>
      <dc:title>Matplotlib v3.4.1, https://matplotlib.org/</dc:title>
     </cc:Agent>
    </dc:creator>
   </cc:Work>
  </rdf:RDF>
 </metadata>
 <defs>
  <style type="text/css">*{stroke-linecap:butt;stroke-linejoin:round;}</style>
 </defs>
 <g id="figure_1">
  <g id="patch_1">
   <path d="M -0 550.221559 
L 464.124154 550.221559 
L 464.124154 0 
L -0 0 
z
" style="fill:#232323;"/>
  </g>
  <g id="axes_1">
   <g id="patch_2">
    <path d="M 55.116184 386.983159 
L 445.716184 386.983159 
L 445.716184 24.103159 
L 55.116184 24.103159 
z
" style="fill:#232323;"/>
   </g>
   <g id="matplotlib.axis_1">
    <g id="xtick_1">
     <g id="line2d_1">
      <path clip-path="url(#p1d862ef973)" d="M 55.116184 386.983159 
L 55.116184 24.103159 
" style="fill:none;stroke:#303030;stroke-dasharray:4.144,1.792;stroke-dashoffset:0;stroke-opacity:0.5;stroke-width:1.12;"/>
     </g>
     <g id="line2d_2">
      <defs>
       <path d="M 0 0 
L 0 -6 
" id="m66bf279033" style="stroke:#bbbbbb;stroke-width:0.8;"/>
      </defs>
      <g>
       <use style="fill:#bbbbbb;stroke:#bbbbbb;stroke-width:0.8;" x="55.116184" xlink:href="#m66bf279033" y="386.983159"/>
      </g>
     </g>
     <g id="text_1">
      <!-- $\mathdefault{0.0}$ -->
      <g style="fill:#bbbbbb;" transform="translate(43.908214 405.41398)scale(0.18 -0.18)">
       <defs>
        <path d="M 1683 4416 
C 691 4416 186 3628 186 2077 
C 186 1326 320 680 544 366 
C 768 51 1126 -128 1523 -128 
C 2490 -128 2976 705 2976 2346 
C 2976 3749 2560 4416 1683 4416 
z
M 1568 4192 
C 2189 4192 2438 3564 2438 2025 
C 2438 661 2195 96 1606 96 
C 986 96 723 744 723 2308 
C 723 3660 960 4192 1568 4192 
z
" id="URWPalladioL-Roma-30" transform="scale(0.015625)"/>
        <path d="M 794 744 
C 602 744 429 564 429 372 
C 429 179 602 0 787 0 
C 992 0 1171 173 1171 372 
C 1171 564 992 744 794 744 
z
" id="URWPalladioL-Roma-2e" transform="scale(0.015625)"/>
       </defs>
       <use transform="scale(0.996264)" xlink:href="#URWPalladioL-Roma-30"/>
       <use transform="translate(49.8132 0)scale(0.996264)" xlink:href="#URWPalladioL-Roma-2e"/>
       <use transform="translate(74.719801 0)scale(0.996264)" xlink:href="#URWPalladioL-Roma-30"/>
      </g>
     </g>
    </g>
    <g id="xtick_2">
     <g id="line2d_3">
      <path clip-path="url(#p1d862ef973)" d="M 133.236184 386.983159 
L 133.236184 24.103159 
" style="fill:none;stroke:#303030;stroke-dasharray:4.144,1.792;stroke-dashoffset:0;stroke-opacity:0.5;stroke-width:1.12;"/>
     </g>
     <g id="line2d_4">
      <g>
       <use style="fill:#bbbbbb;stroke:#bbbbbb;stroke-width:0.8;" x="133.236184" xlink:href="#m66bf279033" y="386.983159"/>
      </g>
     </g>
     <g id="text_2">
      <!-- $\mathdefault{0.2}$ -->
      <g style="fill:#bbbbbb;" transform="translate(122.028214 405.41398)scale(0.18 -0.18)">
       <defs>
        <path d="M 102 160 
L 102 0 
C 1299 0 1299 0 1530 0 
C 1760 0 1760 0 2995 0 
C 2982 125 2982 186 2982 269 
C 2982 348 2982 407 2995 539 
C 2259 539 1965 539 781 539 
L 1946 1761 
C 2566 2414 2758 2763 2758 3238 
C 2758 3966 2259 4416 1446 4416 
C 986 4416 672 4288 358 3969 
L 250 3099 
L 435 3099 
L 518 3393 
C 621 3763 851 3923 1280 3923 
C 1830 3923 2182 3577 2182 3035 
C 2182 2555 1914 2083 1190 1316 
L 102 160 
z
" id="URWPalladioL-Roma-32" transform="scale(0.015625)"/>
       </defs>
       <use transform="scale(0.996264)" xlink:href="#URWPalladioL-Roma-30"/>
       <use transform="translate(49.8132 0)scale(0.996264)" xlink:href="#URWPalladioL-Roma-2e"/>
       <use transform="translate(74.719801 0)scale(0.996264)" xlink:href="#URWPalladioL-Roma-32"/>
      </g>
     </g>
    </g>
    <g id="xtick_3">
     <g id="line2d_5">
      <path clip-path="url(#p1d862ef973)" d="M 211.356184 386.983159 
L 211.356184 24.103159 
" style="fill:none;stroke:#303030;stroke-dasharray:4.144,1.792;stroke-dashoffset:0;stroke-opacity:0.5;stroke-width:1.12;"/>
     </g>
     <g id="line2d_6">
      <g>
       <use style="fill:#bbbbbb;stroke:#bbbbbb;stroke-width:0.8;" x="211.356184" xlink:href="#m66bf279033" y="386.983159"/>
      </g>
     </g>
     <g id="text_3">
      <!-- $\mathdefault{0.4}$ -->
      <g style="fill:#bbbbbb;" transform="translate(200.148214 405.41398)scale(0.18 -0.18)">
       <defs>
        <path d="M 1792 1152 
L 1792 673 
C 1792 289 1722 199 1408 199 
L 1011 199 
L 1011 0 
C 1862 0 1862 0 2016 0 
C 2170 0 2170 0 3021 0 
L 3021 199 
L 2714 199 
C 2400 199 2330 282 2330 669 
L 2330 1152 
C 2707 1152 2842 1152 3021 1133 
L 3021 1588 
C 2720 1563 2598 1563 2502 1563 
L 2483 1563 
L 2330 1563 
L 2330 2457 
C 2330 3600 2342 4152 2374 4416 
L 2298 4448 
L 1824 4275 
L 13 1299 
L 83 1152 
L 1792 1152 
z
M 1792 1563 
L 416 1563 
L 1792 3826 
L 1792 1563 
z
" id="URWPalladioL-Roma-34" transform="scale(0.015625)"/>
       </defs>
       <use transform="scale(0.996264)" xlink:href="#URWPalladioL-Roma-30"/>
       <use transform="translate(49.8132 0)scale(0.996264)" xlink:href="#URWPalladioL-Roma-2e"/>
       <use transform="translate(74.719801 0)scale(0.996264)" xlink:href="#URWPalladioL-Roma-34"/>
      </g>
     </g>
    </g>
    <g id="xtick_4">
     <g id="line2d_7">
      <path clip-path="url(#p1d862ef973)" d="M 289.476184 386.983159 
L 289.476184 24.103159 
" style="fill:none;stroke:#303030;stroke-dasharray:4.144,1.792;stroke-dashoffset:0;stroke-opacity:0.5;stroke-width:1.12;"/>
     </g>
     <g id="line2d_8">
      <g>
       <use style="fill:#bbbbbb;stroke:#bbbbbb;stroke-width:0.8;" x="289.476184" xlink:href="#m66bf279033" y="386.983159"/>
      </g>
     </g>
     <g id="text_4">
      <!-- $\mathdefault{0.6}$ -->
      <g style="fill:#bbbbbb;" transform="translate(278.268214 405.41398)scale(0.18 -0.18)">
       <defs>
        <path d="M 2662 4310 
L 2426 4419 
C 1811 4214 1549 4086 1222 3804 
C 563 3246 205 2464 205 1585 
C 205 526 717 -128 1542 -128 
C 2374 -128 2995 532 2995 1405 
C 2995 2143 2554 2624 1875 2624 
C 1555 2624 1363 2540 986 2239 
C 915 2181 909 2175 838 2124 
C 973 3284 1510 3913 2662 4259 
L 2662 4310 
z
M 1632 2239 
C 2118 2239 2445 1816 2445 1181 
C 2445 513 2118 83 1626 83 
C 1082 83 787 551 787 1412 
C 787 1636 813 1758 883 1867 
C 1024 2085 1325 2239 1632 2239 
z
" id="URWPalladioL-Roma-36" transform="scale(0.015625)"/>
       </defs>
       <use transform="scale(0.996264)" xlink:href="#URWPalladioL-Roma-30"/>
       <use transform="translate(49.8132 0)scale(0.996264)" xlink:href="#URWPalladioL-Roma-2e"/>
       <use transform="translate(74.719801 0)scale(0.996264)" xlink:href="#URWPalladioL-Roma-36"/>
      </g>
     </g>
    </g>
    <g id="xtick_5">
     <g id="line2d_9">
      <path clip-path="url(#p1d862ef973)" d="M 367.596184 386.983159 
L 367.596184 24.103159 
" style="fill:none;stroke:#303030;stroke-dasharray:4.144,1.792;stroke-dashoffset:0;stroke-opacity:0.5;stroke-width:1.12;"/>
     </g>
     <g id="line2d_10">
      <g>
       <use style="fill:#bbbbbb;stroke:#bbbbbb;stroke-width:0.8;" x="367.596184" xlink:href="#m66bf279033" y="386.983159"/>
      </g>
     </g>
     <g id="text_5">
      <!-- $\mathdefault{0.8}$ -->
      <g style="fill:#bbbbbb;" transform="translate(356.388214 405.41398)scale(0.18 -0.18)">
       <defs>
        <path d="M 1075 2211 
C 813 2090 704 2019 563 1884 
C 320 1641 192 1352 192 1019 
C 192 359 723 -128 1446 -128 
C 2278 -128 2970 526 2970 1320 
C 2970 1833 2733 2109 2003 2442 
C 2586 2840 2790 3109 2790 3493 
C 2790 4044 2336 4416 1658 4416 
C 896 4416 339 3929 339 3257 
C 339 2821 512 2577 1075 2211 
z
M 1818 1891 
C 2221 1711 2464 1397 2464 1052 
C 2464 513 2061 90 1542 90 
C 998 90 646 475 646 1071 
C 646 1538 832 1833 1306 2122 
L 1818 1891 
z
M 1427 2712 
C 1024 2910 819 3167 819 3487 
C 819 3910 1126 4198 1581 4198 
C 2048 4198 2355 3891 2355 3422 
C 2355 3058 2195 2808 1779 2538 
L 1427 2712 
z
" id="URWPalladioL-Roma-38" transform="scale(0.015625)"/>
       </defs>
       <use transform="scale(0.996264)" xlink:href="#URWPalladioL-Roma-30"/>
       <use transform="translate(49.8132 0)scale(0.996264)" xlink:href="#URWPalladioL-Roma-2e"/>
       <use transform="translate(74.719801 0)scale(0.996264)" xlink:href="#URWPalladioL-Roma-38"/>
      </g>
     </g>
    </g>
    <g id="xtick_6">
     <g id="line2d_11">
      <path clip-path="url(#p1d862ef973)" d="M 445.716184 386.983159 
L 445.716184 24.103159 
" style="fill:none;stroke:#303030;stroke-dasharray:4.144,1.792;stroke-dashoffset:0;stroke-opacity:0.5;stroke-width:1.12;"/>
     </g>
     <g id="line2d_12">
      <g>
       <use style="fill:#bbbbbb;stroke:#bbbbbb;stroke-width:0.8;" x="445.716184" xlink:href="#m66bf279033" y="386.983159"/>
      </g>
     </g>
     <g id="text_6">
      <!-- $\mathdefault{1.0}$ -->
      <g style="fill:#bbbbbb;" transform="translate(434.508214 405.41398)scale(0.18 -0.18)">
       <defs>
        <path d="M 429 3584 
L 493 3584 
L 1318 3956 
C 1325 3962 1331 3962 1338 3962 
C 1376 3962 1389 3905 1389 3751 
L 1389 613 
C 1389 276 1318 205 973 205 
L 614 205 
L 614 0 
C 1600 0 1600 0 1670 0 
C 1754 0 1894 0 2112 0 
C 2189 0 2413 0 2675 0 
L 2675 205 
L 2342 205 
C 1990 205 1926 276 1926 612 
L 1926 4443 
L 1837 4475 
C 1421 4257 966 4065 384 3860 
L 429 3584 
z
" id="URWPalladioL-Roma-31" transform="scale(0.015625)"/>
       </defs>
       <use transform="scale(0.996264)" xlink:href="#URWPalladioL-Roma-31"/>
       <use transform="translate(49.8132 0)scale(0.996264)" xlink:href="#URWPalladioL-Roma-2e"/>
       <use transform="translate(74.719801 0)scale(0.996264)" xlink:href="#URWPalladioL-Roma-30"/>
      </g>
     </g>
    </g>
    <g id="text_7">
     <!-- Recall -->
     <g style="fill:#bbbbbb;" transform="translate(229.112383 425.876097)scale(0.16 -0.16)">
      <defs>
       <path d="M 1382 4147 
C 1600 4198 1792 4224 2010 4224 
C 2675 4224 3046 3915 3046 3367 
C 3046 2775 2579 2401 1837 2401 
C 1792 2401 1734 2401 1651 2407 
L 1613 2330 
C 1683 2246 1702 2221 1779 2137 
C 1869 2035 1888 2009 1946 1932 
L 3123 346 
C 3162 295 3200 243 3238 199 
C 3283 141 3322 83 3386 0 
C 3686 0 3750 0 3821 0 
C 3878 0 3878 0 4282 0 
L 4282 186 
C 4077 205 3974 244 3891 354 
L 2438 2259 
C 2797 2349 2963 2419 3174 2566 
C 3507 2803 3686 3123 3686 3495 
C 3686 4109 3238 4455 2445 4455 
L 2342 4455 
C 1510 4455 1510 4455 1293 4455 
C 1082 4455 1082 4455 186 4455 
L 186 4275 
L 448 4243 
C 742 4243 774 4184 774 3679 
L 774 769 
C 774 257 742 205 448 205 
L 141 205 
L 141 0 
C 518 0 742 0 1075 0 
C 1408 0 1638 0 2016 0 
L 2016 205 
L 1709 205 
C 1414 205 1382 256 1382 768 
L 1382 4147 
z
" id="URWPalladioL-Roma-52" transform="scale(0.015625)"/>
       <path d="M 2797 447 
L 2714 511 
C 2304 269 2157 212 1882 212 
C 1466 212 1120 398 941 711 
C 819 921 774 1101 762 1472 
L 1696 1472 
C 2138 1472 2413 1472 2854 1544 
C 2861 1634 2867 1693 2867 1771 
C 2867 2520 2394 3008 1677 3008 
C 1440 3008 1165 2924 902 2770 
C 378 2469 166 2071 166 1404 
C 166 1000 262 654 435 410 
C 691 71 1120 -128 1600 -128 
C 1837 -128 2074 -77 2336 37 
C 2509 108 2643 191 2669 230 
L 2797 447 
z
M 2298 1690 
C 1965 1690 1811 1690 1581 1690 
C 1286 1690 1120 1690 774 1722 
C 774 2027 800 2169 883 2337 
C 1018 2622 1293 2796 1600 2796 
C 1811 2796 1978 2711 2093 2534 
C 2234 2319 2278 2129 2298 1690 
z
" id="URWPalladioL-Roma-65" transform="scale(0.015625)"/>
       <path d="M 2554 1994 
C 2554 2289 2586 2552 2643 2783 
C 2387 2937 2163 3008 1901 3008 
C 1594 3008 1235 2886 851 2642 
C 403 2360 166 1911 166 1347 
C 166 481 774 -128 1632 -128 
C 1965 -128 2445 -6 2509 90 
L 2643 295 
L 2579 391 
C 2342 263 2138 205 1907 205 
C 1197 205 730 757 730 1603 
C 730 2289 1050 2674 1626 2674 
C 1907 2674 2214 2546 2330 2386 
L 2374 1994 
L 2554 1994 
z
" id="URWPalladioL-Roma-63" transform="scale(0.015625)"/>
       <path d="M 2074 538 
L 2042 -1 
C 2458 -1 2458 -1 2541 -1 
C 2573 -1 2733 -1 3014 -1 
L 3014 192 
L 2765 192 
C 2611 192 2586 244 2586 558 
L 2586 1731 
C 2586 2668 2317 3008 1574 3008 
C 1299 3008 1043 2937 800 2791 
L 461 2585 
L 461 2171 
L 627 2126 
L 710 2323 
C 845 2623 909 2668 1203 2668 
C 1805 2668 2054 2431 2074 1852 
L 1440 1736 
C 570 1577 205 1277 205 722 
C 205 224 506 -64 1011 -64 
C 1126 -64 1235 -45 1280 -13 
L 2074 538 
z
M 2074 806 
C 1888 544 1485 302 1235 302 
C 979 302 755 538 755 812 
C 755 1048 883 1271 1075 1392 
C 1235 1488 1587 1577 2074 1648 
L 2074 806 
z
" id="URWPalladioL-Roma-61" transform="scale(0.015625)"/>
       <path d="M 147 4256 
L 506 4256 
C 621 4256 666 4185 666 3992 
L 666 651 
C 666 244 646 199 429 199 
L 134 199 
L 134 0 
C 774 0 774 0 934 0 
C 1094 0 1094 0 1734 0 
L 1734 199 
L 1440 199 
C 1222 199 1203 244 1203 650 
L 1203 4621 
L 1146 4673 
C 864 4564 653 4512 147 4435 
L 147 4256 
z
" id="URWPalladioL-Roma-6c" transform="scale(0.015625)"/>
      </defs>
      <use transform="scale(0.996264)" xlink:href="#URWPalladioL-Roma-52"/>
      <use transform="translate(66.549694 0)scale(0.996264)" xlink:href="#URWPalladioL-Roma-65"/>
      <use transform="translate(114.269989 0)scale(0.996264)" xlink:href="#URWPalladioL-Roma-63"/>
      <use transform="translate(158.503558 0)scale(0.996264)" xlink:href="#URWPalladioL-Roma-61"/>
      <use transform="translate(208.316758 0)scale(0.996264)" xlink:href="#URWPalladioL-Roma-6c"/>
      <use transform="translate(237.30712 0)scale(0.996264)" xlink:href="#URWPalladioL-Roma-6c"/>
     </g>
    </g>
   </g>
   <g id="matplotlib.axis_2">
    <g id="ytick_1">
     <g id="line2d_13">
      <path clip-path="url(#p1d862ef973)" d="M 55.116184 386.983159 
L 445.716184 386.983159 
" style="fill:none;stroke:#303030;stroke-dasharray:4.144,1.792;stroke-dashoffset:0;stroke-opacity:0.5;stroke-width:1.12;"/>
     </g>
     <g id="line2d_14">
      <defs>
       <path d="M 0 0 
L 6 0 
" id="m8877d66bea" style="stroke:#bbbbbb;stroke-width:0.8;"/>
      </defs>
      <g>
       <use style="fill:#bbbbbb;stroke:#bbbbbb;stroke-width:0.8;" x="55.116184" xlink:href="#m8877d66bea" y="386.983159"/>
      </g>
     </g>
     <g id="text_8">
      <!-- $\mathdefault{0.0}$ -->
      <g style="fill:#bbbbbb;" transform="translate(27.100243 393.39857)scale(0.18 -0.18)">
       <use transform="scale(0.996264)" xlink:href="#URWPalladioL-Roma-30"/>
       <use transform="translate(49.8132 0)scale(0.996264)" xlink:href="#URWPalladioL-Roma-2e"/>
       <use transform="translate(74.719801 0)scale(0.996264)" xlink:href="#URWPalladioL-Roma-30"/>
      </g>
     </g>
    </g>
    <g id="ytick_2">
     <g id="line2d_15">
      <path clip-path="url(#p1d862ef973)" d="M 55.116184 317.863159 
L 445.716184 317.863159 
" style="fill:none;stroke:#303030;stroke-dasharray:4.144,1.792;stroke-dashoffset:0;stroke-opacity:0.5;stroke-width:1.12;"/>
     </g>
     <g id="line2d_16">
      <g>
       <use style="fill:#bbbbbb;stroke:#bbbbbb;stroke-width:0.8;" x="55.116184" xlink:href="#m8877d66bea" y="317.863159"/>
      </g>
     </g>
     <g id="text_9">
      <!-- $\mathdefault{0.2}$ -->
      <g style="fill:#bbbbbb;" transform="translate(27.100243 324.27857)scale(0.18 -0.18)">
       <use transform="scale(0.996264)" xlink:href="#URWPalladioL-Roma-30"/>
       <use transform="translate(49.8132 0)scale(0.996264)" xlink:href="#URWPalladioL-Roma-2e"/>
       <use transform="translate(74.719801 0)scale(0.996264)" xlink:href="#URWPalladioL-Roma-32"/>
      </g>
     </g>
    </g>
    <g id="ytick_3">
     <g id="line2d_17">
      <path clip-path="url(#p1d862ef973)" d="M 55.116184 248.743159 
L 445.716184 248.743159 
" style="fill:none;stroke:#303030;stroke-dasharray:4.144,1.792;stroke-dashoffset:0;stroke-opacity:0.5;stroke-width:1.12;"/>
     </g>
     <g id="line2d_18">
      <g>
       <use style="fill:#bbbbbb;stroke:#bbbbbb;stroke-width:0.8;" x="55.116184" xlink:href="#m8877d66bea" y="248.743159"/>
      </g>
     </g>
     <g id="text_10">
      <!-- $\mathdefault{0.4}$ -->
      <g style="fill:#bbbbbb;" transform="translate(27.100243 255.15857)scale(0.18 -0.18)">
       <use transform="scale(0.996264)" xlink:href="#URWPalladioL-Roma-30"/>
       <use transform="translate(49.8132 0)scale(0.996264)" xlink:href="#URWPalladioL-Roma-2e"/>
       <use transform="translate(74.719801 0)scale(0.996264)" xlink:href="#URWPalladioL-Roma-34"/>
      </g>
     </g>
    </g>
    <g id="ytick_4">
     <g id="line2d_19">
      <path clip-path="url(#p1d862ef973)" d="M 55.116184 179.623159 
L 445.716184 179.623159 
" style="fill:none;stroke:#303030;stroke-dasharray:4.144,1.792;stroke-dashoffset:0;stroke-opacity:0.5;stroke-width:1.12;"/>
     </g>
     <g id="line2d_20">
      <g>
       <use style="fill:#bbbbbb;stroke:#bbbbbb;stroke-width:0.8;" x="55.116184" xlink:href="#m8877d66bea" y="179.623159"/>
      </g>
     </g>
     <g id="text_11">
      <!-- $\mathdefault{0.6}$ -->
      <g style="fill:#bbbbbb;" transform="translate(27.100243 186.03857)scale(0.18 -0.18)">
       <use transform="scale(0.996264)" xlink:href="#URWPalladioL-Roma-30"/>
       <use transform="translate(49.8132 0)scale(0.996264)" xlink:href="#URWPalladioL-Roma-2e"/>
       <use transform="translate(74.719801 0)scale(0.996264)" xlink:href="#URWPalladioL-Roma-36"/>
      </g>
     </g>
    </g>
    <g id="ytick_5">
     <g id="line2d_21">
      <path clip-path="url(#p1d862ef973)" d="M 55.116184 110.503159 
L 445.716184 110.503159 
" style="fill:none;stroke:#303030;stroke-dasharray:4.144,1.792;stroke-dashoffset:0;stroke-opacity:0.5;stroke-width:1.12;"/>
     </g>
     <g id="line2d_22">
      <g>
       <use style="fill:#bbbbbb;stroke:#bbbbbb;stroke-width:0.8;" x="55.116184" xlink:href="#m8877d66bea" y="110.503159"/>
      </g>
     </g>
     <g id="text_12">
      <!-- $\mathdefault{0.8}$ -->
      <g style="fill:#bbbbbb;" transform="translate(27.100243 116.91857)scale(0.18 -0.18)">
       <use transform="scale(0.996264)" xlink:href="#URWPalladioL-Roma-30"/>
       <use transform="translate(49.8132 0)scale(0.996264)" xlink:href="#URWPalladioL-Roma-2e"/>
       <use transform="translate(74.719801 0)scale(0.996264)" xlink:href="#URWPalladioL-Roma-38"/>
      </g>
     </g>
    </g>
    <g id="ytick_6">
     <g id="line2d_23">
      <path clip-path="url(#p1d862ef973)" d="M 55.116184 41.383159 
L 445.716184 41.383159 
" style="fill:none;stroke:#303030;stroke-dasharray:4.144,1.792;stroke-dashoffset:0;stroke-opacity:0.5;stroke-width:1.12;"/>
     </g>
     <g id="line2d_24">
      <g>
       <use style="fill:#bbbbbb;stroke:#bbbbbb;stroke-width:0.8;" x="55.116184" xlink:href="#m8877d66bea" y="41.383159"/>
      </g>
     </g>
     <g id="text_13">
      <!-- $\mathdefault{1.0}$ -->
      <g style="fill:#bbbbbb;" transform="translate(27.100243 47.79857)scale(0.18 -0.18)">
       <use transform="scale(0.996264)" xlink:href="#URWPalladioL-Roma-31"/>
       <use transform="translate(49.8132 0)scale(0.996264)" xlink:href="#URWPalladioL-Roma-2e"/>
       <use transform="translate(74.719801 0)scale(0.996264)" xlink:href="#URWPalladioL-Roma-30"/>
      </g>
     </g>
    </g>
    <g id="text_14">
     <!-- Precision -->
     <g style="fill:#bbbbbb;" transform="translate(18.605183 237.726093)rotate(-90)scale(0.16 -0.16)">
      <defs>
       <path d="M 1382 4116 
C 1606 4166 1792 4192 2010 4192 
C 2701 4192 3072 3875 3072 3273 
C 3072 2703 2682 2304 2125 2304 
C 1990 2304 1894 2317 1728 2367 
L 1792 2137 
C 1946 2105 2035 2099 2163 2099 
C 3040 2099 3712 2692 3712 3459 
C 3712 4071 3213 4448 2400 4448 
C 2368 4448 2304 4448 2221 4423 
C 1984 4423 1498 4423 1312 4423 
C 1171 4423 1171 4423 147 4423 
L 147 4224 
L 435 4224 
C 723 4224 774 4140 774 3663 
L 774 766 
C 774 256 742 205 448 205 
L 141 205 
L 141 0 
C 518 0 742 0 1075 0 
C 1408 0 1638 0 2016 0 
L 2016 205 
L 1709 205 
C 1414 205 1382 256 1382 764 
L 1382 4116 
z
" id="URWPalladioL-Roma-50" transform="scale(0.015625)"/>
       <path d="M 147 2565 
L 384 2565 
C 640 2565 666 2520 666 2094 
L 666 643 
C 666 237 646 192 429 192 
L 134 192 
L 134 -7 
C 595 -7 762 -7 922 -7 
C 1050 -7 1050 -7 1837 -7 
L 1837 192 
L 1504 192 
C 1216 192 1203 211 1203 638 
L 1203 1751 
C 1203 2139 1459 2463 1773 2463 
C 1965 2463 2099 2373 2202 2169 
L 2336 2169 
L 2394 2937 
C 2323 2982 2208 3008 2093 3008 
C 1901 3008 1696 2905 1562 2745 
L 1203 2322 
L 1203 2982 
L 1146 3008 
C 819 2873 486 2783 147 2745 
L 147 2565 
z
" id="URWPalladioL-Roma-72" transform="scale(0.015625)"/>
       <path d="M 1203 2993 
L 1146 3019 
C 819 2884 486 2793 147 2755 
L 147 2576 
L 384 2576 
C 640 2576 666 2531 666 2105 
L 666 651 
C 666 244 646 199 429 199 
L 134 199 
L 134 0 
C 774 0 774 0 934 0 
C 1094 0 1094 0 1734 0 
L 1734 199 
L 1440 199 
C 1222 199 1203 244 1203 651 
L 1203 2993 
z
M 909 4416 
C 717 4416 550 4249 550 4056 
C 550 3870 717 3704 902 3704 
C 1088 3704 1261 3870 1261 4056 
C 1261 4236 1088 4416 909 4416 
z
" id="URWPalladioL-Roma-69" transform="scale(0.015625)"/>
       <path d="M 262 917 
C 262 475 243 282 192 26 
C 525 -83 774 -128 1069 -128 
C 1907 -128 2502 321 2502 949 
C 2502 1148 2445 1295 2323 1424 
C 2157 1584 1946 1661 1382 1770 
C 858 1873 685 2001 685 2296 
C 685 2616 909 2796 1299 2796 
C 1728 2796 2054 2572 2054 2270 
L 2054 2123 
L 2234 2123 
C 2240 2495 2246 2648 2266 2847 
C 1926 2963 1696 3008 1434 3008 
C 691 3008 237 2655 237 2078 
C 237 1770 378 1552 672 1417 
C 845 1340 1184 1238 1619 1141 
C 1907 1077 2029 943 2029 699 
C 2029 353 1709 109 1254 109 
C 787 109 454 333 454 654 
L 454 917 
L 262 917 
z
" id="URWPalladioL-Roma-73" transform="scale(0.015625)"/>
       <path d="M 1786 3008 
C 851 3008 205 2347 205 1392 
C 205 487 774 -128 1600 -128 
C 2586 -128 3290 558 3290 1520 
C 3290 2386 2662 3008 1786 3008 
z
M 1670 2796 
C 2259 2796 2694 2155 2694 1283 
C 2694 545 2368 83 1850 83 
C 1222 83 800 699 800 1610 
C 800 2379 1107 2796 1670 2796 
z
" id="URWPalladioL-Roma-6f" transform="scale(0.015625)"/>
       <path d="M 2624 -7 
C 3014 -7 3021 -7 3130 -7 
C 3219 -7 3219 -7 3661 -7 
L 3661 179 
L 3398 205 
C 3181 205 3162 244 3162 654 
L 3162 1892 
C 3162 2642 2810 3008 2093 3008 
C 1856 3008 1722 2963 1587 2847 
L 1101 2424 
L 1101 2982 
L 1043 3008 
C 717 2873 384 2783 45 2745 
L 45 2565 
L 282 2565 
C 538 2565 563 2520 563 2094 
L 563 643 
C 563 237 544 192 326 192 
L 38 192 
L 38 -7 
C 474 -7 646 -7 832 -7 
C 1018 -7 1190 -7 1626 -7 
L 1626 192 
L 1338 192 
C 1120 192 1101 237 1101 643 
L 1101 2011 
C 1101 2300 1523 2616 1914 2616 
C 2342 2616 2624 2297 2624 1806 
L 2624 -7 
z
" id="URWPalladioL-Roma-6e" transform="scale(0.015625)"/>
      </defs>
      <use transform="scale(0.996264)" xlink:href="#URWPalladioL-Roma-50"/>
      <use transform="translate(60.173595 0)scale(0.996264)" xlink:href="#URWPalladioL-Roma-72"/>
      <use transform="translate(97.732913 0)scale(0.996264)" xlink:href="#URWPalladioL-Roma-65"/>
      <use transform="translate(145.453208 0)scale(0.996264)" xlink:href="#URWPalladioL-Roma-63"/>
      <use transform="translate(189.686776 0)scale(0.996264)" xlink:href="#URWPalladioL-Roma-69"/>
      <use transform="translate(218.677138 0)scale(0.996264)" xlink:href="#URWPalladioL-Roma-73"/>
      <use transform="translate(260.918604 0)scale(0.996264)" xlink:href="#URWPalladioL-Roma-69"/>
      <use transform="translate(289.908966 0)scale(0.996264)" xlink:href="#URWPalladioL-Roma-6f"/>
      <use transform="translate(344.304546 0)scale(0.996264)" xlink:href="#URWPalladioL-Roma-6e"/>
     </g>
    </g>
   </g>
   <g id="line2d_25">
    <path clip-path="url(#p1d862ef973)" d="M 98.480755 38.823159 
L 106.372469 241.740806 
L 114.264184 285.223159 
L 122.155898 304.177005 
L 130.047612 314.791159 
L 137.939327 321.577258 
L 145.831041 326.289826 
L 153.722755 329.75328 
L 161.614469 332.406138 
L 169.506184 334.503159 
L 177.397898 336.20247 
L 185.289612 337.607411 
L 193.181327 338.788377 
L 201.073041 339.794971 
L 208.964755 340.663159 
L 216.856469 341.41965 
L 224.748184 342.084698 
L 232.639898 342.673936 
L 240.531612 343.19963 
L 248.423327 343.671531 
L 256.315041 344.097495 
L 264.206755 344.483919 
L 272.098469 344.836062 
L 279.990184 345.158294 
L 287.881898 345.45427 
L 295.773612 345.727074 
L 303.665327 345.979324 
L 311.557041 346.213258 
L 319.448755 346.430802 
L 327.340469 346.633621 
L 335.232184 346.823159 
L 343.123898 347.000681 
L 351.015612 347.167293 
L 358.907327 347.323972 
L 366.799041 347.47158 
L 374.690755 347.610883 
L 382.582469 347.742562 
L 390.474184 347.867227 
L 398.365898 347.985423 
L 406.257612 348.097642 
L 414.149327 348.204325 
L 422.041041 348.305873 
L 429.932755 348.402646 
L 437.824469 348.494975 
L 445.716184 348.583159 
" style="fill:none;stroke:#808080;stroke-linecap:round;stroke-opacity:0.2;stroke-width:1.2;"/>
   </g>
   <g id="line2d_26">
    <path clip-path="url(#p1d862ef973)" d="M 151.080562 -1 
L 153.722755 54.292731 
L 161.614469 127.589002 
L 169.506184 168.989313 
L 177.397898 195.593123 
L 185.289612 214.130234 
L 193.181327 227.786563 
L 201.073041 238.265509 
L 208.964755 246.560422 
L 216.856469 253.289661 
L 224.748184 258.858281 
L 232.639898 263.54271 
L 240.531612 267.538048 
L 248.423327 270.985927 
L 256.315041 273.991657 
L 264.206755 276.635162 
L 272.098469 278.978199 
L 279.990184 281.069243 
L 287.881898 282.946871 
L 295.773612 284.642168 
L 303.665327 286.180465 
L 311.557041 287.582605 
L 319.448755 288.865899 
L 327.340469 290.044843 
L 335.232184 291.131667 
L 343.123898 292.136763 
L 351.015612 293.069016 
L 358.907327 293.936066 
L 366.799041 294.744524 
L 374.690755 295.500135 
L 382.582469 296.207916 
L 390.474184 296.87227 
L 398.365898 297.497074 
L 406.257612 298.085758 
L 414.149327 298.641366 
L 422.041041 299.166609 
L 429.932755 299.663911 
L 437.824469 300.135444 
L 445.716184 300.583159 
" style="fill:none;stroke:#808080;stroke-linecap:round;stroke-opacity:0.2;stroke-width:1.2;"/>
   </g>
   <g id="line2d_27">
    <path clip-path="url(#p1d862ef973)" d="M 215.288802 -1 
L 216.856469 10.65629 
L 224.748184 51.677627 
L 232.639898 81.969474 
L 240.531612 105.254561 
L 248.423327 123.711955 
L 256.315041 138.702021 
L 264.206755 151.117903 
L 272.098469 161.570252 
L 279.990184 170.490724 
L 287.881898 178.19309 
L 295.773612 184.910906 
L 303.665327 190.821606 
L 311.557041 196.062404 
L 319.448755 200.741079 
L 327.340469 204.943468 
L 335.232184 208.738776 
L 343.123898 212.18342 
L 351.015612 215.323855 
L 358.907327 218.198674 
L 366.799041 220.840208 
L 374.690755 223.275747 
L 382.582469 225.528481 
L 390.474184 227.618249 
L 398.365898 229.562115 
L 406.257612 231.374846 
L 414.149327 233.069277 
L 422.041041 234.656622 
L 429.932755 236.146724 
L 437.824469 237.548251 
L 445.716184 238.868873 
" style="fill:none;stroke:#808080;stroke-linecap:round;stroke-opacity:0.2;stroke-width:1.2;"/>
   </g>
   <g id="line2d_28">
    <path clip-path="url(#p1d862ef973)" d="M 297.97867 -1 
L 303.665327 14.761812 
L 311.557041 33.189937 
L 319.448755 48.92723 
L 327.340469 62.522953 
L 335.232184 74.386402 
L 343.123898 84.828822 
L 351.015612 94.091104 
L 358.907327 102.362608 
L 366.799041 109.794236 
L 374.690755 116.507727 
L 382.582469 122.602377 
L 390.474184 128.159982 
L 398.365898 133.24853 
L 406.257612 137.925 
L 414.149327 142.237499 
L 422.041041 146.226928 
L 429.932755 149.92828 
L 437.824469 153.37167 
L 445.716184 156.583159 
" style="fill:none;stroke:#808080;stroke-linecap:round;stroke-opacity:0.2;stroke-width:1.2;"/>
   </g>
   <g id="line2d_29">
    <path clip-path="url(#p1d862ef973)" d="M 445.716184 257.735525 
L 445.290229 257.823796 
L 445.290229 257.718316 
L 445.290229 242.891398 
L 444.864275 242.983159 
L 444.864275 242.917556 
L 444.864275 241.257814 
L 444.438321 241.349964 
L 444.438321 241.28279 
L 444.438321 237.913598 
L 444.012367 238.006389 
L 444.012367 237.936017 
L 444.012367 234.84584 
L 443.586413 234.939165 
L 443.586413 234.865785 
L 443.586413 226.827062 
L 443.160459 226.921339 
L 443.160459 226.839924 
L 443.160459 215.966538 
L 442.734504 216.06142 
L 442.734504 215.968477 
L 442.734504 203.06737 
L 442.30855 203.161977 
L 442.30855 203.054354 
L 442.30855 200.211221 
L 441.882596 200.305705 
L 441.882596 200.194588 
L 441.882596 192.676781 
L 441.456642 192.77052 
L 441.456642 188.96724 
L 441.030688 189.06053 
L 441.030688 185.882581 
L 440.604733 185.975447 
L 440.604733 185.457386 
L 440.178779 185.550277 
L 440.178779 185.42032 
L 439.752825 185.513308 
L 439.752825 183.543263 
L 439.326871 183.635997 
L 439.326871 182.703212 
L 438.900917 182.79588 
L 438.900917 179.669178 
L 438.474962 179.761307 
L 438.474962 178.929647 
L 438.049008 179.021713 
L 438.049008 175.626424 
L 437.623054 175.717809 
L 437.623054 174.560983 
L 437.1971 174.6522 
L 437.1971 169.131297 
L 436.771146 169.221134 
L 436.771146 168.452743 
L 436.345191 168.542481 
L 436.345191 165.888091 
L 435.919237 165.977151 
L 435.919237 164.063679 
L 435.493283 164.152257 
L 435.493283 160.721576 
L 435.067329 160.809131 
L 435.067329 160.643071 
L 434.641375 160.730698 
L 434.641375 160.564336 
L 434.21542 160.652033 
L 434.21542 160.318458 
L 433.789466 160.406168 
L 433.789466 156.842036 
L 433.363512 156.928586 
L 433.363512 150.183159 
L 432.937558 150.267175 
L 432.937558 149.717524 
L 432.511604 149.80144 
L 432.511604 149.248998 
L 432.085649 149.33281 
L 432.085649 148.033159 
L 431.659695 148.116545 
L 431.659695 146.9907 
L 431.233741 147.073725 
L 431.233741 145.1727 
L 430.807787 145.255007 
L 430.807787 145.063159 
L 430.381833 145.14551 
L 430.381833 144.567873 
L 429.955878 144.650091 
L 429.955878 141.718643 
L 429.529924 141.799624 
L 429.529924 140.005598 
L 429.10397 140.085844 
L 429.10397 139.279649 
L 428.678016 139.35963 
L 428.678016 135.663756 
L 428.252062 135.741997 
L 428.252062 131.717055 
L 427.826107 131.793286 
L 427.826107 131.361857 
L 426.974199 131.514235 
L 426.974199 130.646031 
L 426.122291 130.797968 
L 426.122291 130.579752 
L 425.696336 130.655793 
L 425.696336 128.451775 
L 425.270382 128.526705 
L 425.270382 122.611328 
L 424.844428 122.682895 
L 424.844428 122.216345 
L 423.99252 122.359286 
L 423.99252 120.474165 
L 423.566565 120.544656 
L 423.566565 118.631274 
L 423.140611 118.700679 
L 423.140611 118.459418 
L 422.714657 118.528794 
L 422.714657 115.350372 
L 422.288703 115.417799 
L 422.288703 114.423964 
L 421.862749 114.490851 
L 421.862749 114.241088 
L 421.01084 114.374895 
L 421.01084 114.124336 
L 420.584886 114.191255 
L 420.584886 112.423159 
L 420.158932 112.488998 
L 420.158932 110.180169 
L 419.732978 110.244525 
L 419.732978 108.420447 
L 419.307023 108.48363 
L 419.307023 107.693934 
L 418.881069 107.756669 
L 418.881069 107.49225 
L 418.455115 107.554913 
L 418.455115 106.491437 
L 418.029161 106.553445 
L 418.029161 106.286114 
L 417.177252 106.410093 
L 417.177252 104.521621 
L 416.751298 104.582389 
L 416.751298 103.490985 
L 416.325344 103.551051 
L 416.325344 103.276673 
L 414.621527 103.51727 
L 414.621527 102.688422 
L 414.195573 102.748232 
L 414.195573 100.512363 
L 413.769619 100.570561 
L 413.769619 98.297445 
L 412.91771 98.410595 
L 412.91771 97.835749 
L 412.491756 97.892033 
L 412.491756 95.567682 
L 412.065802 95.622193 
L 412.065802 93.852795 
L 411.639848 93.905956 
L 411.639848 93.310875 
L 411.213894 93.363647 
L 411.213894 93.06495 
L 410.787939 93.117579 
L 410.787939 92.217071 
L 410.361985 92.269049 
L 410.361985 91.058724 
L 409.936031 91.109778 
L 409.936031 90.805381 
L 409.510077 90.85628 
L 409.510077 90.550994 
L 407.80626 90.754588 
L 407.80626 90.140006 
L 406.954352 90.241371 
L 406.954352 88.378975 
L 405.676489 88.526916 
L 405.676489 87.584422 
L 405.250535 87.633106 
L 405.250535 86.683793 
L 404.398626 86.779769 
L 404.398626 86.46142 
L 403.972672 86.509274 
L 403.972672 86.18996 
L 403.546718 86.237627 
L 403.546718 85.917344 
L 400.990993 86.203738 
L 400.990993 85.557595 
L 400.565039 85.605095 
L 400.565039 84.955573 
L 399.71313 85.049682 
L 399.71313 84.396146 
L 398.861222 84.48945 
L 398.861222 84.161009 
L 398.435268 84.207507 
L 398.435268 83.878045 
L 397.157405 84.01722 
L 397.157405 82.688422 
L 396.731451 82.733763 
L 396.731451 82.399423 
L 396.305497 82.444545 
L 396.305497 82.10915 
L 395.879542 82.154052 
L 395.879542 81.480397 
L 395.453588 81.524752 
L 395.453588 80.167159 
L 395.027634 80.2103 
L 395.027634 79.183159 
L 394.60168 79.225394 
L 394.60168 78.881146 
L 393.749771 78.965222 
L 393.749771 78.619523 
L 393.323817 78.661361 
L 393.323817 77.966943 
L 392.045955 78.090956 
L 392.045955 76.688494 
L 391.62 76.728614 
L 391.62 75.66731 
L 391.194046 75.706447 
L 391.194046 74.994143 
L 389.916184 75.10991 
L 389.916184 73.671048 
L 388.638321 73.783159 
L 388.638321 73.056477 
L 387.786413 73.130136 
L 387.786413 72.764766 
L 386.50855 72.874748 
L 386.50855 72.50737 
L 386.082596 72.543815 
L 386.082596 72.175187 
L 385.656642 72.211328 
L 385.656642 71.841444 
L 385.230688 71.877277 
L 385.230688 70.761199 
L 384.378779 70.830733 
L 384.378779 69.704299 
L 383.526871 69.771731 
L 383.526871 69.393648 
L 382.249008 69.494164 
L 382.249008 69.113938 
L 381.823054 69.147188 
L 381.823054 68.383159 
L 379.693283 68.5464 
L 379.693283 68.160883 
L 378.841375 68.225878 
L 378.841375 67.838566 
L 378.41542 67.87075 
L 378.41542 67.482063 
L 377.989466 67.513891 
L 377.989466 67.123819 
L 377.563512 67.155286 
L 377.563512 66.76382 
L 377.137558 66.794924 
L 377.137558 66.402055 
L 376.711604 66.432791 
L 376.711604 66.03851 
L 376.285649 66.068873 
L 376.285649 65.673172 
L 375.859695 65.703159 
L 375.859695 65.306027 
L 374.155878 65.424898 
L 374.155878 65.02495 
L 372.878016 65.113496 
L 372.878016 64.711159 
L 370.322291 64.887441 
L 370.322291 64.074068 
L 369.470382 64.131514 
L 369.470382 63.722323 
L 369.044428 63.750672 
L 369.044428 63.339957 
L 368.618474 63.367892 
L 368.618474 62.955643 
L 367.766565 63.010745 
L 367.766565 62.596458 
L 366.914657 62.650851 
L 366.914657 62.234507 
L 366.062749 62.288178 
L 366.062749 61.869757 
L 363.507023 62.029393 
L 363.507023 61.606826 
L 361.377252 61.73918 
L 361.377252 60.457009 
L 360.951298 60.482107 
L 360.951298 60.051934 
L 360.09939 60.101257 
L 360.09939 58.800666 
L 359.673436 58.823797 
L 359.673436 58.387414 
L 357.969619 58.478346 
L 357.969619 58.038581 
L 355.839848 58.150814 
L 355.839848 57.707046 
L 355.413894 57.729105 
L 355.413894 57.283565 
L 354.136031 57.348377 
L 354.136031 56.899894 
L 353.710077 56.921034 
L 353.710077 56.470744 
L 352.858168 56.512024 
L 352.858168 56.059324 
L 349.876489 56.201416 
L 349.876489 55.74327 
L 349.024581 55.783159 
L 349.024581 55.322519 
L 348.598626 55.341934 
L 348.598626 54.879393 
L 346.89481 54.955109 
L 346.89481 54.488777 
L 337.523817 54.906637 
L 337.523817 54.424669 
L 337.097863 54.443624 
L 337.097863 53.959578 
L 336.671909 53.977911 
L 336.671909 53.491772 
L 334.116184 53.59877 
L 334.116184 53.107053 
L 333.264275 53.141739 
L 333.264275 52.647159 
L 331.986413 52.697445 
L 331.986413 52.199255 
L 329.004733 52.31328 
L 329.004733 51.808499 
L 328.152825 51.840043 
L 328.152825 50.822916 
L 314.522291 51.30469 
L 314.522291 50.768463 
L 313.670382 50.798544 
L 313.670382 50.258922 
L 312.818474 50.287507 
L 312.818474 49.744449 
L 305.151298 49.994455 
L 305.151298 49.433742 
L 303.447481 49.487682 
L 303.447481 48.921414 
L 303.021527 48.934084 
L 303.021527 48.364977 
L 298.336031 48.49671 
L 298.336031 47.915118 
L 293.650535 48.040953 
L 293.650535 47.446317 
L 291.09481 47.510819 
L 291.09481 46.907848 
L 288.965039 46.957353 
L 288.965039 46.346893 
L 276.612367 46.619523 
L 276.612367 45.973672 
L 255.314657 46.454857 
L 255.314657 45.739462 
L 233.590993 46.262218 
L 233.590993 45.458631 
L 233.165039 45.468266 
L 233.165039 44.658989 
L 230.609313 44.706236 
L 230.609313 43.881472 
L 200.79252 44.388377 
L 200.79252 43.392461 
L 175.661222 43.808422 
L 175.661222 42.600061 
L 151.381833 42.905626 
L 151.381833 41.383159 
L 55.116184 41.383159 
L 55.116184 41.383159 
" style="fill:none;stroke:#00ffff;stroke-linecap:round;stroke-width:2;"/>
   </g>
   <g id="line2d_30">
    <path clip-path="url(#p1d862ef973)" d="M 445.716184 156.05833 
L 445.494252 156.101883 
L 445.494252 156.014162 
L 445.494252 153.978023 
L 445.27232 154.021196 
L 445.27232 153.931836 
L 445.27232 148.909178 
L 445.050388 148.951329 
L 445.050388 148.857983 
L 445.050388 134.815717 
L 444.828456 134.854534 
L 444.828456 134.749743 
L 444.828456 125.512414 
L 444.606525 125.548676 
L 444.606525 116.453275 
L 444.384593 116.486774 
L 444.384593 114.296519 
L 444.162661 114.329334 
L 444.162661 113.714418 
L 443.940729 113.747058 
L 443.940729 111.132954 
L 443.718797 111.164745 
L 443.718797 110.028651 
L 443.496866 110.060082 
L 443.496866 109.806257 
L 443.274934 109.83763 
L 443.274934 105.579807 
L 443.053002 105.609708 
L 443.053002 105.347355 
L 442.83107 105.377189 
L 442.83107 104.850823 
L 442.609138 104.880494 
L 442.609138 104.219523 
L 442.387206 104.248982 
L 442.387206 103.983628 
L 442.165275 104.013018 
L 442.165275 103.613907 
L 441.943343 103.643178 
L 441.943343 101.223766 
L 441.721411 101.252167 
L 441.721411 100.572503 
L 441.499479 100.600675 
L 441.499479 99.91751 
L 441.277547 99.94545 
L 441.277547 97.178822 
L 441.055616 97.205724 
L 441.055616 97.065938 
L 440.833684 97.092812 
L 440.833684 95.828142 
L 440.611752 95.854546 
L 440.611752 95.430367 
L 440.38982 95.456629 
L 440.38982 94.176131 
L 440.167888 94.201909 
L 440.167888 92.909594 
L 439.945956 92.934877 
L 439.945956 92.211688 
L 439.724025 92.236702 
L 439.724025 90.925423 
L 439.502093 90.949925 
L 439.502093 90.656823 
L 439.280161 90.681228 
L 439.280161 90.093035 
L 439.058229 90.117221 
L 439.058229 89.674358 
L 438.836297 89.698383 
L 438.836297 88.36127 
L 438.614366 88.384759 
L 438.614366 87.936189 
L 438.392434 87.959512 
L 438.392434 87.659588 
L 438.170502 87.682808 
L 438.170502 86.173477 
L 437.726638 86.218697 
L 437.726638 84.999175 
L 437.504706 85.021293 
L 437.504706 83.791306 
L 437.282775 83.81291 
L 437.282775 83.193879 
L 436.616979 83.258006 
L 436.616979 82.635618 
L 436.395047 82.656762 
L 436.395047 82.031541 
L 436.173116 82.052429 
L 436.173116 81.895653 
L 435.951184 81.916493 
L 435.951184 81.129833 
L 435.50732 81.170872 
L 435.50732 79.424281 
L 435.285388 79.444042 
L 435.285388 79.124189 
L 435.063456 79.143825 
L 435.063456 78.662576 
L 434.841525 78.682012 
L 434.841525 78.521187 
L 434.397661 78.559974 
L 434.397661 78.398833 
L 434.175729 78.418183 
L 434.175729 78.256799 
L 433.953797 78.276095 
L 433.953797 77.952672 
L 433.509934 77.991025 
L 433.509934 77.666624 
L 433.288002 77.68568 
L 433.288002 77.360446 
L 433.06607 77.379372 
L 433.06607 77.053301 
L 432.622206 77.090908 
L 432.622206 76.763845 
L 432.400275 76.782526 
L 432.400275 76.454618 
L 431.512547 76.528922 
L 431.512547 75.869783 
L 431.290616 75.888098 
L 431.290616 74.893655 
L 430.846752 74.929399 
L 430.846752 74.596186 
L 430.62482 74.613928 
L 430.62482 74.446975 
L 430.402888 74.464656 
L 430.402888 74.130054 
L 430.180956 74.147594 
L 430.180956 73.812114 
L 429.959025 73.829511 
L 429.959025 73.493148 
L 429.515161 73.527675 
L 429.515161 73.35906 
L 429.293229 73.37627 
L 429.293229 73.038332 
L 429.071297 73.055396 
L 429.071297 72.546874 
L 428.627434 72.580565 
L 428.627434 72.069894 
L 428.405502 72.086518 
L 428.405502 71.402703 
L 428.18357 71.419009 
L 428.18357 70.387192 
L 427.739706 70.418838 
L 427.739706 70.073055 
L 427.295843 70.104428 
L 427.295843 69.93108 
L 427.073911 69.946706 
L 427.073911 69.599269 
L 426.851979 69.614738 
L 426.851979 69.091891 
L 426.630047 69.107115 
L 426.630047 68.932362 
L 426.408116 68.947516 
L 426.408116 68.772482 
L 426.186184 68.787564 
L 426.186184 68.61225 
L 425.964252 68.627261 
L 425.964252 68.275874 
L 425.74232 68.290724 
L 425.74232 67.938383 
L 425.298456 67.967775 
L 425.298456 67.791133 
L 424.410729 67.849752 
L 424.410729 67.495159 
L 423.744934 67.538752 
L 423.744934 67.182825 
L 423.523002 67.197206 
L 423.523002 66.482601 
L 422.857206 66.524737 
L 422.857206 65.805818 
L 422.413343 65.833243 
L 422.413343 65.291371 
L 421.525616 65.345279 
L 421.525616 65.16387 
L 421.081752 65.190726 
L 421.081752 65.008922 
L 420.85982 65.022277 
L 420.85982 64.840173 
L 420.194025 64.880043 
L 420.194025 64.697445 
L 419.750161 64.723908 
L 419.750161 64.54091 
L 419.528229 64.554068 
L 419.528229 64.187255 
L 418.862434 64.226236 
L 418.862434 64.042224 
L 418.640502 64.05515 
L 418.640502 63.316607 
L 417.974706 63.354293 
L 417.974706 62.983159 
L 417.530843 63.007958 
L 417.530843 62.821873 
L 417.086979 62.846529 
L 417.086979 62.660029 
L 416.865047 62.672278 
L 416.865047 62.298433 
L 415.97732 62.346764 
L 415.97732 62.159113 
L 415.311525 62.195203 
L 415.311525 62.007029 
L 413.979934 62.078973 
L 413.979934 61.889965 
L 413.758002 61.901902 
L 413.758002 61.712571 
L 413.092206 61.748153 
L 413.092206 61.558291 
L 412.870275 61.570075 
L 412.870275 61.379886 
L 411.982547 61.426744 
L 411.982547 61.235914 
L 411.538684 61.259216 
L 411.538684 60.492806 
L 409.763229 60.583159 
L 409.763229 60.196887 
L 409.541297 60.208026 
L 409.541297 60.014439 
L 409.319366 60.025483 
L 409.319366 59.831558 
L 409.097434 59.842506 
L 409.097434 59.648242 
L 408.875502 59.659095 
L 408.875502 59.464491 
L 407.987775 59.507593 
L 407.987775 59.312318 
L 407.765843 59.323016 
L 407.765843 59.127398 
L 407.543911 59.137998 
L 407.543911 58.549407 
L 405.102661 58.663159 
L 405.102661 58.267116 
L 404.880729 58.277305 
L 404.880729 58.078811 
L 403.549138 58.139523 
L 403.549138 57.740441 
L 401.773684 57.820232 
L 401.773684 57.619401 
L 401.32982 57.639237 
L 401.32982 57.437927 
L 400.885956 57.457578 
L 400.885956 57.255786 
L 399.776297 57.304535 
L 399.776297 56.899026 
L 399.332434 56.918135 
L 399.332434 56.714767 
L 398.222775 56.762146 
L 398.222775 56.353456 
L 398.000843 56.362726 
L 398.000843 55.952781 
L 397.778911 55.961819 
L 397.778911 55.756344 
L 397.335047 55.77421 
L 397.335047 55.568234 
L 397.113116 55.577061 
L 397.113116 55.370706 
L 396.669252 55.388147 
L 396.669252 55.181288 
L 395.115729 55.241806 
L 395.115729 55.033817 
L 392.674479 55.128614 
L 392.674479 54.918977 
L 391.342888 54.970477 
L 391.342888 54.759809 
L 390.455161 54.793846 
L 390.455161 54.370675 
L 390.011297 54.387241 
L 390.011297 54.174991 
L 388.679706 54.224159 
L 388.679706 54.010851 
L 385.128797 54.141708 
L 385.128797 53.925998 
L 384.906866 53.934132 
L 384.906866 53.284914 
L 384.24107 53.308159 
L 384.24107 53.090781 
L 381.79982 53.175285 
L 381.79982 52.956107 
L 380.024366 53.017219 
L 380.024366 52.796633 
L 378.692775 52.842045 
L 378.692775 52.620319 
L 378.248911 52.635252 
L 378.248911 52.412946 
L 375.585729 52.501658 
L 375.585729 52.277324 
L 374.254138 52.321341 
L 374.254138 52.095828 
L 372.256752 52.161193 
L 372.256752 51.706581 
L 371.369025 51.734691 
L 371.369025 51.50632 
L 368.705843 51.589753 
L 368.705843 51.359242 
L 368.261979 51.372973 
L 368.261979 51.141837 
L 366.264593 51.202702 
L 366.264593 50.969844 
L 365.154934 51.003201 
L 365.154934 50.769232 
L 364.489138 50.788881 
L 364.489138 50.554109 
L 362.26982 50.618602 
L 362.26982 50.381892 
L 361.825956 50.394576 
L 361.825956 50.157207 
L 361.604025 50.163399 
L 361.604025 49.925532 
L 361.160161 49.937615 
L 361.160161 49.460213 
L 359.606638 49.500455 
L 359.606638 49.260082 
L 358.496979 49.288234 
L 358.496979 49.046678 
L 358.053116 49.057658 
L 358.053116 48.572829 
L 357.831184 48.57799 
L 357.831184 48.334883 
L 354.94607 48.400418 
L 354.94607 48.154712 
L 353.836411 48.179372 
L 353.836411 47.93243 
L 350.507434 48.004825 
L 350.507434 47.754841 
L 349.175843 47.783159 
L 349.175843 47.531714 
L 348.066184 47.554588 
L 348.066184 47.301849 
L 347.178456 47.31953 
L 347.178456 47.06567 
L 338.079252 47.245303 
L 338.079252 46.983159 
L 336.969593 47.004848 
L 336.969593 46.741299 
L 334.972206 46.778944 
L 334.972206 46.513159 
L 331.199366 46.582209 
L 331.199366 46.042319 
L 315.442206 46.320302 
L 315.442206 46.03379 
L 312.335161 46.089202 
L 312.335161 45.798832 
L 308.56232 45.863712 
L 308.56232 45.568626 
L 305.899138 45.61253 
L 305.899138 45.313868 
L 299.241184 45.419817 
L 299.241184 45.112656 
L 296.134138 45.160208 
L 296.134138 44.84861 
L 290.807775 44.926123 
L 290.807775 44.60704 
L 267.504934 44.957099 
L 267.504934 44.603035 
L 259.293456 44.731275 
L 259.293456 44.36247 
L 237.76607 44.710235 
L 237.76607 44.297858 
L 226.891411 44.480726 
L 226.891411 44.041621 
L 221.343116 44.129649 
L 221.343116 43.674936 
L 219.567661 43.699513 
L 219.567661 43.23873 
L 216.016752 43.279455 
L 216.016752 42.807335 
L 213.35357 42.831204 
L 213.35357 42.349872 
L 200.925388 42.432021 
L 200.925388 41.908387 
L 197.596411 41.92064 
L 197.596411 41.383159 
L 55.116184 41.383159 
L 55.116184 41.383159 
" style="fill:none;stroke:#ff8c00;stroke-linecap:round;stroke-width:2;"/>
   </g>
   <g id="line2d_31">
    <path clip-path="url(#p1d862ef973)" d="M 445.716184 314.50209 
L 445.024856 314.603508 
L 445.024856 314.49584 
L 445.024856 306.901647 
L 444.333529 307.010779 
L 444.333529 306.912048 
L 444.333529 306.113334 
L 443.642201 306.223409 
L 443.642201 306.122543 
L 443.642201 305.13436 
L 442.950874 305.245554 
L 442.950874 305.142045 
L 442.950874 304.795113 
L 442.259547 304.906823 
L 442.259547 304.802267 
L 442.259547 302.4327 
L 441.568219 302.546796 
L 441.568219 302.435938 
L 441.568219 292.189047 
L 440.876892 292.312172 
L 440.876892 292.21913 
L 440.876892 285.645902 
L 440.185564 285.774326 
L 440.185564 285.667791 
L 440.185564 283.877 
L 439.494237 284.006953 
L 439.494237 283.896464 
L 439.494237 278.052547 
L 438.802909 278.186789 
L 438.802909 278.125043 
L 438.802909 275.14176 
L 438.111582 275.278142 
L 438.111582 275.212932 
L 438.111582 268.136232 
L 437.420254 268.277072 
L 437.420254 268.203296 
L 437.420254 268.055468 
L 436.0376 268.263957 
L 436.0376 267.818203 
L 435.346272 267.959991 
L 435.346272 267.885415 
L 435.346272 266.526885 
L 434.654945 266.669653 
L 434.654945 266.593311 
L 434.654945 263.054746 
L 433.963617 263.19963 
L 433.963617 263.118673 
L 433.963617 255.73659 
L 433.27229 255.88524 
L 433.27229 255.794263 
L 433.27229 254.507196 
L 432.580962 254.656651 
L 432.580962 254.563791 
L 432.580962 246.164055 
L 431.889635 246.31699 
L 431.889635 246.211859 
L 431.889635 241.537599 
L 430.50698 241.734862 
L 430.50698 229.81331 
L 429.815653 229.971256 
L 429.815653 228.375877 
L 429.124325 228.534346 
L 429.124325 227.588786 
L 428.432998 227.747664 
L 428.432998 223.564595 
L 427.74167 223.724263 
L 427.74167 222.716493 
L 425.667688 223.197483 
L 425.667688 214.985388 
L 424.976361 215.146728 
L 424.976361 214.344504 
L 424.285033 214.50615 
L 424.285033 212.219523 
L 423.593706 212.381453 
L 423.593706 209.179298 
L 422.902378 209.34142 
L 422.902378 209.16962 
L 422.211051 209.332046 
L 422.211051 205.64561 
L 420.828396 205.970882 
L 420.828396 205.611731 
L 420.137069 205.774818 
L 420.137069 205.414204 
L 419.445741 205.577581 
L 419.445741 204.303921 
L 418.754414 204.467497 
L 418.754414 193.388271 
L 418.063086 193.550323 
L 418.063086 189.551168 
L 417.371759 189.712571 
L 417.371759 186.87885 
L 416.680431 187.039796 
L 416.680431 186.818375 
L 415.989104 186.979612 
L 415.989104 186.757632 
L 415.297777 186.919159 
L 415.297777 186.250049 
L 414.606449 186.411731 
L 414.606449 185.737918 
L 413.915122 185.899751 
L 413.915122 181.287746 
L 413.223794 181.448372 
L 413.223794 180.737998 
L 412.532467 180.89873 
L 412.532467 175.282685 
L 411.149812 175.600736 
L 411.149812 175.097445 
L 410.458485 175.256818 
L 410.458485 174.497035 
L 409.767157 174.656453 
L 409.767157 170.508434 
L 409.07583 170.666289 
L 409.07583 169.067888 
L 408.384502 169.225329 
L 408.384502 168.956493 
L 407.693175 169.114185 
L 407.693175 167.212586 
L 407.001847 167.369676 
L 407.001847 164.029547 
L 406.31052 164.18519 
L 406.31052 163.333732 
L 405.619193 163.489282 
L 405.619193 160.893869 
L 404.927865 161.048275 
L 404.927865 160.169151 
L 404.236538 160.323419 
L 404.236538 159.733159 
L 403.54521 159.887462 
L 403.54521 155.972019 
L 402.853883 156.124195 
L 402.853883 155.200759 
L 402.162555 155.352719 
L 402.162555 154.732557 
L 401.471228 154.8845 
L 401.471228 153.002619 
L 400.779901 153.15366 
L 400.779901 150.59465 
L 399.397246 150.89427 
L 399.397246 150.569972 
L 398.014591 150.870762 
L 398.014591 146.902487 
L 397.323263 147.05048 
L 397.323263 145.014277 
L 396.631936 145.161063 
L 396.631936 140.624718 
L 394.557954 141.056203 
L 394.557954 138.171429 
L 393.866626 138.313556 
L 393.866626 134.6076 
L 393.175299 134.746741 
L 393.175299 133.231808 
L 391.792644 133.50846 
L 391.792644 133.126146 
L 391.101316 133.26473 
L 391.101316 131.722369 
L 389.718662 131.997793 
L 389.718662 131.608503 
L 388.336007 131.884844 
L 388.336007 131.493589 
L 386.953352 131.770851 
L 386.953352 130.587487 
L 386.262024 130.725574 
L 386.262024 129.929743 
L 385.570697 130.067452 
L 385.570697 129.265842 
L 384.87937 129.403159 
L 384.87937 129.000061 
L 384.188042 129.137391 
L 384.188042 128.73261 
L 383.496715 128.869952 
L 383.496715 128.463474 
L 382.805387 128.600825 
L 382.805387 127.372383 
L 382.11406 127.508873 
L 382.11406 126.26737 
L 380.040078 126.675467 
L 380.040078 126.257638 
L 377.966095 126.66832 
L 377.966095 122.833896 
L 377.274768 122.967421 
L 377.274768 118.567159 
L 374.509458 119.085173 
L 374.509458 118.183159 
L 373.818131 118.31267 
L 373.818131 116.028057 
L 373.126803 116.155221 
L 373.126803 115.229313 
L 372.435476 115.355762 
L 372.435476 114.889849 
L 370.361493 115.270056 
L 370.361493 113.383159 
L 369.670166 113.508377 
L 369.670166 112.55384 
L 368.978839 112.678264 
L 368.978839 111.715791 
L 368.287511 111.839398 
L 368.287511 110.868873 
L 366.904856 111.114841 
L 366.904856 108.153821 
L 366.213529 108.273482 
L 366.213529 107.773105 
L 365.522201 107.892512 
L 365.522201 106.884964 
L 364.830874 107.003412 
L 364.830874 106.496203 
L 363.448219 106.732977 
L 363.448219 106.222503 
L 362.065564 106.459576 
L 362.065564 105.430132 
L 360.682909 105.666032 
L 360.682909 103.051561 
L 359.300254 103.281667 
L 359.300254 101.684848 
L 358.608927 101.798197 
L 358.608927 101.261125 
L 357.226272 101.487507 
L 357.226272 100.946796 
L 353.769635 101.516238 
L 353.769635 98.760765 
L 353.078308 98.871747 
L 353.078308 97.752868 
L 352.38698 97.862537 
L 352.38698 97.298949 
L 351.695653 97.408159 
L 351.695653 96.841476 
L 351.004325 96.950218 
L 351.004325 94.657467 
L 349.62167 94.868873 
L 349.62167 94.288129 
L 348.930343 94.393518 
L 348.930343 93.809506 
L 348.239016 93.914359 
L 348.239016 93.327047 
L 347.547688 93.431352 
L 347.547688 92.840704 
L 346.856361 92.944449 
L 346.856361 92.350432 
L 345.473706 92.557196 
L 345.473706 90.754588 
L 344.091051 90.95693 
L 344.091051 90.349073 
L 343.399724 90.449826 
L 343.399724 89.838417 
L 342.708396 89.938531 
L 342.708396 89.323532 
L 342.017069 89.422993 
L 342.017069 88.183159 
L 339.943086 88.477499 
L 339.943086 87.850386 
L 339.251759 87.948212 
L 339.251759 86.683793 
L 337.869104 86.876153 
L 337.869104 86.237627 
L 337.177777 86.333266 
L 337.177777 85.690851 
L 335.103794 85.976708 
L 335.103794 85.327987 
L 334.412467 85.4229 
L 334.412467 82.794924 
L 333.029812 82.976157 
L 333.029812 82.309475 
L 330.95583 82.58051 
L 330.95583 80.551159 
L 329.573175 80.726016 
L 329.573175 80.040877 
L 327.499193 80.302078 
L 327.499193 79.609796 
L 317.820608 80.857285 
L 317.820608 80.142038 
L 317.129281 80.232808 
L 317.129281 79.512737 
L 316.437954 79.602453 
L 316.437954 78.149117 
L 315.746626 78.23624 
L 315.746626 77.502874 
L 313.672644 77.762107 
L 313.672644 77.020569 
L 311.598662 77.278811 
L 311.598662 76.528922 
L 309.524679 76.786086 
L 309.524679 76.027658 
L 308.833352 76.112571 
L 308.833352 73.809826 
L 308.142024 73.89009 
L 308.142024 72.332413 
L 301.920078 73.041174 
L 301.920078 72.240302 
L 301.22875 72.319221 
L 301.22875 71.51239 
L 299.846095 71.667695 
L 299.846095 70.852927 
L 298.46344 71.006016 
L 298.46344 70.183159 
L 295.698131 70.486317 
L 295.698131 69.651233 
L 289.476184 70.338835 
L 289.476184 69.48072 
L 288.093529 69.63384 
L 288.093529 68.766766 
L 286.019547 68.993077 
L 286.019547 68.114651 
L 281.180254 68.641751 
L 281.180254 67.742481 
L 280.488927 67.817154 
L 280.488927 66.910432 
L 277.723617 67.203849 
L 277.723617 66.282295 
L 277.03229 66.354257 
L 277.03229 65.424898 
L 262.514414 66.983159 
L 262.514414 65.992447 
L 260.440431 66.223159 
L 260.440431 65.217642 
L 258.366449 65.443919 
L 258.366449 64.423159 
L 256.983794 64.57038 
L 256.983794 63.537005 
L 253.527157 63.897817 
L 253.527157 62.841983 
L 247.30521 63.49225 
L 247.30521 62.399375 
L 239.700608 63.210528 
L 239.700608 62.070483 
L 236.243971 62.441224 
L 236.243971 61.273807 
L 234.861316 61.417942 
L 234.861316 60.234068 
L 231.404679 60.583159 
L 231.404679 59.369776 
L 227.948042 59.710432 
L 227.948042 58.466049 
L 218.960785 59.354359 
L 218.960785 58.038581 
L 208.590874 59.106236 
L 208.590874 57.699039 
L 207.208219 57.840302 
L 207.208219 56.409246 
L 206.516892 56.474862 
L 206.516892 55.025264 
L 202.368927 55.39397 
L 202.368927 53.893566 
L 188.542378 55.138383 
L 184.394414 55.561621 
L 184.394414 53.853262 
L 174.024502 54.898243 
L 174.024502 53.032597 
L 162.271936 54.262662 
L 159.506626 54.590802 
L 159.506626 52.460082 
L 153.976007 53.058835 
L 153.976007 50.787241 
L 143.606095 51.855886 
L 136.692821 52.714307 
L 136.692821 49.951754 
L 135.310166 50.095764 
L 135.310166 47.240786 
L 132.544856 47.446317 
L 132.544856 44.441566 
L 119.409635 45.059755 
L 109.039724 45.757843 
L 106.965741 45.930528 
L 106.965741 41.383159 
L 55.116184 41.383159 
L 55.116184 41.383159 
" style="fill:none;stroke:#6495ed;stroke-linecap:round;stroke-width:2;"/>
   </g>
   <g id="patch_3">
    <path d="M 55.116184 386.983159 
L 55.116184 24.103159 
" style="fill:none;stroke:#888888;stroke-linecap:square;stroke-linejoin:miter;stroke-width:1.12;"/>
   </g>
   <g id="patch_4">
    <path d="M 445.716184 386.983159 
L 445.716184 24.103159 
" style="fill:none;stroke:#888888;stroke-linecap:square;stroke-linejoin:miter;stroke-width:1.12;"/>
   </g>
   <g id="patch_5">
    <path d="M 55.116184 386.983159 
L 445.716184 386.983159 
" style="fill:none;stroke:#888888;stroke-linecap:square;stroke-linejoin:miter;stroke-width:1.12;"/>
   </g>
   <g id="patch_6">
    <path d="M 55.116184 24.103159 
L 445.716184 24.103159 
" style="fill:none;stroke:#888888;stroke-linecap:square;stroke-linejoin:miter;stroke-width:1.12;"/>
   </g>
   <g id="text_15">
    <!-- f1=0.2 -->
    <g style="fill:#bbbbbb;" transform="translate(406.656184 341.292325)scale(0.132 -0.132)">
     <defs>
      <path d="M 2182 4601 
C 2048 4652 1971 4672 1888 4672 
C 1683 4672 1459 4563 1318 4404 
L 947 3985 
C 762 3775 678 3490 678 3070 
L 678 2803 
L 237 2604 
L 237 2476 
L 678 2476 
L 678 651 
C 678 244 659 199 442 199 
L 147 199 
L 147 0 
C 787 0 787 0 947 0 
C 1107 0 1107 0 1747 0 
L 1747 199 
L 1453 199 
C 1235 199 1216 245 1216 653 
L 1216 2489 
L 2010 2489 
L 2054 2816 
L 1216 2816 
L 1216 3350 
C 1216 4073 1299 4248 1664 4248 
C 1837 4248 1952 4204 2106 4071 
L 2182 4109 
L 2182 4601 
z
" id="URWPalladioL-Roma-66" transform="scale(0.015625)"/>
      <path d="M 3552 2496 
L 326 2496 
L 326 2137 
L 3552 2137 
L 3552 2496 
z
M 3552 1255 
L 326 1255 
L 326 896 
L 3552 896 
L 3552 1255 
z
" id="URWPalladioL-Roma-3d" transform="scale(0.015625)"/>
     </defs>
     <use transform="scale(0.996264)" xlink:href="#URWPalladioL-Roma-66"/>
     <use transform="translate(33.17523 0)scale(0.996264)" xlink:href="#URWPalladioL-Roma-31"/>
     <use transform="translate(82.98843 0)scale(0.996264)" xlink:href="#URWPalladioL-Roma-3d"/>
     <use transform="translate(143.361442 0)scale(0.996264)" xlink:href="#URWPalladioL-Roma-30"/>
     <use transform="translate(193.174643 0)scale(0.996264)" xlink:href="#URWPalladioL-Roma-2e"/>
     <use transform="translate(218.081243 0)scale(0.996264)" xlink:href="#URWPalladioL-Roma-32"/>
    </g>
   </g>
   <g id="text_16">
    <!-- f1=0.4 -->
    <g style="fill:#bbbbbb;" transform="translate(406.656184 291.729366)scale(0.132 -0.132)">
     <use transform="scale(0.996264)" xlink:href="#URWPalladioL-Roma-66"/>
     <use transform="translate(33.17523 0)scale(0.996264)" xlink:href="#URWPalladioL-Roma-31"/>
     <use transform="translate(82.98843 0)scale(0.996264)" xlink:href="#URWPalladioL-Roma-3d"/>
     <use transform="translate(143.361442 0)scale(0.996264)" xlink:href="#URWPalladioL-Roma-30"/>
     <use transform="translate(193.174643 0)scale(0.996264)" xlink:href="#URWPalladioL-Roma-2e"/>
     <use transform="translate(218.081243 0)scale(0.996264)" xlink:href="#URWPalladioL-Roma-34"/>
    </g>
   </g>
   <g id="text_17">
    <!-- f1=0.6 -->
    <g style="fill:#bbbbbb;" transform="translate(406.656184 226.157277)scale(0.132 -0.132)">
     <use transform="scale(0.996264)" xlink:href="#URWPalladioL-Roma-66"/>
     <use transform="translate(33.17523 0)scale(0.996264)" xlink:href="#URWPalladioL-Roma-31"/>
     <use transform="translate(82.98843 0)scale(0.996264)" xlink:href="#URWPalladioL-Roma-3d"/>
     <use transform="translate(143.361442 0)scale(0.996264)" xlink:href="#URWPalladioL-Roma-30"/>
     <use transform="translate(193.174643 0)scale(0.996264)" xlink:href="#URWPalladioL-Roma-2e"/>
     <use transform="translate(218.081243 0)scale(0.996264)" xlink:href="#URWPalladioL-Roma-36"/>
    </g>
   </g>
   <g id="text_18">
    <!-- f1=0.8 -->
    <g style="fill:#bbbbbb;" transform="translate(406.656184 135.325499)scale(0.132 -0.132)">
     <use transform="scale(0.996264)" xlink:href="#URWPalladioL-Roma-66"/>
     <use transform="translate(33.17523 0)scale(0.996264)" xlink:href="#URWPalladioL-Roma-31"/>
     <use transform="translate(82.98843 0)scale(0.996264)" xlink:href="#URWPalladioL-Roma-3d"/>
     <use transform="translate(143.361442 0)scale(0.996264)" xlink:href="#URWPalladioL-Roma-30"/>
     <use transform="translate(193.174643 0)scale(0.996264)" xlink:href="#URWPalladioL-Roma-2e"/>
     <use transform="translate(218.081243 0)scale(0.996264)" xlink:href="#URWPalladioL-Roma-38"/>
    </g>
   </g>
   <g id="text_19">
    <!-- PR RF - E, S, S0 $|$ All Set -->
    <g style="fill:#bbbbbb;" transform="translate(175.142377 18.103159)scale(0.144 -0.144)">
     <defs>
      <path d="M 1382 2100 
C 1562 2112 1754 2112 2042 2112 
C 2515 2112 2688 2094 2803 2040 
L 2854 1890 
L 2886 1536 
L 3078 1536 
C 3059 2132 3059 2132 3059 2247 
C 3059 2350 3059 2350 3078 2991 
L 2886 2991 
L 2854 2642 
C 2848 2581 2829 2521 2803 2467 
C 2688 2414 2509 2394 2086 2394 
C 1818 2394 1600 2394 1382 2394 
L 1382 4117 
C 1574 4160 1690 4160 2067 4160 
C 2374 4160 2733 4124 2931 4076 
C 3085 4039 3104 4008 3104 3868 
L 3104 3465 
L 3328 3465 
C 3328 3843 3360 4146 3430 4423 
C 3117 4423 2925 4423 2650 4423 
L 1965 4423 
C 1651 4423 1427 4423 1267 4423 
C 1082 4423 1082 4423 141 4423 
L 141 4224 
L 448 4224 
C 742 4224 774 4172 774 3663 
L 774 766 
C 774 256 742 205 448 205 
L 141 205 
L 141 0 
C 518 0 742 0 1075 0 
C 1408 0 1638 0 2016 0 
L 2016 205 
L 1709 205 
C 1414 205 1382 256 1382 766 
L 1382 2100 
z
" id="URWPalladioL-Roma-46" transform="scale(0.015625)"/>
      <path d="M 1805 1408 
L 1997 1837 
L 1965 1869 
L 282 1869 
L 109 1440 
L 141 1408 
L 1805 1408 
z
" id="URWPalladioL-Roma-2d" transform="scale(0.015625)"/>
      <path d="M 141 4224 
L 448 4224 
C 742 4224 774 4172 774 3665 
L 774 784 
C 774 276 749 231 448 205 
L 218 186 
L 218 0 
C 640 0 826 0 1005 0 
C 1037 0 1216 0 1459 0 
C 2349 0 2349 0 2490 0 
C 2688 0 2688 0 3558 0 
C 3558 382 3597 736 3661 1079 
L 3437 1079 
C 3424 972 3411 878 3405 852 
C 3366 564 3283 356 3194 323 
C 3059 276 2592 276 2016 276 
C 1683 276 1568 286 1382 315 
L 1382 2100 
C 1562 2112 1754 2112 2042 2112 
C 2515 2112 2688 2094 2803 2040 
L 2854 1890 
L 2886 1536 
L 3078 1536 
C 3059 2132 3059 2132 3059 2247 
C 3059 2350 3059 2350 3078 2991 
L 2886 2991 
L 2854 2642 
C 2848 2581 2829 2521 2803 2467 
C 2688 2414 2509 2394 2086 2394 
C 1818 2394 1600 2394 1382 2394 
L 1382 4117 
C 1581 4160 1690 4160 2131 4160 
C 2496 4160 2854 4130 3059 4076 
C 3213 4039 3232 4008 3232 3868 
L 3232 3465 
L 3456 3465 
C 3456 3843 3488 4146 3558 4423 
C 3245 4423 3046 4423 2765 4423 
C 2605 4423 2394 4423 2131 4423 
C 1728 4423 1453 4423 1280 4423 
C 1062 4423 774 4423 141 4423 
L 141 4224 
z
" id="URWPalladioL-Roma-45" transform="scale(0.015625)"/>
      <path d="M 1306 789 
C 1133 731 1018 693 678 596 
C 634 109 474 -308 102 -923 
L 192 -994 
L 454 -872 
C 973 -199 1216 205 1395 699 
L 1306 789 
z
" id="URWPalladioL-Roma-2c" transform="scale(0.015625)"/>
      <path d="M 2861 3371 
C 2861 3711 2886 3928 2950 4274 
C 2438 4480 2150 4544 1798 4544 
C 845 4544 154 3941 154 3102 
C 154 2788 237 2557 422 2384 
C 640 2186 934 2083 1555 2000 
C 2048 1929 2272 1859 2438 1711 
C 2605 1577 2682 1391 2682 1147 
C 2682 571 2202 154 1536 154 
C 1024 154 525 404 493 666 
L 442 1096 
L 237 1096 
C 243 980 243 878 243 840 
C 243 545 230 404 192 116 
C 557 -45 928 -128 1299 -128 
C 2413 -128 3219 545 3219 1474 
C 3219 1775 3136 1987 2957 2153 
C 2733 2364 2464 2448 1747 2544 
C 966 2646 691 2858 691 3352 
C 691 3890 1094 4274 1658 4274 
C 1907 4274 2144 4223 2317 4127 
C 2528 4018 2598 3922 2618 3737 
L 2656 3371 
L 2861 3371 
z
" id="URWPalladioL-Roma-53" transform="scale(0.015625)"/>
      <path d="M 1018 4570 
C 1018 4685 1018 4800 890 4800 
C 762 4800 762 4685 762 4570 
L 762 -1370 
C 762 -1485 762 -1600 890 -1600 
C 1018 -1600 1018 -1485 1018 -1370 
L 1018 4570 
z
" id="CMSY10-6a" transform="scale(0.015625)"/>
      <path d="M 2611 4512 
L 2406 4512 
C 2291 4235 2195 3998 2157 3902 
L 1818 3124 
L 678 522 
C 602 335 474 219 333 206 
L 96 187 
L 96 0 
C 691 0 691 0 794 0 
C 877 0 877 0 1568 0 
L 1568 187 
L 1331 206 
C 1107 226 1024 270 1024 371 
C 1024 454 1114 727 1248 1046 
L 1427 1472 
L 3270 1472 
L 3565 733 
C 3674 463 3699 379 3699 322 
C 3699 251 3597 206 3437 193 
L 3136 193 
L 3136 0 
C 3923 0 3923 0 4026 0 
C 4147 0 4147 0 4838 0 
L 4838 187 
L 4621 206 
C 4454 232 4384 341 4160 861 
L 2611 4512 
z
M 1536 1728 
L 2349 3653 
L 3155 1728 
L 1536 1728 
z
" id="URWPalladioL-Roma-41" transform="scale(0.015625)"/>
      <path d="M 627 2476 
L 627 619 
C 627 142 838 -64 1331 -64 
C 1478 -64 1632 -32 1670 13 
L 1978 353 
L 1894 463 
C 1734 372 1638 340 1517 340 
C 1267 340 1165 470 1165 788 
L 1165 2489 
L 1984 2489 
L 2042 2816 
L 1165 2816 
L 1165 3056 
C 1165 3321 1184 3547 1235 3951 
L 1158 4021 
C 1005 3925 813 3842 614 3778 
C 634 3585 640 3463 640 3271 
L 640 2822 
L 141 2598 
L 141 2476 
L 627 2476 
z
" id="URWPalladioL-Roma-74" transform="scale(0.015625)"/>
     </defs>
     <use transform="scale(0.996264)" xlink:href="#URWPalladioL-Roma-50"/>
     <use transform="translate(60.173595 0)scale(0.996264)" xlink:href="#URWPalladioL-Roma-52"/>
     <use transform="translate(151.62989 0)scale(0.996264)" xlink:href="#URWPalladioL-Roma-52"/>
     <use transform="translate(218.179584 0)scale(0.996264)" xlink:href="#URWPalladioL-Roma-46"/>
     <use transform="translate(298.477861 0)scale(0.996264)" xlink:href="#URWPalladioL-Roma-2d"/>
     <use transform="translate(356.559691 0)scale(0.996264)" xlink:href="#URWPalladioL-Roma-45"/>
     <use transform="translate(417.431321 0)scale(0.996264)" xlink:href="#URWPalladioL-Roma-2c"/>
     <use transform="translate(467.244522 0)scale(0.996264)" xlink:href="#URWPalladioL-Roma-53"/>
     <use transform="translate(519.548337 0)scale(0.996264)" xlink:href="#URWPalladioL-Roma-2c"/>
     <use transform="translate(569.361537 0)scale(0.996264)" xlink:href="#URWPalladioL-Roma-53"/>
     <use transform="translate(621.665352 0)scale(0.996264)" xlink:href="#URWPalladioL-Roma-30"/>
     <use transform="translate(697.630453 0)scale(1.038107)" xlink:href="#CMSY10-6a"/>
     <use transform="translate(752.574452 0)scale(0.996264)" xlink:href="#URWPalladioL-Roma-41"/>
     <use transform="translate(830.082822 0)scale(0.996264)" xlink:href="#URWPalladioL-Roma-6c"/>
     <use transform="translate(859.073184 0)scale(0.996264)" xlink:href="#URWPalladioL-Roma-6c"/>
     <use transform="translate(912.970146 0)scale(0.996264)" xlink:href="#URWPalladioL-Roma-53"/>
     <use transform="translate(965.27396 0)scale(0.996264)" xlink:href="#URWPalladioL-Roma-65"/>
     <use transform="translate(1012.994256 0)scale(0.996264)" xlink:href="#URWPalladioL-Roma-74"/>
    </g>
   </g>
   <g id="legend_1">
    <g id="patch_7">
     <path d="M 108.294184 543.021559 
L 247.846388 543.021559 
Q 250.246388 543.021559 250.246388 540.621559 
L 250.246388 470.12092 
Q 250.246388 467.72092 247.846388 467.72092 
L 108.294184 467.72092 
Q 105.894184 467.72092 105.894184 470.12092 
L 105.894184 540.621559 
Q 105.894184 543.021559 108.294184 543.021559 
z
" style="fill:#800080;opacity:0.2;stroke:#cccccc;stroke-linejoin:miter;stroke-width:0.16;"/>
    </g>
    <g id="line2d_32">
     <path d="M 110.694184 476.874796 
L 134.694184 476.874796 
" style="fill:none;stroke:#808080;stroke-linecap:round;stroke-opacity:0.2;stroke-width:1.2;"/>
    </g>
    <g id="line2d_33"/>
    <g id="text_20">
     <!-- iso-f1 curves -->
     <g style="fill:#bbbbbb;" transform="translate(144.294184 481.074796)scale(0.12 -0.12)">
      <defs>
       <path d="M 3219 3009 
L 3162 3035 
C 2835 2900 2502 2810 2163 2772 
L 2163 2592 
L 2400 2592 
C 2656 2592 2682 2547 2682 2121 
L 2682 1070 
C 2682 928 2592 747 2445 599 
C 2266 418 2061 327 1811 327 
C 1587 327 1408 398 1306 521 
C 1216 624 1171 824 1171 1107 
L 1171 3009 
L 1114 3035 
C 787 2900 454 2810 115 2772 
L 115 2592 
L 352 2592 
C 608 2592 634 2547 634 2122 
L 634 1039 
C 634 587 672 387 787 227 
C 928 33 1171 -64 1536 -64 
C 1824 -64 2080 26 2253 186 
L 2682 585 
C 2682 401 2675 298 2656 0 
C 3085 0 3091 0 3187 0 
C 3277 0 3277 0 3718 0 
L 3718 186 
L 3456 212 
C 3238 212 3219 251 3219 664 
L 3219 3009 
z
" id="URWPalladioL-Roma-75" transform="scale(0.015625)"/>
       <path d="M 3450 2752 
L 3450 2932 
C 3066 2932 2950 2932 2848 2932 
C 2746 2932 2630 2932 2246 2932 
L 2246 2752 
L 2509 2752 
C 2611 2752 2662 2694 2662 2591 
C 2662 2489 2618 2317 2541 2124 
L 2272 1445 
C 2195 1259 2118 1080 1875 549 
L 1114 2393 
C 1075 2482 1056 2566 1056 2636 
C 1056 2707 1114 2752 1216 2752 
L 1530 2752 
L 1530 2932 
C 902 2932 902 2932 781 2932 
C 659 2932 352 2932 38 2932 
L 38 2752 
L 256 2752 
C 352 2739 384 2701 454 2541 
L 1555 -32 
L 1875 -32 
C 1914 77 1978 243 1978 256 
C 2048 447 2131 664 2138 664 
L 2893 2324 
C 3034 2625 3123 2739 3251 2752 
L 3450 2752 
z
" id="URWPalladioL-Roma-76" transform="scale(0.015625)"/>
      </defs>
      <use transform="scale(0.996264)" xlink:href="#URWPalladioL-Roma-69"/>
      <use transform="translate(28.990361 0)scale(0.996264)" xlink:href="#URWPalladioL-Roma-73"/>
      <use transform="translate(71.231828 0)scale(0.996264)" xlink:href="#URWPalladioL-Roma-6f"/>
      <use transform="translate(125.627408 0)scale(0.996264)" xlink:href="#URWPalladioL-Roma-2d"/>
      <use transform="translate(158.802638 0)scale(0.996264)" xlink:href="#URWPalladioL-Roma-66"/>
      <use transform="translate(191.977867 0)scale(0.996264)" xlink:href="#URWPalladioL-Roma-31"/>
      <use transform="translate(266.697668 0)scale(0.996264)" xlink:href="#URWPalladioL-Roma-63"/>
      <use transform="translate(310.931237 0)scale(0.996264)" xlink:href="#URWPalladioL-Roma-75"/>
      <use transform="translate(371.004972 0)scale(0.996264)" xlink:href="#URWPalladioL-Roma-72"/>
      <use transform="translate(410.356868 0)scale(0.996264)" xlink:href="#URWPalladioL-Roma-76"/>
      <use transform="translate(466.644781 0)scale(0.996264)" xlink:href="#URWPalladioL-Roma-65"/>
      <use transform="translate(514.365076 0)scale(0.996264)" xlink:href="#URWPalladioL-Roma-73"/>
     </g>
    </g>
    <g id="line2d_34">
     <path d="M 110.694184 494.799955 
L 134.694184 494.799955 
" style="fill:none;stroke:#00ffff;stroke-linecap:round;stroke-width:2;"/>
    </g>
    <g id="line2d_35"/>
    <g id="text_21">
     <!-- class 0 (area = 0.95) -->
     <g style="fill:#bbbbbb;" transform="translate(144.294184 498.999955)scale(0.12 -0.12)">
      <defs>
       <path d="M 1926 -1244 
C 1466 -673 1299 -366 1133 212 
C 998 673 934 1161 934 1706 
C 934 2238 998 2693 1120 3110 
C 1286 3642 1459 3944 1926 4489 
L 1805 4656 
C 1139 4059 877 3707 634 3078 
C 467 2648 384 2193 384 1706 
C 384 1020 544 372 851 -205 
C 1075 -635 1280 -885 1805 -1379 
L 1926 -1244 
z
" id="URWPalladioL-Roma-28" transform="scale(0.015625)"/>
       <path d="M 614 -106 
C 1325 125 1632 272 1978 566 
C 2598 1098 2925 1835 2925 2693 
C 2925 3776 2406 4435 1562 4435 
C 742 4435 128 3795 128 2938 
C 128 2201 608 1664 1274 1664 
C 1491 1664 1741 1734 1856 1830 
L 2304 2202 
C 2253 1125 1555 336 397 54 
L 397 3 
L 614 -106 
z
M 1536 4224 
C 1824 4224 2035 4102 2176 3846 
C 2291 3641 2368 3328 2368 3040 
C 2368 2451 2029 2055 1536 2055 
C 1024 2055 678 2509 678 3174 
C 678 3821 1011 4224 1536 4224 
z
" id="URWPalladioL-Roma-39" transform="scale(0.015625)"/>
       <path d="M 813 3877 
C 1638 3877 1997 3877 2765 3877 
L 2797 3907 
C 2784 4016 2784 4064 2784 4144 
C 2784 4229 2784 4277 2797 4386 
L 2765 4416 
C 2285 4416 1997 4416 1651 4416 
C 1299 4416 1018 4416 538 4416 
L 506 4403 
C 512 4011 518 3729 518 3523 
C 518 2977 499 2360 480 2077 
L 608 2038 
C 909 2341 1082 2432 1395 2432 
C 2010 2432 2394 1993 2394 1296 
C 2394 580 1984 160 1286 160 
C 941 160 621 277 531 444 
L 237 973 
L 83 883 
C 230 516 307 310 397 27 
C 576 -71 832 -128 1107 -128 
C 1536 -128 1990 59 2342 368 
C 2733 716 2938 1154 2938 1630 
C 2938 2359 2419 2874 1690 2874 
C 1382 2874 1152 2791 755 2554 
L 813 3877 
z
" id="URWPalladioL-Roma-35" transform="scale(0.015625)"/>
       <path d="M 326 -1379 
C 768 -962 954 -750 1152 -436 
C 1542 186 1747 930 1747 1699 
C 1747 2193 1664 2648 1498 3078 
C 1254 3700 992 4053 326 4656 
L 205 4489 
C 672 3937 845 3636 1005 3110 
C 1133 2693 1197 2238 1197 1706 
C 1197 1161 1133 673 998 212 
C 832 -366 666 -673 205 -1244 
L 326 -1379 
z
" id="URWPalladioL-Roma-29" transform="scale(0.015625)"/>
      </defs>
      <use transform="scale(0.996264)" xlink:href="#URWPalladioL-Roma-63"/>
      <use transform="translate(44.233569 0)scale(0.996264)" xlink:href="#URWPalladioL-Roma-6c"/>
      <use transform="translate(73.22393 0)scale(0.996264)" xlink:href="#URWPalladioL-Roma-61"/>
      <use transform="translate(123.037131 0)scale(0.996264)" xlink:href="#URWPalladioL-Roma-73"/>
      <use transform="translate(165.278597 0)scale(0.996264)" xlink:href="#URWPalladioL-Roma-73"/>
      <use transform="translate(232.426664 0)scale(0.996264)" xlink:href="#URWPalladioL-Roma-30"/>
      <use transform="translate(307.146464 0)scale(0.996264)" xlink:href="#URWPalladioL-Roma-28"/>
      <use transform="translate(340.321694 0)scale(0.996264)" xlink:href="#URWPalladioL-Roma-61"/>
      <use transform="translate(390.134895 0)scale(0.996264)" xlink:href="#URWPalladioL-Roma-72"/>
      <use transform="translate(427.694212 0)scale(0.996264)" xlink:href="#URWPalladioL-Roma-65"/>
      <use transform="translate(475.414507 0)scale(0.996264)" xlink:href="#URWPalladioL-Roma-61"/>
      <use transform="translate(550.134308 0)scale(0.996264)" xlink:href="#URWPalladioL-Roma-3d"/>
      <use transform="translate(635.41392 0)scale(0.996264)" xlink:href="#URWPalladioL-Roma-30"/>
      <use transform="translate(685.227121 0)scale(0.996264)" xlink:href="#URWPalladioL-Roma-2e"/>
      <use transform="translate(710.133721 0)scale(0.996264)" xlink:href="#URWPalladioL-Roma-39"/>
      <use transform="translate(759.946921 0)scale(0.996264)" xlink:href="#URWPalladioL-Roma-35"/>
      <use transform="translate(809.760122 0)scale(0.996264)" xlink:href="#URWPalladioL-Roma-29"/>
     </g>
    </g>
    <g id="line2d_36">
     <path d="M 110.694184 512.725115 
L 134.694184 512.725115 
" style="fill:none;stroke:#ff8c00;stroke-linecap:round;stroke-width:2;"/>
    </g>
    <g id="line2d_37"/>
    <g id="text_22">
     <!-- class 1 (area = 0.98) -->
     <g style="fill:#bbbbbb;" transform="translate(144.294184 516.925115)scale(0.12 -0.12)">
      <use transform="scale(0.996264)" xlink:href="#URWPalladioL-Roma-63"/>
      <use transform="translate(44.233569 0)scale(0.996264)" xlink:href="#URWPalladioL-Roma-6c"/>
      <use transform="translate(73.22393 0)scale(0.996264)" xlink:href="#URWPalladioL-Roma-61"/>
      <use transform="translate(123.037131 0)scale(0.996264)" xlink:href="#URWPalladioL-Roma-73"/>
      <use transform="translate(165.278597 0)scale(0.996264)" xlink:href="#URWPalladioL-Roma-73"/>
      <use transform="translate(232.426664 0)scale(0.996264)" xlink:href="#URWPalladioL-Roma-31"/>
      <use transform="translate(307.146464 0)scale(0.996264)" xlink:href="#URWPalladioL-Roma-28"/>
      <use transform="translate(340.321694 0)scale(0.996264)" xlink:href="#URWPalladioL-Roma-61"/>
      <use transform="translate(390.134895 0)scale(0.996264)" xlink:href="#URWPalladioL-Roma-72"/>
      <use transform="translate(427.694212 0)scale(0.996264)" xlink:href="#URWPalladioL-Roma-65"/>
      <use transform="translate(475.414507 0)scale(0.996264)" xlink:href="#URWPalladioL-Roma-61"/>
      <use transform="translate(550.134308 0)scale(0.996264)" xlink:href="#URWPalladioL-Roma-3d"/>
      <use transform="translate(635.41392 0)scale(0.996264)" xlink:href="#URWPalladioL-Roma-30"/>
      <use transform="translate(685.227121 0)scale(0.996264)" xlink:href="#URWPalladioL-Roma-2e"/>
      <use transform="translate(710.133721 0)scale(0.996264)" xlink:href="#URWPalladioL-Roma-39"/>
      <use transform="translate(759.946921 0)scale(0.996264)" xlink:href="#URWPalladioL-Roma-38"/>
      <use transform="translate(809.760122 0)scale(0.996264)" xlink:href="#URWPalladioL-Roma-29"/>
     </g>
    </g>
    <g id="line2d_38">
     <path d="M 110.694184 530.650275 
L 134.694184 530.650275 
" style="fill:none;stroke:#6495ed;stroke-linecap:round;stroke-width:2;"/>
    </g>
    <g id="line2d_39"/>
    <g id="text_23">
     <!-- class 2 (area = 0.87) -->
     <g style="fill:#bbbbbb;" transform="translate(144.294184 534.850275)scale(0.12 -0.12)">
      <defs>
       <path d="M 358 32 
L 416 -51 
C 666 -32 666 -32 710 -32 
C 755 -32 755 -32 1005 -51 
C 1274 649 1587 1317 2010 2087 
L 3181 4199 
L 3181 4372 
C 2490 4372 2266 4372 1747 4372 
C 1280 4372 966 4372 346 4372 
L 282 4359 
C 301 3750 301 3750 301 3685 
C 301 3614 301 3614 282 3031 
L 474 3031 
L 518 3390 
C 570 3789 614 3840 909 3840 
L 2618 3840 
C 2362 3313 2163 2941 1920 2549 
L 358 32 
z
" id="URWPalladioL-Roma-37" transform="scale(0.015625)"/>
      </defs>
      <use transform="scale(0.996264)" xlink:href="#URWPalladioL-Roma-63"/>
      <use transform="translate(44.233569 0)scale(0.996264)" xlink:href="#URWPalladioL-Roma-6c"/>
      <use transform="translate(73.22393 0)scale(0.996264)" xlink:href="#URWPalladioL-Roma-61"/>
      <use transform="translate(123.037131 0)scale(0.996264)" xlink:href="#URWPalladioL-Roma-73"/>
      <use transform="translate(165.278597 0)scale(0.996264)" xlink:href="#URWPalladioL-Roma-73"/>
      <use transform="translate(232.426664 0)scale(0.996264)" xlink:href="#URWPalladioL-Roma-32"/>
      <use transform="translate(307.146464 0)scale(0.996264)" xlink:href="#URWPalladioL-Roma-28"/>
      <use transform="translate(340.321694 0)scale(0.996264)" xlink:href="#URWPalladioL-Roma-61"/>
      <use transform="translate(390.134895 0)scale(0.996264)" xlink:href="#URWPalladioL-Roma-72"/>
      <use transform="translate(427.694212 0)scale(0.996264)" xlink:href="#URWPalladioL-Roma-65"/>
      <use transform="translate(475.414507 0)scale(0.996264)" xlink:href="#URWPalladioL-Roma-61"/>
      <use transform="translate(550.134308 0)scale(0.996264)" xlink:href="#URWPalladioL-Roma-3d"/>
      <use transform="translate(635.41392 0)scale(0.996264)" xlink:href="#URWPalladioL-Roma-30"/>
      <use transform="translate(685.227121 0)scale(0.996264)" xlink:href="#URWPalladioL-Roma-2e"/>
      <use transform="translate(710.133721 0)scale(0.996264)" xlink:href="#URWPalladioL-Roma-38"/>
      <use transform="translate(759.946921 0)scale(0.996264)" xlink:href="#URWPalladioL-Roma-37"/>
      <use transform="translate(809.760122 0)scale(0.996264)" xlink:href="#URWPalladioL-Roma-29"/>
     </g>
    </g>
   </g>
  </g>
 </g>
 <defs>
  <clipPath id="p1d862ef973">
   <rect height="362.88" width="390.6" x="55.116184" y="24.103159"/>
  </clipPath>
 </defs>
</svg>
