<?xml version="1.0" encoding="utf-8" standalone="no"?>
<!DOCTYPE svg PUBLIC "-//W3C//DTD SVG 1.1//EN"
  "http://www.w3.org/Graphics/SVG/1.1/DTD/svg11.dtd">
<svg height="550.221559pt" version="1.1" viewBox="0 0 464.124154 550.221559" width="464.124154pt" xmlns="http://www.w3.org/2000/svg" xmlns:xlink="http://www.w3.org/1999/xlink">
 <metadata>
  <rdf:RDF xmlns:cc="http://creativecommons.org/ns#" xmlns:dc="http://purl.org/dc/elements/1.1/" xmlns:rdf="http://www.w3.org/1999/02/22-rdf-syntax-ns#">
   <cc:Work>
    <dc:type rdf:resource="http://purl.org/dc/dcmitype/StillImage"/>
    <dc:date>2021-04-13T21:39:25.262455</dc:date>
    <dc:format>image/svg+xml</dc:format>
    <dc:creator>
     <cc:Agent>
      <dc:title>Matplotlib v3.4.1, https://matplotlib.org/</dc:title>
     </cc:Agent>
    </dc:creator>
   </cc:Work>
  </rdf:RDF>
 </metadata>
 <defs>
  <style type="text/css">*{stroke-linecap:butt;stroke-linejoin:round;}</style>
 </defs>
 <g id="figure_1">
  <g id="patch_1">
   <path d="M -0 550.221559 
L 464.124154 550.221559 
L 464.124154 0 
L -0 0 
z
" style="fill:#232323;"/>
  </g>
  <g id="axes_1">
   <g id="patch_2">
    <path d="M 55.116184 386.983159 
L 445.716184 386.983159 
L 445.716184 24.103159 
L 55.116184 24.103159 
z
" style="fill:#232323;"/>
   </g>
   <g id="matplotlib.axis_1">
    <g id="xtick_1">
     <g id="line2d_1">
      <path clip-path="url(#p33b2faf7e1)" d="M 55.116184 386.983159 
L 55.116184 24.103159 
" style="fill:none;stroke:#808080;stroke-dasharray:4.144,1.792;stroke-dashoffset:0;stroke-opacity:0.5;stroke-width:1.12;"/>
     </g>
     <g id="line2d_2">
      <defs>
       <path d="M 0 0 
L 0 -6 
" id="ma57d9209e8" style="stroke:#bbbbbb;stroke-width:0.8;"/>
      </defs>
      <g>
       <use style="fill:#bbbbbb;stroke:#bbbbbb;stroke-width:0.8;" x="55.116184" xlink:href="#ma57d9209e8" y="386.983159"/>
      </g>
     </g>
     <g id="text_1">
      <!-- $\mathdefault{0.0}$ -->
      <g style="fill:#bbbbbb;" transform="translate(43.908214 405.41398)scale(0.18 -0.18)">
       <defs>
        <path d="M 1683 4416 
C 691 4416 186 3628 186 2077 
C 186 1326 320 680 544 366 
C 768 51 1126 -128 1523 -128 
C 2490 -128 2976 705 2976 2346 
C 2976 3749 2560 4416 1683 4416 
z
M 1568 4192 
C 2189 4192 2438 3564 2438 2025 
C 2438 661 2195 96 1606 96 
C 986 96 723 744 723 2308 
C 723 3660 960 4192 1568 4192 
z
" id="URWPalladioL-Roma-30" transform="scale(0.015625)"/>
        <path d="M 794 744 
C 602 744 429 564 429 372 
C 429 179 602 0 787 0 
C 992 0 1171 173 1171 372 
C 1171 564 992 744 794 744 
z
" id="URWPalladioL-Roma-2e" transform="scale(0.015625)"/>
       </defs>
       <use transform="scale(0.996264)" xlink:href="#URWPalladioL-Roma-30"/>
       <use transform="translate(49.8132 0)scale(0.996264)" xlink:href="#URWPalladioL-Roma-2e"/>
       <use transform="translate(74.719801 0)scale(0.996264)" xlink:href="#URWPalladioL-Roma-30"/>
      </g>
     </g>
    </g>
    <g id="xtick_2">
     <g id="line2d_3">
      <path clip-path="url(#p33b2faf7e1)" d="M 133.236184 386.983159 
L 133.236184 24.103159 
" style="fill:none;stroke:#808080;stroke-dasharray:4.144,1.792;stroke-dashoffset:0;stroke-opacity:0.5;stroke-width:1.12;"/>
     </g>
     <g id="line2d_4">
      <g>
       <use style="fill:#bbbbbb;stroke:#bbbbbb;stroke-width:0.8;" x="133.236184" xlink:href="#ma57d9209e8" y="386.983159"/>
      </g>
     </g>
     <g id="text_2">
      <!-- $\mathdefault{0.2}$ -->
      <g style="fill:#bbbbbb;" transform="translate(122.028214 405.41398)scale(0.18 -0.18)">
       <defs>
        <path d="M 102 160 
L 102 0 
C 1299 0 1299 0 1530 0 
C 1760 0 1760 0 2995 0 
C 2982 125 2982 186 2982 269 
C 2982 348 2982 407 2995 539 
C 2259 539 1965 539 781 539 
L 1946 1761 
C 2566 2414 2758 2763 2758 3238 
C 2758 3966 2259 4416 1446 4416 
C 986 4416 672 4288 358 3969 
L 250 3099 
L 435 3099 
L 518 3393 
C 621 3763 851 3923 1280 3923 
C 1830 3923 2182 3577 2182 3035 
C 2182 2555 1914 2083 1190 1316 
L 102 160 
z
" id="URWPalladioL-Roma-32" transform="scale(0.015625)"/>
       </defs>
       <use transform="scale(0.996264)" xlink:href="#URWPalladioL-Roma-30"/>
       <use transform="translate(49.8132 0)scale(0.996264)" xlink:href="#URWPalladioL-Roma-2e"/>
       <use transform="translate(74.719801 0)scale(0.996264)" xlink:href="#URWPalladioL-Roma-32"/>
      </g>
     </g>
    </g>
    <g id="xtick_3">
     <g id="line2d_5">
      <path clip-path="url(#p33b2faf7e1)" d="M 211.356184 386.983159 
L 211.356184 24.103159 
" style="fill:none;stroke:#808080;stroke-dasharray:4.144,1.792;stroke-dashoffset:0;stroke-opacity:0.5;stroke-width:1.12;"/>
     </g>
     <g id="line2d_6">
      <g>
       <use style="fill:#bbbbbb;stroke:#bbbbbb;stroke-width:0.8;" x="211.356184" xlink:href="#ma57d9209e8" y="386.983159"/>
      </g>
     </g>
     <g id="text_3">
      <!-- $\mathdefault{0.4}$ -->
      <g style="fill:#bbbbbb;" transform="translate(200.148214 405.41398)scale(0.18 -0.18)">
       <defs>
        <path d="M 1792 1152 
L 1792 673 
C 1792 289 1722 199 1408 199 
L 1011 199 
L 1011 0 
C 1862 0 1862 0 2016 0 
C 2170 0 2170 0 3021 0 
L 3021 199 
L 2714 199 
C 2400 199 2330 282 2330 669 
L 2330 1152 
C 2707 1152 2842 1152 3021 1133 
L 3021 1588 
C 2720 1563 2598 1563 2502 1563 
L 2483 1563 
L 2330 1563 
L 2330 2457 
C 2330 3600 2342 4152 2374 4416 
L 2298 4448 
L 1824 4275 
L 13 1299 
L 83 1152 
L 1792 1152 
z
M 1792 1563 
L 416 1563 
L 1792 3826 
L 1792 1563 
z
" id="URWPalladioL-Roma-34" transform="scale(0.015625)"/>
       </defs>
       <use transform="scale(0.996264)" xlink:href="#URWPalladioL-Roma-30"/>
       <use transform="translate(49.8132 0)scale(0.996264)" xlink:href="#URWPalladioL-Roma-2e"/>
       <use transform="translate(74.719801 0)scale(0.996264)" xlink:href="#URWPalladioL-Roma-34"/>
      </g>
     </g>
    </g>
    <g id="xtick_4">
     <g id="line2d_7">
      <path clip-path="url(#p33b2faf7e1)" d="M 289.476184 386.983159 
L 289.476184 24.103159 
" style="fill:none;stroke:#808080;stroke-dasharray:4.144,1.792;stroke-dashoffset:0;stroke-opacity:0.5;stroke-width:1.12;"/>
     </g>
     <g id="line2d_8">
      <g>
       <use style="fill:#bbbbbb;stroke:#bbbbbb;stroke-width:0.8;" x="289.476184" xlink:href="#ma57d9209e8" y="386.983159"/>
      </g>
     </g>
     <g id="text_4">
      <!-- $\mathdefault{0.6}$ -->
      <g style="fill:#bbbbbb;" transform="translate(278.268214 405.41398)scale(0.18 -0.18)">
       <defs>
        <path d="M 2662 4310 
L 2426 4419 
C 1811 4214 1549 4086 1222 3804 
C 563 3246 205 2464 205 1585 
C 205 526 717 -128 1542 -128 
C 2374 -128 2995 532 2995 1405 
C 2995 2143 2554 2624 1875 2624 
C 1555 2624 1363 2540 986 2239 
C 915 2181 909 2175 838 2124 
C 973 3284 1510 3913 2662 4259 
L 2662 4310 
z
M 1632 2239 
C 2118 2239 2445 1816 2445 1181 
C 2445 513 2118 83 1626 83 
C 1082 83 787 551 787 1412 
C 787 1636 813 1758 883 1867 
C 1024 2085 1325 2239 1632 2239 
z
" id="URWPalladioL-Roma-36" transform="scale(0.015625)"/>
       </defs>
       <use transform="scale(0.996264)" xlink:href="#URWPalladioL-Roma-30"/>
       <use transform="translate(49.8132 0)scale(0.996264)" xlink:href="#URWPalladioL-Roma-2e"/>
       <use transform="translate(74.719801 0)scale(0.996264)" xlink:href="#URWPalladioL-Roma-36"/>
      </g>
     </g>
    </g>
    <g id="xtick_5">
     <g id="line2d_9">
      <path clip-path="url(#p33b2faf7e1)" d="M 367.596184 386.983159 
L 367.596184 24.103159 
" style="fill:none;stroke:#808080;stroke-dasharray:4.144,1.792;stroke-dashoffset:0;stroke-opacity:0.5;stroke-width:1.12;"/>
     </g>
     <g id="line2d_10">
      <g>
       <use style="fill:#bbbbbb;stroke:#bbbbbb;stroke-width:0.8;" x="367.596184" xlink:href="#ma57d9209e8" y="386.983159"/>
      </g>
     </g>
     <g id="text_5">
      <!-- $\mathdefault{0.8}$ -->
      <g style="fill:#bbbbbb;" transform="translate(356.388214 405.41398)scale(0.18 -0.18)">
       <defs>
        <path d="M 1075 2211 
C 813 2090 704 2019 563 1884 
C 320 1641 192 1352 192 1019 
C 192 359 723 -128 1446 -128 
C 2278 -128 2970 526 2970 1320 
C 2970 1833 2733 2109 2003 2442 
C 2586 2840 2790 3109 2790 3493 
C 2790 4044 2336 4416 1658 4416 
C 896 4416 339 3929 339 3257 
C 339 2821 512 2577 1075 2211 
z
M 1818 1891 
C 2221 1711 2464 1397 2464 1052 
C 2464 513 2061 90 1542 90 
C 998 90 646 475 646 1071 
C 646 1538 832 1833 1306 2122 
L 1818 1891 
z
M 1427 2712 
C 1024 2910 819 3167 819 3487 
C 819 3910 1126 4198 1581 4198 
C 2048 4198 2355 3891 2355 3422 
C 2355 3058 2195 2808 1779 2538 
L 1427 2712 
z
" id="URWPalladioL-Roma-38" transform="scale(0.015625)"/>
       </defs>
       <use transform="scale(0.996264)" xlink:href="#URWPalladioL-Roma-30"/>
       <use transform="translate(49.8132 0)scale(0.996264)" xlink:href="#URWPalladioL-Roma-2e"/>
       <use transform="translate(74.719801 0)scale(0.996264)" xlink:href="#URWPalladioL-Roma-38"/>
      </g>
     </g>
    </g>
    <g id="xtick_6">
     <g id="line2d_11">
      <path clip-path="url(#p33b2faf7e1)" d="M 445.716184 386.983159 
L 445.716184 24.103159 
" style="fill:none;stroke:#808080;stroke-dasharray:4.144,1.792;stroke-dashoffset:0;stroke-opacity:0.5;stroke-width:1.12;"/>
     </g>
     <g id="line2d_12">
      <g>
       <use style="fill:#bbbbbb;stroke:#bbbbbb;stroke-width:0.8;" x="445.716184" xlink:href="#ma57d9209e8" y="386.983159"/>
      </g>
     </g>
     <g id="text_6">
      <!-- $\mathdefault{1.0}$ -->
      <g style="fill:#bbbbbb;" transform="translate(434.508214 405.41398)scale(0.18 -0.18)">
       <defs>
        <path d="M 429 3584 
L 493 3584 
L 1318 3956 
C 1325 3962 1331 3962 1338 3962 
C 1376 3962 1389 3905 1389 3751 
L 1389 613 
C 1389 276 1318 205 973 205 
L 614 205 
L 614 0 
C 1600 0 1600 0 1670 0 
C 1754 0 1894 0 2112 0 
C 2189 0 2413 0 2675 0 
L 2675 205 
L 2342 205 
C 1990 205 1926 276 1926 612 
L 1926 4443 
L 1837 4475 
C 1421 4257 966 4065 384 3860 
L 429 3584 
z
" id="URWPalladioL-Roma-31" transform="scale(0.015625)"/>
       </defs>
       <use transform="scale(0.996264)" xlink:href="#URWPalladioL-Roma-31"/>
       <use transform="translate(49.8132 0)scale(0.996264)" xlink:href="#URWPalladioL-Roma-2e"/>
       <use transform="translate(74.719801 0)scale(0.996264)" xlink:href="#URWPalladioL-Roma-30"/>
      </g>
     </g>
    </g>
    <g id="text_7">
     <!-- Recall -->
     <g style="fill:#bbbbbb;" transform="translate(229.112383 425.876097)scale(0.16 -0.16)">
      <defs>
       <path d="M 1382 4147 
C 1600 4198 1792 4224 2010 4224 
C 2675 4224 3046 3915 3046 3367 
C 3046 2775 2579 2401 1837 2401 
C 1792 2401 1734 2401 1651 2407 
L 1613 2330 
C 1683 2246 1702 2221 1779 2137 
C 1869 2035 1888 2009 1946 1932 
L 3123 346 
C 3162 295 3200 243 3238 199 
C 3283 141 3322 83 3386 0 
C 3686 0 3750 0 3821 0 
C 3878 0 3878 0 4282 0 
L 4282 186 
C 4077 205 3974 244 3891 354 
L 2438 2259 
C 2797 2349 2963 2419 3174 2566 
C 3507 2803 3686 3123 3686 3495 
C 3686 4109 3238 4455 2445 4455 
L 2342 4455 
C 1510 4455 1510 4455 1293 4455 
C 1082 4455 1082 4455 186 4455 
L 186 4275 
L 448 4243 
C 742 4243 774 4184 774 3679 
L 774 769 
C 774 257 742 205 448 205 
L 141 205 
L 141 0 
C 518 0 742 0 1075 0 
C 1408 0 1638 0 2016 0 
L 2016 205 
L 1709 205 
C 1414 205 1382 256 1382 768 
L 1382 4147 
z
" id="URWPalladioL-Roma-52" transform="scale(0.015625)"/>
       <path d="M 2797 447 
L 2714 511 
C 2304 269 2157 212 1882 212 
C 1466 212 1120 398 941 711 
C 819 921 774 1101 762 1472 
L 1696 1472 
C 2138 1472 2413 1472 2854 1544 
C 2861 1634 2867 1693 2867 1771 
C 2867 2520 2394 3008 1677 3008 
C 1440 3008 1165 2924 902 2770 
C 378 2469 166 2071 166 1404 
C 166 1000 262 654 435 410 
C 691 71 1120 -128 1600 -128 
C 1837 -128 2074 -77 2336 37 
C 2509 108 2643 191 2669 230 
L 2797 447 
z
M 2298 1690 
C 1965 1690 1811 1690 1581 1690 
C 1286 1690 1120 1690 774 1722 
C 774 2027 800 2169 883 2337 
C 1018 2622 1293 2796 1600 2796 
C 1811 2796 1978 2711 2093 2534 
C 2234 2319 2278 2129 2298 1690 
z
" id="URWPalladioL-Roma-65" transform="scale(0.015625)"/>
       <path d="M 2554 1994 
C 2554 2289 2586 2552 2643 2783 
C 2387 2937 2163 3008 1901 3008 
C 1594 3008 1235 2886 851 2642 
C 403 2360 166 1911 166 1347 
C 166 481 774 -128 1632 -128 
C 1965 -128 2445 -6 2509 90 
L 2643 295 
L 2579 391 
C 2342 263 2138 205 1907 205 
C 1197 205 730 757 730 1603 
C 730 2289 1050 2674 1626 2674 
C 1907 2674 2214 2546 2330 2386 
L 2374 1994 
L 2554 1994 
z
" id="URWPalladioL-Roma-63" transform="scale(0.015625)"/>
       <path d="M 2074 538 
L 2042 -1 
C 2458 -1 2458 -1 2541 -1 
C 2573 -1 2733 -1 3014 -1 
L 3014 192 
L 2765 192 
C 2611 192 2586 244 2586 558 
L 2586 1731 
C 2586 2668 2317 3008 1574 3008 
C 1299 3008 1043 2937 800 2791 
L 461 2585 
L 461 2171 
L 627 2126 
L 710 2323 
C 845 2623 909 2668 1203 2668 
C 1805 2668 2054 2431 2074 1852 
L 1440 1736 
C 570 1577 205 1277 205 722 
C 205 224 506 -64 1011 -64 
C 1126 -64 1235 -45 1280 -13 
L 2074 538 
z
M 2074 806 
C 1888 544 1485 302 1235 302 
C 979 302 755 538 755 812 
C 755 1048 883 1271 1075 1392 
C 1235 1488 1587 1577 2074 1648 
L 2074 806 
z
" id="URWPalladioL-Roma-61" transform="scale(0.015625)"/>
       <path d="M 147 4256 
L 506 4256 
C 621 4256 666 4185 666 3992 
L 666 651 
C 666 244 646 199 429 199 
L 134 199 
L 134 0 
C 774 0 774 0 934 0 
C 1094 0 1094 0 1734 0 
L 1734 199 
L 1440 199 
C 1222 199 1203 244 1203 650 
L 1203 4621 
L 1146 4673 
C 864 4564 653 4512 147 4435 
L 147 4256 
z
" id="URWPalladioL-Roma-6c" transform="scale(0.015625)"/>
      </defs>
      <use transform="scale(0.996264)" xlink:href="#URWPalladioL-Roma-52"/>
      <use transform="translate(66.549694 0)scale(0.996264)" xlink:href="#URWPalladioL-Roma-65"/>
      <use transform="translate(114.269989 0)scale(0.996264)" xlink:href="#URWPalladioL-Roma-63"/>
      <use transform="translate(158.503558 0)scale(0.996264)" xlink:href="#URWPalladioL-Roma-61"/>
      <use transform="translate(208.316758 0)scale(0.996264)" xlink:href="#URWPalladioL-Roma-6c"/>
      <use transform="translate(237.30712 0)scale(0.996264)" xlink:href="#URWPalladioL-Roma-6c"/>
     </g>
    </g>
   </g>
   <g id="matplotlib.axis_2">
    <g id="ytick_1">
     <g id="line2d_13">
      <path clip-path="url(#p33b2faf7e1)" d="M 55.116184 386.983159 
L 445.716184 386.983159 
" style="fill:none;stroke:#808080;stroke-dasharray:4.144,1.792;stroke-dashoffset:0;stroke-opacity:0.5;stroke-width:1.12;"/>
     </g>
     <g id="line2d_14">
      <defs>
       <path d="M 0 0 
L 6 0 
" id="mefd40b6fe3" style="stroke:#bbbbbb;stroke-width:0.8;"/>
      </defs>
      <g>
       <use style="fill:#bbbbbb;stroke:#bbbbbb;stroke-width:0.8;" x="55.116184" xlink:href="#mefd40b6fe3" y="386.983159"/>
      </g>
     </g>
     <g id="text_8">
      <!-- $\mathdefault{0.0}$ -->
      <g style="fill:#bbbbbb;" transform="translate(27.100243 393.39857)scale(0.18 -0.18)">
       <use transform="scale(0.996264)" xlink:href="#URWPalladioL-Roma-30"/>
       <use transform="translate(49.8132 0)scale(0.996264)" xlink:href="#URWPalladioL-Roma-2e"/>
       <use transform="translate(74.719801 0)scale(0.996264)" xlink:href="#URWPalladioL-Roma-30"/>
      </g>
     </g>
    </g>
    <g id="ytick_2">
     <g id="line2d_15">
      <path clip-path="url(#p33b2faf7e1)" d="M 55.116184 317.863159 
L 445.716184 317.863159 
" style="fill:none;stroke:#808080;stroke-dasharray:4.144,1.792;stroke-dashoffset:0;stroke-opacity:0.5;stroke-width:1.12;"/>
     </g>
     <g id="line2d_16">
      <g>
       <use style="fill:#bbbbbb;stroke:#bbbbbb;stroke-width:0.8;" x="55.116184" xlink:href="#mefd40b6fe3" y="317.863159"/>
      </g>
     </g>
     <g id="text_9">
      <!-- $\mathdefault{0.2}$ -->
      <g style="fill:#bbbbbb;" transform="translate(27.100243 324.27857)scale(0.18 -0.18)">
       <use transform="scale(0.996264)" xlink:href="#URWPalladioL-Roma-30"/>
       <use transform="translate(49.8132 0)scale(0.996264)" xlink:href="#URWPalladioL-Roma-2e"/>
       <use transform="translate(74.719801 0)scale(0.996264)" xlink:href="#URWPalladioL-Roma-32"/>
      </g>
     </g>
    </g>
    <g id="ytick_3">
     <g id="line2d_17">
      <path clip-path="url(#p33b2faf7e1)" d="M 55.116184 248.743159 
L 445.716184 248.743159 
" style="fill:none;stroke:#808080;stroke-dasharray:4.144,1.792;stroke-dashoffset:0;stroke-opacity:0.5;stroke-width:1.12;"/>
     </g>
     <g id="line2d_18">
      <g>
       <use style="fill:#bbbbbb;stroke:#bbbbbb;stroke-width:0.8;" x="55.116184" xlink:href="#mefd40b6fe3" y="248.743159"/>
      </g>
     </g>
     <g id="text_10">
      <!-- $\mathdefault{0.4}$ -->
      <g style="fill:#bbbbbb;" transform="translate(27.100243 255.15857)scale(0.18 -0.18)">
       <use transform="scale(0.996264)" xlink:href="#URWPalladioL-Roma-30"/>
       <use transform="translate(49.8132 0)scale(0.996264)" xlink:href="#URWPalladioL-Roma-2e"/>
       <use transform="translate(74.719801 0)scale(0.996264)" xlink:href="#URWPalladioL-Roma-34"/>
      </g>
     </g>
    </g>
    <g id="ytick_4">
     <g id="line2d_19">
      <path clip-path="url(#p33b2faf7e1)" d="M 55.116184 179.623159 
L 445.716184 179.623159 
" style="fill:none;stroke:#808080;stroke-dasharray:4.144,1.792;stroke-dashoffset:0;stroke-opacity:0.5;stroke-width:1.12;"/>
     </g>
     <g id="line2d_20">
      <g>
       <use style="fill:#bbbbbb;stroke:#bbbbbb;stroke-width:0.8;" x="55.116184" xlink:href="#mefd40b6fe3" y="179.623159"/>
      </g>
     </g>
     <g id="text_11">
      <!-- $\mathdefault{0.6}$ -->
      <g style="fill:#bbbbbb;" transform="translate(27.100243 186.03857)scale(0.18 -0.18)">
       <use transform="scale(0.996264)" xlink:href="#URWPalladioL-Roma-30"/>
       <use transform="translate(49.8132 0)scale(0.996264)" xlink:href="#URWPalladioL-Roma-2e"/>
       <use transform="translate(74.719801 0)scale(0.996264)" xlink:href="#URWPalladioL-Roma-36"/>
      </g>
     </g>
    </g>
    <g id="ytick_5">
     <g id="line2d_21">
      <path clip-path="url(#p33b2faf7e1)" d="M 55.116184 110.503159 
L 445.716184 110.503159 
" style="fill:none;stroke:#808080;stroke-dasharray:4.144,1.792;stroke-dashoffset:0;stroke-opacity:0.5;stroke-width:1.12;"/>
     </g>
     <g id="line2d_22">
      <g>
       <use style="fill:#bbbbbb;stroke:#bbbbbb;stroke-width:0.8;" x="55.116184" xlink:href="#mefd40b6fe3" y="110.503159"/>
      </g>
     </g>
     <g id="text_12">
      <!-- $\mathdefault{0.8}$ -->
      <g style="fill:#bbbbbb;" transform="translate(27.100243 116.91857)scale(0.18 -0.18)">
       <use transform="scale(0.996264)" xlink:href="#URWPalladioL-Roma-30"/>
       <use transform="translate(49.8132 0)scale(0.996264)" xlink:href="#URWPalladioL-Roma-2e"/>
       <use transform="translate(74.719801 0)scale(0.996264)" xlink:href="#URWPalladioL-Roma-38"/>
      </g>
     </g>
    </g>
    <g id="ytick_6">
     <g id="line2d_23">
      <path clip-path="url(#p33b2faf7e1)" d="M 55.116184 41.383159 
L 445.716184 41.383159 
" style="fill:none;stroke:#808080;stroke-dasharray:4.144,1.792;stroke-dashoffset:0;stroke-opacity:0.5;stroke-width:1.12;"/>
     </g>
     <g id="line2d_24">
      <g>
       <use style="fill:#bbbbbb;stroke:#bbbbbb;stroke-width:0.8;" x="55.116184" xlink:href="#mefd40b6fe3" y="41.383159"/>
      </g>
     </g>
     <g id="text_13">
      <!-- $\mathdefault{1.0}$ -->
      <g style="fill:#bbbbbb;" transform="translate(27.100243 47.79857)scale(0.18 -0.18)">
       <use transform="scale(0.996264)" xlink:href="#URWPalladioL-Roma-31"/>
       <use transform="translate(49.8132 0)scale(0.996264)" xlink:href="#URWPalladioL-Roma-2e"/>
       <use transform="translate(74.719801 0)scale(0.996264)" xlink:href="#URWPalladioL-Roma-30"/>
      </g>
     </g>
    </g>
    <g id="text_14">
     <!-- Precision -->
     <g style="fill:#bbbbbb;" transform="translate(18.605183 237.726093)rotate(-90)scale(0.16 -0.16)">
      <defs>
       <path d="M 1382 4116 
C 1606 4166 1792 4192 2010 4192 
C 2701 4192 3072 3875 3072 3273 
C 3072 2703 2682 2304 2125 2304 
C 1990 2304 1894 2317 1728 2367 
L 1792 2137 
C 1946 2105 2035 2099 2163 2099 
C 3040 2099 3712 2692 3712 3459 
C 3712 4071 3213 4448 2400 4448 
C 2368 4448 2304 4448 2221 4423 
C 1984 4423 1498 4423 1312 4423 
C 1171 4423 1171 4423 147 4423 
L 147 4224 
L 435 4224 
C 723 4224 774 4140 774 3663 
L 774 766 
C 774 256 742 205 448 205 
L 141 205 
L 141 0 
C 518 0 742 0 1075 0 
C 1408 0 1638 0 2016 0 
L 2016 205 
L 1709 205 
C 1414 205 1382 256 1382 764 
L 1382 4116 
z
" id="URWPalladioL-Roma-50" transform="scale(0.015625)"/>
       <path d="M 147 2565 
L 384 2565 
C 640 2565 666 2520 666 2094 
L 666 643 
C 666 237 646 192 429 192 
L 134 192 
L 134 -7 
C 595 -7 762 -7 922 -7 
C 1050 -7 1050 -7 1837 -7 
L 1837 192 
L 1504 192 
C 1216 192 1203 211 1203 638 
L 1203 1751 
C 1203 2139 1459 2463 1773 2463 
C 1965 2463 2099 2373 2202 2169 
L 2336 2169 
L 2394 2937 
C 2323 2982 2208 3008 2093 3008 
C 1901 3008 1696 2905 1562 2745 
L 1203 2322 
L 1203 2982 
L 1146 3008 
C 819 2873 486 2783 147 2745 
L 147 2565 
z
" id="URWPalladioL-Roma-72" transform="scale(0.015625)"/>
       <path d="M 1203 2993 
L 1146 3019 
C 819 2884 486 2793 147 2755 
L 147 2576 
L 384 2576 
C 640 2576 666 2531 666 2105 
L 666 651 
C 666 244 646 199 429 199 
L 134 199 
L 134 0 
C 774 0 774 0 934 0 
C 1094 0 1094 0 1734 0 
L 1734 199 
L 1440 199 
C 1222 199 1203 244 1203 651 
L 1203 2993 
z
M 909 4416 
C 717 4416 550 4249 550 4056 
C 550 3870 717 3704 902 3704 
C 1088 3704 1261 3870 1261 4056 
C 1261 4236 1088 4416 909 4416 
z
" id="URWPalladioL-Roma-69" transform="scale(0.015625)"/>
       <path d="M 262 917 
C 262 475 243 282 192 26 
C 525 -83 774 -128 1069 -128 
C 1907 -128 2502 321 2502 949 
C 2502 1148 2445 1295 2323 1424 
C 2157 1584 1946 1661 1382 1770 
C 858 1873 685 2001 685 2296 
C 685 2616 909 2796 1299 2796 
C 1728 2796 2054 2572 2054 2270 
L 2054 2123 
L 2234 2123 
C 2240 2495 2246 2648 2266 2847 
C 1926 2963 1696 3008 1434 3008 
C 691 3008 237 2655 237 2078 
C 237 1770 378 1552 672 1417 
C 845 1340 1184 1238 1619 1141 
C 1907 1077 2029 943 2029 699 
C 2029 353 1709 109 1254 109 
C 787 109 454 333 454 654 
L 454 917 
L 262 917 
z
" id="URWPalladioL-Roma-73" transform="scale(0.015625)"/>
       <path d="M 1786 3008 
C 851 3008 205 2347 205 1392 
C 205 487 774 -128 1600 -128 
C 2586 -128 3290 558 3290 1520 
C 3290 2386 2662 3008 1786 3008 
z
M 1670 2796 
C 2259 2796 2694 2155 2694 1283 
C 2694 545 2368 83 1850 83 
C 1222 83 800 699 800 1610 
C 800 2379 1107 2796 1670 2796 
z
" id="URWPalladioL-Roma-6f" transform="scale(0.015625)"/>
       <path d="M 2624 -7 
C 3014 -7 3021 -7 3130 -7 
C 3219 -7 3219 -7 3661 -7 
L 3661 179 
L 3398 205 
C 3181 205 3162 244 3162 654 
L 3162 1892 
C 3162 2642 2810 3008 2093 3008 
C 1856 3008 1722 2963 1587 2847 
L 1101 2424 
L 1101 2982 
L 1043 3008 
C 717 2873 384 2783 45 2745 
L 45 2565 
L 282 2565 
C 538 2565 563 2520 563 2094 
L 563 643 
C 563 237 544 192 326 192 
L 38 192 
L 38 -7 
C 474 -7 646 -7 832 -7 
C 1018 -7 1190 -7 1626 -7 
L 1626 192 
L 1338 192 
C 1120 192 1101 237 1101 643 
L 1101 2011 
C 1101 2300 1523 2616 1914 2616 
C 2342 2616 2624 2297 2624 1806 
L 2624 -7 
z
" id="URWPalladioL-Roma-6e" transform="scale(0.015625)"/>
      </defs>
      <use transform="scale(0.996264)" xlink:href="#URWPalladioL-Roma-50"/>
      <use transform="translate(60.173595 0)scale(0.996264)" xlink:href="#URWPalladioL-Roma-72"/>
      <use transform="translate(97.732913 0)scale(0.996264)" xlink:href="#URWPalladioL-Roma-65"/>
      <use transform="translate(145.453208 0)scale(0.996264)" xlink:href="#URWPalladioL-Roma-63"/>
      <use transform="translate(189.686776 0)scale(0.996264)" xlink:href="#URWPalladioL-Roma-69"/>
      <use transform="translate(218.677138 0)scale(0.996264)" xlink:href="#URWPalladioL-Roma-73"/>
      <use transform="translate(260.918604 0)scale(0.996264)" xlink:href="#URWPalladioL-Roma-69"/>
      <use transform="translate(289.908966 0)scale(0.996264)" xlink:href="#URWPalladioL-Roma-6f"/>
      <use transform="translate(344.304546 0)scale(0.996264)" xlink:href="#URWPalladioL-Roma-6e"/>
     </g>
    </g>
   </g>
   <g id="line2d_25">
    <path clip-path="url(#p33b2faf7e1)" d="M 98.480755 38.823159 
L 106.372469 241.740806 
L 114.264184 285.223159 
L 122.155898 304.177005 
L 130.047612 314.791159 
L 137.939327 321.577258 
L 145.831041 326.289826 
L 153.722755 329.75328 
L 161.614469 332.406138 
L 169.506184 334.503159 
L 177.397898 336.20247 
L 185.289612 337.607411 
L 193.181327 338.788377 
L 201.073041 339.794971 
L 208.964755 340.663159 
L 216.856469 341.41965 
L 224.748184 342.084698 
L 232.639898 342.673936 
L 240.531612 343.19963 
L 248.423327 343.671531 
L 256.315041 344.097495 
L 264.206755 344.483919 
L 272.098469 344.836062 
L 279.990184 345.158294 
L 287.881898 345.45427 
L 295.773612 345.727074 
L 303.665327 345.979324 
L 311.557041 346.213258 
L 319.448755 346.430802 
L 327.340469 346.633621 
L 335.232184 346.823159 
L 343.123898 347.000681 
L 351.015612 347.167293 
L 358.907327 347.323972 
L 366.799041 347.47158 
L 374.690755 347.610883 
L 382.582469 347.742562 
L 390.474184 347.867227 
L 398.365898 347.985423 
L 406.257612 348.097642 
L 414.149327 348.204325 
L 422.041041 348.305873 
L 429.932755 348.402646 
L 437.824469 348.494975 
L 445.716184 348.583159 
" style="fill:none;stroke:#808080;stroke-linecap:round;stroke-opacity:0.2;stroke-width:1.2;"/>
   </g>
   <g id="line2d_26">
    <path clip-path="url(#p33b2faf7e1)" d="M 151.080562 -1 
L 153.722755 54.292731 
L 161.614469 127.589002 
L 169.506184 168.989313 
L 177.397898 195.593123 
L 185.289612 214.130234 
L 193.181327 227.786563 
L 201.073041 238.265509 
L 208.964755 246.560422 
L 216.856469 253.289661 
L 224.748184 258.858281 
L 232.639898 263.54271 
L 240.531612 267.538048 
L 248.423327 270.985927 
L 256.315041 273.991657 
L 264.206755 276.635162 
L 272.098469 278.978199 
L 279.990184 281.069243 
L 287.881898 282.946871 
L 295.773612 284.642168 
L 303.665327 286.180465 
L 311.557041 287.582605 
L 319.448755 288.865899 
L 327.340469 290.044843 
L 335.232184 291.131667 
L 343.123898 292.136763 
L 351.015612 293.069016 
L 358.907327 293.936066 
L 366.799041 294.744524 
L 374.690755 295.500135 
L 382.582469 296.207916 
L 390.474184 296.87227 
L 398.365898 297.497074 
L 406.257612 298.085758 
L 414.149327 298.641366 
L 422.041041 299.166609 
L 429.932755 299.663911 
L 437.824469 300.135444 
L 445.716184 300.583159 
" style="fill:none;stroke:#808080;stroke-linecap:round;stroke-opacity:0.2;stroke-width:1.2;"/>
   </g>
   <g id="line2d_27">
    <path clip-path="url(#p33b2faf7e1)" d="M 215.288802 -1 
L 216.856469 10.65629 
L 224.748184 51.677627 
L 232.639898 81.969474 
L 240.531612 105.254561 
L 248.423327 123.711955 
L 256.315041 138.702021 
L 264.206755 151.117903 
L 272.098469 161.570252 
L 279.990184 170.490724 
L 287.881898 178.19309 
L 295.773612 184.910906 
L 303.665327 190.821606 
L 311.557041 196.062404 
L 319.448755 200.741079 
L 327.340469 204.943468 
L 335.232184 208.738776 
L 343.123898 212.18342 
L 351.015612 215.323855 
L 358.907327 218.198674 
L 366.799041 220.840208 
L 374.690755 223.275747 
L 382.582469 225.528481 
L 390.474184 227.618249 
L 398.365898 229.562115 
L 406.257612 231.374846 
L 414.149327 233.069277 
L 422.041041 234.656622 
L 429.932755 236.146724 
L 437.824469 237.548251 
L 445.716184 238.868873 
" style="fill:none;stroke:#808080;stroke-linecap:round;stroke-opacity:0.2;stroke-width:1.2;"/>
   </g>
   <g id="line2d_28">
    <path clip-path="url(#p33b2faf7e1)" d="M 297.97867 -1 
L 303.665327 14.761812 
L 311.557041 33.189937 
L 319.448755 48.92723 
L 327.340469 62.522953 
L 335.232184 74.386402 
L 343.123898 84.828822 
L 351.015612 94.091104 
L 358.907327 102.362608 
L 366.799041 109.794236 
L 374.690755 116.507727 
L 382.582469 122.602377 
L 390.474184 128.159982 
L 398.365898 133.24853 
L 406.257612 137.925 
L 414.149327 142.237499 
L 422.041041 146.226928 
L 429.932755 149.92828 
L 437.824469 153.37167 
L 445.716184 156.583159 
" style="fill:none;stroke:#808080;stroke-linecap:round;stroke-opacity:0.2;stroke-width:1.2;"/>
   </g>
   <g id="line2d_29">
    <path clip-path="url(#p33b2faf7e1)" d="M 445.716184 98.458842 
L 445.107772 98.533159 
L 445.107772 89.22832 
L 443.89095 89.357283 
L 443.89095 87.744135 
L 443.282539 87.80704 
L 443.282539 86.584249 
L 442.674128 86.645915 
L 442.674128 84.997974 
L 441.457305 85.11796 
L 441.457305 81.759237 
L 440.848894 81.815471 
L 440.848894 78.376962 
L 440.240483 78.429139 
L 440.240483 75.35239 
L 439.632072 75.400848 
L 439.632072 74.509339 
L 439.02366 74.556798 
L 439.02366 73.659021 
L 436.590015 73.845587 
L 436.590015 70.645641 
L 435.981604 70.688422 
L 435.981604 69.295053 
L 435.373193 69.3361 
L 435.373193 68.399088 
L 434.156371 68.479017 
L 434.156371 66.583159 
L 433.547959 66.620715 
L 433.547959 66.142562 
L 432.939548 66.179572 
L 432.939548 65.217642 
L 432.331137 65.253429 
L 432.331137 63.797639 
L 431.722726 63.831498 
L 431.722726 63.342615 
L 429.289081 63.47631 
L 429.289081 62.488503 
L 428.072258 62.553144 
L 428.072258 62.055552 
L 426.247025 62.15111 
L 426.247025 61.146992 
L 425.638614 61.177586 
L 425.638614 60.672461 
L 423.204969 60.792832 
L 423.204969 60.283159 
L 422.596558 60.312737 
L 422.596558 59.800714 
L 420.162913 59.916913 
L 420.162913 58.361923 
L 418.94609 58.41591 
L 418.94609 57.892713 
L 417.729268 57.945459 
L 417.729268 57.418999 
L 415.295623 57.52229 
L 415.295623 56.990901 
L 414.687212 57.016116 
L 414.687212 56.482188 
L 412.861978 56.555842 
L 412.861978 56.017687 
L 409.819922 56.137839 
L 409.819922 55.047739 
L 407.386277 55.138383 
L 407.386277 54.034074 
L 404.952632 54.118838 
L 404.952632 52.999966 
L 404.344221 53.019523 
L 404.344221 52.456346 
L 401.910576 52.531546 
L 401.910576 51.962751 
L 396.434875 52.127201 
L 396.434875 50.966521 
L 394.00123 51.033421 
L 394.00123 50.446096 
L 388.525529 50.590974 
L 388.525529 49.992412 
L 387.308707 50.023159 
L 387.308707 49.420368 
L 386.091885 49.449227 
L 386.091885 48.842152 
L 382.441417 48.923523 
L 382.441417 48.307749 
L 380.007772 48.358572 
L 380.007772 47.7361 
L 376.965716 47.795033 
L 376.965716 47.164572 
L 375.140483 47.196991 
L 375.140483 46.560687 
L 365.405903 46.720611 
L 365.405903 46.062463 
L 351.412445 46.280325 
L 351.412445 45.589244 
L 349.587212 45.614996 
L 349.587212 44.916902 
L 348.370389 44.931414 
L 348.370389 44.227604 
L 344.719922 44.263159 
L 344.719922 43.547669 
L 336.202165 43.612837 
L 336.202165 42.872814 
L 329.509642 42.908987 
L 329.509642 42.147761 
L 326.467586 42.156314 
L 326.467586 41.383159 
L 55.116184 41.383159 
L 55.116184 41.383159 
" style="fill:none;stroke:#00ffff;stroke-linecap:round;stroke-width:2;"/>
   </g>
   <g id="line2d_30">
    <path clip-path="url(#p33b2faf7e1)" d="M 445.716184 95.988905 
L 445.398881 96.02628 
L 445.398881 95.627436 
L 445.081578 95.664641 
L 445.081578 90.375338 
L 444.764275 90.409574 
L 444.764275 89.786521 
L 444.446972 89.82044 
L 444.446972 86.237627 
L 444.129669 86.269462 
L 444.129669 85.842008 
L 443.812366 85.873629 
L 443.812366 80.64452 
L 443.495063 80.672949 
L 443.495063 79.783159 
L 443.17776 79.811066 
L 443.17776 76.653644 
L 442.860457 76.679559 
L 442.860457 75.535372 
L 442.543154 75.560576 
L 442.543154 75.330574 
L 441.908548 75.380792 
L 441.908548 72.590323 
L 441.591245 72.61363 
L 441.591245 71.671698 
L 441.273942 71.694404 
L 441.273942 70.746167 
L 440.639336 70.790388 
L 440.639336 70.552112 
L 440.322033 70.574109 
L 440.322033 70.33531 
L 440.00473 70.357177 
L 440.00473 69.638118 
L 439.687427 69.659523 
L 439.687427 69.418944 
L 439.370124 69.440215 
L 439.370124 68.957627 
L 439.052821 68.978596 
L 439.052821 66.54178 
L 438.735518 66.561073 
L 438.735518 66.315162 
L 438.418215 66.334311 
L 438.418215 63.351531 
L 438.100912 63.368574 
L 438.100912 63.117321 
L 437.783609 63.134208 
L 437.783609 62.882382 
L 437.149003 62.915869 
L 437.149003 62.410304 
L 436.8317 62.426719 
L 436.8317 61.410097 
L 436.514397 61.425792 
L 436.514397 60.914713 
L 436.197094 60.930056 
L 436.197094 60.159852 
L 435.879791 60.174649 
L 435.879791 59.400221 
L 435.562488 59.414464 
L 435.562488 58.375388 
L 435.245185 58.388873 
L 435.245185 58.127877 
L 434.927882 58.141188 
L 434.927882 57.879579 
L 434.610578 57.892713 
L 434.610578 57.104787 
L 434.293275 57.117344 
L 434.293275 56.589559 
L 433.975972 56.601734 
L 433.975972 55.540268 
L 433.658669 55.551648 
L 433.658669 55.017942 
L 433.024063 55.039933 
L 433.024063 54.772021 
L 432.70676 54.782836 
L 432.70676 54.514283 
L 432.072154 54.535548 
L 432.072154 53.996298 
L 431.437548 54.01679 
L 431.437548 53.474941 
L 431.120245 53.484788 
L 431.120245 53.212988 
L 429.53373 53.261392 
L 429.53373 52.988073 
L 428.899124 53.007113 
L 428.899124 52.183159 
L 428.264518 52.200952 
L 428.264518 51.648506 
L 427.312609 51.673978 
L 427.312609 50.281498 
L 426.043397 50.311159 
L 426.043397 50.030365 
L 425.408791 50.044813 
L 425.408791 49.763092 
L 424.774185 49.777129 
L 424.774185 49.494475 
L 424.139579 49.508096 
L 424.139579 48.940434 
L 420.01464 49.023976 
L 420.01464 48.736351 
L 419.697337 48.742614 
L 419.697337 48.454259 
L 419.380034 48.460292 
L 419.380034 48.171204 
L 417.476216 48.206163 
L 417.476216 47.331524 
L 416.84161 47.34178 
L 416.84161 46.75518 
L 414.620489 46.787851 
L 414.620489 46.492029 
L 411.130156 46.541368 
L 411.130156 46.24221 
L 409.543641 46.263653 
L 409.543641 45.962664 
L 407.957126 45.982982 
L 407.957126 45.68014 
L 406.053308 45.703159 
L 406.053308 45.398173 
L 403.832187 45.423447 
L 403.832187 45.116012 
L 402.880278 45.126119 
L 402.880278 44.817306 
L 400.341854 44.842304 
L 400.341854 44.218528 
L 398.755339 44.231511 
L 398.755339 43.602609 
L 398.438036 43.604647 
L 398.438036 43.289042 
L 398.120733 43.290795 
L 398.120733 42.974319 
L 394.6304 42.990601 
L 394.6304 42.67031 
L 392.091976 42.67997 
L 392.091976 42.032783 
L 383.842098 42.049055 
L 383.842098 41.716428 
L 374.957613 41.725677 
L 374.957613 41.383159 
L 55.116184 41.383159 
L 55.116184 41.383159 
" style="fill:none;stroke:#ff8c00;stroke-linecap:round;stroke-width:2;"/>
   </g>
   <g id="line2d_31">
    <path clip-path="url(#p33b2faf7e1)" d="M 445.716184 118.25875 
L 444.727323 118.410378 
L 444.727323 113.006499 
L 443.738462 113.150901 
L 443.738462 105.780675 
L 441.760741 106.04844 
L 441.760741 105.463159 
L 440.77188 105.596938 
L 440.77188 105.008264 
L 439.783019 105.14165 
L 439.783019 103.357843 
L 438.794158 103.488867 
L 438.794158 102.888244 
L 437.805298 103.018828 
L 437.805298 101.807893 
L 435.827576 102.066671 
L 435.827576 101.455262 
L 434.838715 101.584449 
L 434.838715 98.48229 
L 433.849855 98.606689 
L 433.849855 96.071511 
L 431.872133 96.31296 
L 431.872133 95.023957 
L 429.894412 95.262892 
L 429.894412 94.611731 
L 427.91669 94.850424 
L 427.91669 92.206689 
L 425.938969 92.437705 
L 425.938969 91.766758 
L 424.950108 91.881789 
L 424.950108 89.161961 
L 423.961247 89.272305 
L 423.961247 84.380342 
L 422.972386 84.481512 
L 422.972386 83.768065 
L 421.983525 83.868266 
L 421.983525 81.703159 
L 420.994665 81.799388 
L 420.994665 78.113594 
L 419.016943 78.291897 
L 419.016943 77.540823 
L 418.028082 77.629013 
L 418.028082 76.112571 
L 416.050361 76.283652 
L 416.050361 75.516493 
L 413.083779 75.771219 
L 413.083779 72.643461 
L 412.094918 72.722202 
L 412.094918 71.131007 
L 411.106057 71.206509 
L 411.106057 69.595404 
L 410.117196 69.667558 
L 410.117196 68.853928 
L 404.184032 69.283159 
L 404.184032 68.453655 
L 403.195171 68.52452 
L 403.195171 67.688671 
L 400.228589 67.897445 
L 400.228589 67.051064 
L 396.273146 67.326323 
L 396.273146 66.46703 
L 394.295424 66.602619 
L 394.295424 65.734379 
L 388.36226 66.136878 
L 388.36226 63.463159 
L 384.406817 63.711249 
L 384.406817 61.884854 
L 381.440234 62.060082 
L 381.440234 60.198059 
L 378.473652 60.361194 
L 378.473652 57.504442 
L 377.484791 57.55158 
L 377.484791 55.613747 
L 373.529348 55.783159 
L 373.529348 54.794502 
L 369.573905 54.956573 
L 369.573905 53.950432 
L 366.607323 54.065728 
L 366.607323 53.044509 
L 359.685298 53.300401 
L 359.685298 52.251084 
L 356.718715 52.354588 
L 356.718715 51.288892 
L 354.740994 51.35239 
L 354.740994 49.18703 
L 352.763272 49.237705 
L 352.763272 48.137557 
L 349.79669 48.204212 
L 349.79669 47.086129 
L 345.841247 47.162423 
L 345.841247 46.022085 
L 341.885804 46.0852 
L 341.885804 44.921726 
L 325.075171 45.139681 
L 325.075171 43.896614 
L 273.654412 44.482711 
L 269.698969 44.539324 
L 269.698969 42.96848 
L 252.888336 43.102562 
L 252.888336 41.383159 
L 55.116184 41.383159 
L 55.116184 41.383159 
" style="fill:none;stroke:#6495ed;stroke-linecap:round;stroke-width:2;"/>
   </g>
   <g id="patch_3">
    <path d="M 55.116184 386.983159 
L 55.116184 24.103159 
" style="fill:none;stroke:#888888;stroke-linecap:square;stroke-linejoin:miter;stroke-width:1.12;"/>
   </g>
   <g id="patch_4">
    <path d="M 445.716184 386.983159 
L 445.716184 24.103159 
" style="fill:none;stroke:#888888;stroke-linecap:square;stroke-linejoin:miter;stroke-width:1.12;"/>
   </g>
   <g id="patch_5">
    <path d="M 55.116184 386.983159 
L 445.716184 386.983159 
" style="fill:none;stroke:#888888;stroke-linecap:square;stroke-linejoin:miter;stroke-width:1.12;"/>
   </g>
   <g id="patch_6">
    <path d="M 55.116184 24.103159 
L 445.716184 24.103159 
" style="fill:none;stroke:#888888;stroke-linecap:square;stroke-linejoin:miter;stroke-width:1.12;"/>
   </g>
   <g id="text_15">
    <!-- f1=0.2 -->
    <g style="fill:#bbbbbb;" transform="translate(406.656184 341.292325)scale(0.132 -0.132)">
     <defs>
      <path d="M 2182 4601 
C 2048 4652 1971 4672 1888 4672 
C 1683 4672 1459 4563 1318 4404 
L 947 3985 
C 762 3775 678 3490 678 3070 
L 678 2803 
L 237 2604 
L 237 2476 
L 678 2476 
L 678 651 
C 678 244 659 199 442 199 
L 147 199 
L 147 0 
C 787 0 787 0 947 0 
C 1107 0 1107 0 1747 0 
L 1747 199 
L 1453 199 
C 1235 199 1216 245 1216 653 
L 1216 2489 
L 2010 2489 
L 2054 2816 
L 1216 2816 
L 1216 3350 
C 1216 4073 1299 4248 1664 4248 
C 1837 4248 1952 4204 2106 4071 
L 2182 4109 
L 2182 4601 
z
" id="URWPalladioL-Roma-66" transform="scale(0.015625)"/>
      <path d="M 3552 2496 
L 326 2496 
L 326 2137 
L 3552 2137 
L 3552 2496 
z
M 3552 1255 
L 326 1255 
L 326 896 
L 3552 896 
L 3552 1255 
z
" id="URWPalladioL-Roma-3d" transform="scale(0.015625)"/>
     </defs>
     <use transform="scale(0.996264)" xlink:href="#URWPalladioL-Roma-66"/>
     <use transform="translate(33.17523 0)scale(0.996264)" xlink:href="#URWPalladioL-Roma-31"/>
     <use transform="translate(82.98843 0)scale(0.996264)" xlink:href="#URWPalladioL-Roma-3d"/>
     <use transform="translate(143.361442 0)scale(0.996264)" xlink:href="#URWPalladioL-Roma-30"/>
     <use transform="translate(193.174643 0)scale(0.996264)" xlink:href="#URWPalladioL-Roma-2e"/>
     <use transform="translate(218.081243 0)scale(0.996264)" xlink:href="#URWPalladioL-Roma-32"/>
    </g>
   </g>
   <g id="text_16">
    <!-- f1=0.4 -->
    <g style="fill:#bbbbbb;" transform="translate(406.656184 291.729366)scale(0.132 -0.132)">
     <use transform="scale(0.996264)" xlink:href="#URWPalladioL-Roma-66"/>
     <use transform="translate(33.17523 0)scale(0.996264)" xlink:href="#URWPalladioL-Roma-31"/>
     <use transform="translate(82.98843 0)scale(0.996264)" xlink:href="#URWPalladioL-Roma-3d"/>
     <use transform="translate(143.361442 0)scale(0.996264)" xlink:href="#URWPalladioL-Roma-30"/>
     <use transform="translate(193.174643 0)scale(0.996264)" xlink:href="#URWPalladioL-Roma-2e"/>
     <use transform="translate(218.081243 0)scale(0.996264)" xlink:href="#URWPalladioL-Roma-34"/>
    </g>
   </g>
   <g id="text_17">
    <!-- f1=0.6 -->
    <g style="fill:#bbbbbb;" transform="translate(406.656184 226.157277)scale(0.132 -0.132)">
     <use transform="scale(0.996264)" xlink:href="#URWPalladioL-Roma-66"/>
     <use transform="translate(33.17523 0)scale(0.996264)" xlink:href="#URWPalladioL-Roma-31"/>
     <use transform="translate(82.98843 0)scale(0.996264)" xlink:href="#URWPalladioL-Roma-3d"/>
     <use transform="translate(143.361442 0)scale(0.996264)" xlink:href="#URWPalladioL-Roma-30"/>
     <use transform="translate(193.174643 0)scale(0.996264)" xlink:href="#URWPalladioL-Roma-2e"/>
     <use transform="translate(218.081243 0)scale(0.996264)" xlink:href="#URWPalladioL-Roma-36"/>
    </g>
   </g>
   <g id="text_18">
    <!-- f1=0.8 -->
    <g style="fill:#bbbbbb;" transform="translate(406.656184 135.325499)scale(0.132 -0.132)">
     <use transform="scale(0.996264)" xlink:href="#URWPalladioL-Roma-66"/>
     <use transform="translate(33.17523 0)scale(0.996264)" xlink:href="#URWPalladioL-Roma-31"/>
     <use transform="translate(82.98843 0)scale(0.996264)" xlink:href="#URWPalladioL-Roma-3d"/>
     <use transform="translate(143.361442 0)scale(0.996264)" xlink:href="#URWPalladioL-Roma-30"/>
     <use transform="translate(193.174643 0)scale(0.996264)" xlink:href="#URWPalladioL-Roma-2e"/>
     <use transform="translate(218.081243 0)scale(0.996264)" xlink:href="#URWPalladioL-Roma-38"/>
    </g>
   </g>
   <g id="text_19">
    <!-- PR RF - E, S, S0 $|$ Train Set -->
    <g style="fill:#bbbbbb;" transform="translate(168.464173 18.103159)scale(0.144 -0.144)">
     <defs>
      <path d="M 1382 2100 
C 1562 2112 1754 2112 2042 2112 
C 2515 2112 2688 2094 2803 2040 
L 2854 1890 
L 2886 1536 
L 3078 1536 
C 3059 2132 3059 2132 3059 2247 
C 3059 2350 3059 2350 3078 2991 
L 2886 2991 
L 2854 2642 
C 2848 2581 2829 2521 2803 2467 
C 2688 2414 2509 2394 2086 2394 
C 1818 2394 1600 2394 1382 2394 
L 1382 4117 
C 1574 4160 1690 4160 2067 4160 
C 2374 4160 2733 4124 2931 4076 
C 3085 4039 3104 4008 3104 3868 
L 3104 3465 
L 3328 3465 
C 3328 3843 3360 4146 3430 4423 
C 3117 4423 2925 4423 2650 4423 
L 1965 4423 
C 1651 4423 1427 4423 1267 4423 
C 1082 4423 1082 4423 141 4423 
L 141 4224 
L 448 4224 
C 742 4224 774 4172 774 3663 
L 774 766 
C 774 256 742 205 448 205 
L 141 205 
L 141 0 
C 518 0 742 0 1075 0 
C 1408 0 1638 0 2016 0 
L 2016 205 
L 1709 205 
C 1414 205 1382 256 1382 766 
L 1382 2100 
z
" id="URWPalladioL-Roma-46" transform="scale(0.015625)"/>
      <path d="M 1805 1408 
L 1997 1837 
L 1965 1869 
L 282 1869 
L 109 1440 
L 141 1408 
L 1805 1408 
z
" id="URWPalladioL-Roma-2d" transform="scale(0.015625)"/>
      <path d="M 141 4224 
L 448 4224 
C 742 4224 774 4172 774 3665 
L 774 784 
C 774 276 749 231 448 205 
L 218 186 
L 218 0 
C 640 0 826 0 1005 0 
C 1037 0 1216 0 1459 0 
C 2349 0 2349 0 2490 0 
C 2688 0 2688 0 3558 0 
C 3558 382 3597 736 3661 1079 
L 3437 1079 
C 3424 972 3411 878 3405 852 
C 3366 564 3283 356 3194 323 
C 3059 276 2592 276 2016 276 
C 1683 276 1568 286 1382 315 
L 1382 2100 
C 1562 2112 1754 2112 2042 2112 
C 2515 2112 2688 2094 2803 2040 
L 2854 1890 
L 2886 1536 
L 3078 1536 
C 3059 2132 3059 2132 3059 2247 
C 3059 2350 3059 2350 3078 2991 
L 2886 2991 
L 2854 2642 
C 2848 2581 2829 2521 2803 2467 
C 2688 2414 2509 2394 2086 2394 
C 1818 2394 1600 2394 1382 2394 
L 1382 4117 
C 1581 4160 1690 4160 2131 4160 
C 2496 4160 2854 4130 3059 4076 
C 3213 4039 3232 4008 3232 3868 
L 3232 3465 
L 3456 3465 
C 3456 3843 3488 4146 3558 4423 
C 3245 4423 3046 4423 2765 4423 
C 2605 4423 2394 4423 2131 4423 
C 1728 4423 1453 4423 1280 4423 
C 1062 4423 774 4423 141 4423 
L 141 4224 
z
" id="URWPalladioL-Roma-45" transform="scale(0.015625)"/>
      <path d="M 1306 789 
C 1133 731 1018 693 678 596 
C 634 109 474 -308 102 -923 
L 192 -994 
L 454 -872 
C 973 -199 1216 205 1395 699 
L 1306 789 
z
" id="URWPalladioL-Roma-2c" transform="scale(0.015625)"/>
      <path d="M 2861 3371 
C 2861 3711 2886 3928 2950 4274 
C 2438 4480 2150 4544 1798 4544 
C 845 4544 154 3941 154 3102 
C 154 2788 237 2557 422 2384 
C 640 2186 934 2083 1555 2000 
C 2048 1929 2272 1859 2438 1711 
C 2605 1577 2682 1391 2682 1147 
C 2682 571 2202 154 1536 154 
C 1024 154 525 404 493 666 
L 442 1096 
L 237 1096 
C 243 980 243 878 243 840 
C 243 545 230 404 192 116 
C 557 -45 928 -128 1299 -128 
C 2413 -128 3219 545 3219 1474 
C 3219 1775 3136 1987 2957 2153 
C 2733 2364 2464 2448 1747 2544 
C 966 2646 691 2858 691 3352 
C 691 3890 1094 4274 1658 4274 
C 1907 4274 2144 4223 2317 4127 
C 2528 4018 2598 3922 2618 3737 
L 2656 3371 
L 2861 3371 
z
" id="URWPalladioL-Roma-53" transform="scale(0.015625)"/>
      <path d="M 1018 4570 
C 1018 4685 1018 4800 890 4800 
C 762 4800 762 4685 762 4570 
L 762 -1370 
C 762 -1485 762 -1600 890 -1600 
C 1018 -1600 1018 -1485 1018 -1370 
L 1018 4570 
z
" id="CMSY10-6a" transform="scale(0.015625)"/>
      <path d="M 1632 4114 
C 1651 3896 1658 3749 1658 3473 
L 1658 763 
C 1658 256 1626 205 1331 205 
L 1024 205 
L 1024 0 
C 1402 0 1626 0 1958 0 
C 2291 0 2522 0 2899 0 
L 2899 205 
L 2592 205 
C 2298 205 2266 256 2266 763 
L 2266 3473 
C 2266 3762 2272 3903 2291 4114 
L 3283 4114 
C 3462 4114 3533 4057 3539 3904 
L 3565 3400 
L 3763 3400 
C 3763 3810 3776 4056 3808 4416 
C 3347 4416 3136 4416 2957 4416 
C 2707 4416 2522 4416 2426 4416 
L 1414 4416 
C 1350 4416 1005 4416 550 4416 
L 115 4416 
C 147 4056 160 3810 160 3400 
L 358 3400 
L 384 3904 
C 390 4057 461 4114 640 4114 
L 1632 4114 
z
" id="URWPalladioL-Roma-54" transform="scale(0.015625)"/>
      <path d="M 627 2476 
L 627 619 
C 627 142 838 -64 1331 -64 
C 1478 -64 1632 -32 1670 13 
L 1978 353 
L 1894 463 
C 1734 372 1638 340 1517 340 
C 1267 340 1165 470 1165 788 
L 1165 2489 
L 1984 2489 
L 2042 2816 
L 1165 2816 
L 1165 3056 
C 1165 3321 1184 3547 1235 3951 
L 1158 4021 
C 1005 3925 813 3842 614 3778 
C 634 3585 640 3463 640 3271 
L 640 2822 
L 141 2598 
L 141 2476 
L 627 2476 
z
" id="URWPalladioL-Roma-74" transform="scale(0.015625)"/>
     </defs>
     <use transform="scale(0.996264)" xlink:href="#URWPalladioL-Roma-50"/>
     <use transform="translate(60.173595 0)scale(0.996264)" xlink:href="#URWPalladioL-Roma-52"/>
     <use transform="translate(151.62989 0)scale(0.996264)" xlink:href="#URWPalladioL-Roma-52"/>
     <use transform="translate(218.179584 0)scale(0.996264)" xlink:href="#URWPalladioL-Roma-46"/>
     <use transform="translate(298.477861 0)scale(0.996264)" xlink:href="#URWPalladioL-Roma-2d"/>
     <use transform="translate(356.559691 0)scale(0.996264)" xlink:href="#URWPalladioL-Roma-45"/>
     <use transform="translate(417.431321 0)scale(0.996264)" xlink:href="#URWPalladioL-Roma-2c"/>
     <use transform="translate(467.244522 0)scale(0.996264)" xlink:href="#URWPalladioL-Roma-53"/>
     <use transform="translate(519.548337 0)scale(0.996264)" xlink:href="#URWPalladioL-Roma-2c"/>
     <use transform="translate(569.361537 0)scale(0.996264)" xlink:href="#URWPalladioL-Roma-53"/>
     <use transform="translate(621.665352 0)scale(0.996264)" xlink:href="#URWPalladioL-Roma-30"/>
     <use transform="translate(697.630453 0)scale(1.038107)" xlink:href="#CMSY10-6a"/>
     <use transform="translate(752.574452 0)scale(0.996264)" xlink:href="#URWPalladioL-Roma-54"/>
     <use transform="translate(804.678926 0)scale(0.996264)" xlink:href="#URWPalladioL-Roma-72"/>
     <use transform="translate(844.030823 0)scale(0.996264)" xlink:href="#URWPalladioL-Roma-61"/>
     <use transform="translate(893.844023 0)scale(0.996264)" xlink:href="#URWPalladioL-Roma-69"/>
     <use transform="translate(922.834384 0)scale(0.996264)" xlink:href="#URWPalladioL-Roma-6e"/>
     <use transform="translate(1005.723045 0)scale(0.996264)" xlink:href="#URWPalladioL-Roma-53"/>
     <use transform="translate(1058.02686 0)scale(0.996264)" xlink:href="#URWPalladioL-Roma-65"/>
     <use transform="translate(1105.747155 0)scale(0.996264)" xlink:href="#URWPalladioL-Roma-74"/>
    </g>
   </g>
   <g id="legend_1">
    <g id="patch_7">
     <path d="M 108.294184 543.021559 
L 247.846388 543.021559 
Q 250.246388 543.021559 250.246388 540.621559 
L 250.246388 470.12092 
Q 250.246388 467.72092 247.846388 467.72092 
L 108.294184 467.72092 
Q 105.894184 467.72092 105.894184 470.12092 
L 105.894184 540.621559 
Q 105.894184 543.021559 108.294184 543.021559 
z
" style="fill:#800080;opacity:0.2;stroke:#cccccc;stroke-linejoin:miter;stroke-width:0.16;"/>
    </g>
    <g id="line2d_32">
     <path d="M 110.694184 476.874796 
L 134.694184 476.874796 
" style="fill:none;stroke:#808080;stroke-linecap:round;stroke-opacity:0.2;stroke-width:1.2;"/>
    </g>
    <g id="line2d_33"/>
    <g id="text_20">
     <!-- iso-f1 curves -->
     <g style="fill:#bbbbbb;" transform="translate(144.294184 481.074796)scale(0.12 -0.12)">
      <defs>
       <path d="M 3219 3009 
L 3162 3035 
C 2835 2900 2502 2810 2163 2772 
L 2163 2592 
L 2400 2592 
C 2656 2592 2682 2547 2682 2121 
L 2682 1070 
C 2682 928 2592 747 2445 599 
C 2266 418 2061 327 1811 327 
C 1587 327 1408 398 1306 521 
C 1216 624 1171 824 1171 1107 
L 1171 3009 
L 1114 3035 
C 787 2900 454 2810 115 2772 
L 115 2592 
L 352 2592 
C 608 2592 634 2547 634 2122 
L 634 1039 
C 634 587 672 387 787 227 
C 928 33 1171 -64 1536 -64 
C 1824 -64 2080 26 2253 186 
L 2682 585 
C 2682 401 2675 298 2656 0 
C 3085 0 3091 0 3187 0 
C 3277 0 3277 0 3718 0 
L 3718 186 
L 3456 212 
C 3238 212 3219 251 3219 664 
L 3219 3009 
z
" id="URWPalladioL-Roma-75" transform="scale(0.015625)"/>
       <path d="M 3450 2752 
L 3450 2932 
C 3066 2932 2950 2932 2848 2932 
C 2746 2932 2630 2932 2246 2932 
L 2246 2752 
L 2509 2752 
C 2611 2752 2662 2694 2662 2591 
C 2662 2489 2618 2317 2541 2124 
L 2272 1445 
C 2195 1259 2118 1080 1875 549 
L 1114 2393 
C 1075 2482 1056 2566 1056 2636 
C 1056 2707 1114 2752 1216 2752 
L 1530 2752 
L 1530 2932 
C 902 2932 902 2932 781 2932 
C 659 2932 352 2932 38 2932 
L 38 2752 
L 256 2752 
C 352 2739 384 2701 454 2541 
L 1555 -32 
L 1875 -32 
C 1914 77 1978 243 1978 256 
C 2048 447 2131 664 2138 664 
L 2893 2324 
C 3034 2625 3123 2739 3251 2752 
L 3450 2752 
z
" id="URWPalladioL-Roma-76" transform="scale(0.015625)"/>
      </defs>
      <use transform="scale(0.996264)" xlink:href="#URWPalladioL-Roma-69"/>
      <use transform="translate(28.990361 0)scale(0.996264)" xlink:href="#URWPalladioL-Roma-73"/>
      <use transform="translate(71.231828 0)scale(0.996264)" xlink:href="#URWPalladioL-Roma-6f"/>
      <use transform="translate(125.627408 0)scale(0.996264)" xlink:href="#URWPalladioL-Roma-2d"/>
      <use transform="translate(158.802638 0)scale(0.996264)" xlink:href="#URWPalladioL-Roma-66"/>
      <use transform="translate(191.977867 0)scale(0.996264)" xlink:href="#URWPalladioL-Roma-31"/>
      <use transform="translate(266.697668 0)scale(0.996264)" xlink:href="#URWPalladioL-Roma-63"/>
      <use transform="translate(310.931237 0)scale(0.996264)" xlink:href="#URWPalladioL-Roma-75"/>
      <use transform="translate(371.004972 0)scale(0.996264)" xlink:href="#URWPalladioL-Roma-72"/>
      <use transform="translate(410.356868 0)scale(0.996264)" xlink:href="#URWPalladioL-Roma-76"/>
      <use transform="translate(466.644781 0)scale(0.996264)" xlink:href="#URWPalladioL-Roma-65"/>
      <use transform="translate(514.365076 0)scale(0.996264)" xlink:href="#URWPalladioL-Roma-73"/>
     </g>
    </g>
    <g id="line2d_34">
     <path d="M 110.694184 494.799955 
L 134.694184 494.799955 
" style="fill:none;stroke:#00ffff;stroke-linecap:round;stroke-width:2;"/>
    </g>
    <g id="line2d_35"/>
    <g id="text_21">
     <!-- class 0 (area = 0.99) -->
     <g style="fill:#bbbbbb;" transform="translate(144.294184 498.999955)scale(0.12 -0.12)">
      <defs>
       <path d="M 1926 -1244 
C 1466 -673 1299 -366 1133 212 
C 998 673 934 1161 934 1706 
C 934 2238 998 2693 1120 3110 
C 1286 3642 1459 3944 1926 4489 
L 1805 4656 
C 1139 4059 877 3707 634 3078 
C 467 2648 384 2193 384 1706 
C 384 1020 544 372 851 -205 
C 1075 -635 1280 -885 1805 -1379 
L 1926 -1244 
z
" id="URWPalladioL-Roma-28" transform="scale(0.015625)"/>
       <path d="M 614 -106 
C 1325 125 1632 272 1978 566 
C 2598 1098 2925 1835 2925 2693 
C 2925 3776 2406 4435 1562 4435 
C 742 4435 128 3795 128 2938 
C 128 2201 608 1664 1274 1664 
C 1491 1664 1741 1734 1856 1830 
L 2304 2202 
C 2253 1125 1555 336 397 54 
L 397 3 
L 614 -106 
z
M 1536 4224 
C 1824 4224 2035 4102 2176 3846 
C 2291 3641 2368 3328 2368 3040 
C 2368 2451 2029 2055 1536 2055 
C 1024 2055 678 2509 678 3174 
C 678 3821 1011 4224 1536 4224 
z
" id="URWPalladioL-Roma-39" transform="scale(0.015625)"/>
       <path d="M 326 -1379 
C 768 -962 954 -750 1152 -436 
C 1542 186 1747 930 1747 1699 
C 1747 2193 1664 2648 1498 3078 
C 1254 3700 992 4053 326 4656 
L 205 4489 
C 672 3937 845 3636 1005 3110 
C 1133 2693 1197 2238 1197 1706 
C 1197 1161 1133 673 998 212 
C 832 -366 666 -673 205 -1244 
L 326 -1379 
z
" id="URWPalladioL-Roma-29" transform="scale(0.015625)"/>
      </defs>
      <use transform="scale(0.996264)" xlink:href="#URWPalladioL-Roma-63"/>
      <use transform="translate(44.233569 0)scale(0.996264)" xlink:href="#URWPalladioL-Roma-6c"/>
      <use transform="translate(73.22393 0)scale(0.996264)" xlink:href="#URWPalladioL-Roma-61"/>
      <use transform="translate(123.037131 0)scale(0.996264)" xlink:href="#URWPalladioL-Roma-73"/>
      <use transform="translate(165.278597 0)scale(0.996264)" xlink:href="#URWPalladioL-Roma-73"/>
      <use transform="translate(232.426664 0)scale(0.996264)" xlink:href="#URWPalladioL-Roma-30"/>
      <use transform="translate(307.146464 0)scale(0.996264)" xlink:href="#URWPalladioL-Roma-28"/>
      <use transform="translate(340.321694 0)scale(0.996264)" xlink:href="#URWPalladioL-Roma-61"/>
      <use transform="translate(390.134895 0)scale(0.996264)" xlink:href="#URWPalladioL-Roma-72"/>
      <use transform="translate(427.694212 0)scale(0.996264)" xlink:href="#URWPalladioL-Roma-65"/>
      <use transform="translate(475.414507 0)scale(0.996264)" xlink:href="#URWPalladioL-Roma-61"/>
      <use transform="translate(550.134308 0)scale(0.996264)" xlink:href="#URWPalladioL-Roma-3d"/>
      <use transform="translate(635.41392 0)scale(0.996264)" xlink:href="#URWPalladioL-Roma-30"/>
      <use transform="translate(685.227121 0)scale(0.996264)" xlink:href="#URWPalladioL-Roma-2e"/>
      <use transform="translate(710.133721 0)scale(0.996264)" xlink:href="#URWPalladioL-Roma-39"/>
      <use transform="translate(759.946921 0)scale(0.996264)" xlink:href="#URWPalladioL-Roma-39"/>
      <use transform="translate(809.760122 0)scale(0.996264)" xlink:href="#URWPalladioL-Roma-29"/>
     </g>
    </g>
    <g id="line2d_36">
     <path d="M 110.694184 512.725115 
L 134.694184 512.725115 
" style="fill:none;stroke:#ff8c00;stroke-linecap:round;stroke-width:2;"/>
    </g>
    <g id="line2d_37"/>
    <g id="text_22">
     <!-- class 1 (area = 1.00) -->
     <g style="fill:#bbbbbb;" transform="translate(144.294184 516.925115)scale(0.12 -0.12)">
      <use transform="scale(0.996264)" xlink:href="#URWPalladioL-Roma-63"/>
      <use transform="translate(44.233569 0)scale(0.996264)" xlink:href="#URWPalladioL-Roma-6c"/>
      <use transform="translate(73.22393 0)scale(0.996264)" xlink:href="#URWPalladioL-Roma-61"/>
      <use transform="translate(123.037131 0)scale(0.996264)" xlink:href="#URWPalladioL-Roma-73"/>
      <use transform="translate(165.278597 0)scale(0.996264)" xlink:href="#URWPalladioL-Roma-73"/>
      <use transform="translate(232.426664 0)scale(0.996264)" xlink:href="#URWPalladioL-Roma-31"/>
      <use transform="translate(307.146464 0)scale(0.996264)" xlink:href="#URWPalladioL-Roma-28"/>
      <use transform="translate(340.321694 0)scale(0.996264)" xlink:href="#URWPalladioL-Roma-61"/>
      <use transform="translate(390.134895 0)scale(0.996264)" xlink:href="#URWPalladioL-Roma-72"/>
      <use transform="translate(427.694212 0)scale(0.996264)" xlink:href="#URWPalladioL-Roma-65"/>
      <use transform="translate(475.414507 0)scale(0.996264)" xlink:href="#URWPalladioL-Roma-61"/>
      <use transform="translate(550.134308 0)scale(0.996264)" xlink:href="#URWPalladioL-Roma-3d"/>
      <use transform="translate(635.41392 0)scale(0.996264)" xlink:href="#URWPalladioL-Roma-31"/>
      <use transform="translate(685.227121 0)scale(0.996264)" xlink:href="#URWPalladioL-Roma-2e"/>
      <use transform="translate(710.133721 0)scale(0.996264)" xlink:href="#URWPalladioL-Roma-30"/>
      <use transform="translate(759.946921 0)scale(0.996264)" xlink:href="#URWPalladioL-Roma-30"/>
      <use transform="translate(809.760122 0)scale(0.996264)" xlink:href="#URWPalladioL-Roma-29"/>
     </g>
    </g>
    <g id="line2d_38">
     <path d="M 110.694184 530.650275 
L 134.694184 530.650275 
" style="fill:none;stroke:#6495ed;stroke-linecap:round;stroke-width:2;"/>
    </g>
    <g id="line2d_39"/>
    <g id="text_23">
     <!-- class 2 (area = 0.98) -->
     <g style="fill:#bbbbbb;" transform="translate(144.294184 534.850275)scale(0.12 -0.12)">
      <use transform="scale(0.996264)" xlink:href="#URWPalladioL-Roma-63"/>
      <use transform="translate(44.233569 0)scale(0.996264)" xlink:href="#URWPalladioL-Roma-6c"/>
      <use transform="translate(73.22393 0)scale(0.996264)" xlink:href="#URWPalladioL-Roma-61"/>
      <use transform="translate(123.037131 0)scale(0.996264)" xlink:href="#URWPalladioL-Roma-73"/>
      <use transform="translate(165.278597 0)scale(0.996264)" xlink:href="#URWPalladioL-Roma-73"/>
      <use transform="translate(232.426664 0)scale(0.996264)" xlink:href="#URWPalladioL-Roma-32"/>
      <use transform="translate(307.146464 0)scale(0.996264)" xlink:href="#URWPalladioL-Roma-28"/>
      <use transform="translate(340.321694 0)scale(0.996264)" xlink:href="#URWPalladioL-Roma-61"/>
      <use transform="translate(390.134895 0)scale(0.996264)" xlink:href="#URWPalladioL-Roma-72"/>
      <use transform="translate(427.694212 0)scale(0.996264)" xlink:href="#URWPalladioL-Roma-65"/>
      <use transform="translate(475.414507 0)scale(0.996264)" xlink:href="#URWPalladioL-Roma-61"/>
      <use transform="translate(550.134308 0)scale(0.996264)" xlink:href="#URWPalladioL-Roma-3d"/>
      <use transform="translate(635.41392 0)scale(0.996264)" xlink:href="#URWPalladioL-Roma-30"/>
      <use transform="translate(685.227121 0)scale(0.996264)" xlink:href="#URWPalladioL-Roma-2e"/>
      <use transform="translate(710.133721 0)scale(0.996264)" xlink:href="#URWPalladioL-Roma-39"/>
      <use transform="translate(759.946921 0)scale(0.996264)" xlink:href="#URWPalladioL-Roma-38"/>
      <use transform="translate(809.760122 0)scale(0.996264)" xlink:href="#URWPalladioL-Roma-29"/>
     </g>
    </g>
   </g>
  </g>
 </g>
 <defs>
  <clipPath id="p33b2faf7e1">
   <rect height="362.88" width="390.6" x="55.116184" y="24.103159"/>
  </clipPath>
 </defs>
</svg>
