<?xml version="1.0" encoding="utf-8" standalone="no"?>
<!DOCTYPE svg PUBLIC "-//W3C//DTD SVG 1.1//EN"
  "http://www.w3.org/Graphics/SVG/1.1/DTD/svg11.dtd">
<svg height="394.388834pt" version="1.1" viewBox="0 0 563.975167 394.388834" width="563.975167pt" xmlns="http://www.w3.org/2000/svg" xmlns:xlink="http://www.w3.org/1999/xlink">
 <metadata>
  <rdf:RDF xmlns:cc="http://creativecommons.org/ns#" xmlns:dc="http://purl.org/dc/elements/1.1/" xmlns:rdf="http://www.w3.org/1999/02/22-rdf-syntax-ns#">
   <cc:Work>
    <dc:type rdf:resource="http://purl.org/dc/dcmitype/StillImage"/>
    <dc:date>2021-04-14T23:33:04.352099</dc:date>
    <dc:format>image/svg+xml</dc:format>
    <dc:creator>
     <cc:Agent>
      <dc:title>Matplotlib v3.4.1, https://matplotlib.org/</dc:title>
     </cc:Agent>
    </dc:creator>
   </cc:Work>
  </rdf:RDF>
 </metadata>
 <defs>
  <style type="text/css">*{stroke-linecap:butt;stroke-linejoin:round;}</style>
 </defs>
 <g id="figure_1">
  <g id="patch_1">
   <path d="M 0 394.388834 
L 563.975167 394.388834 
L 563.975167 0 
L 0 0 
z
" style="fill:#232323;"/>
  </g>
  <g id="axes_1">
   <g id="patch_2">
    <path d="M 46.356005 351.353477 
L 548.556005 351.353477 
L 548.556005 25.193477 
L 46.356005 25.193477 
z
" style="fill:#232323;"/>
   </g>
   <g id="matplotlib.axis_1">
    <g id="xtick_1">
     <g id="line2d_1">
      <path clip-path="url(#pb70d095705)" d="M 46.356005 351.353477 
L 46.356005 25.193477 
" style="fill:none;stroke:#303030;stroke-dasharray:4.144,1.792;stroke-dashoffset:0;stroke-opacity:0.5;stroke-width:1.12;"/>
     </g>
     <g id="line2d_2">
      <defs>
       <path d="M 0 0 
L 0 -6 
" id="ma1ded69ad6" style="stroke:#bbbbbb;stroke-width:0.8;"/>
      </defs>
      <g>
       <use style="fill:#bbbbbb;stroke:#bbbbbb;stroke-width:0.8;" x="46.356005" xlink:href="#ma1ded69ad6" y="351.353477"/>
      </g>
     </g>
     <g id="text_1">
      <!-- $\mathdefault{0.0}$ -->
      <g style="fill:#bbbbbb;" transform="translate(38.136842 366.362741)scale(0.132 -0.132)">
       <defs>
        <path d="M 1683 4416 
C 691 4416 186 3628 186 2077 
C 186 1326 320 680 544 366 
C 768 51 1126 -128 1523 -128 
C 2490 -128 2976 705 2976 2346 
C 2976 3749 2560 4416 1683 4416 
z
M 1568 4192 
C 2189 4192 2438 3564 2438 2025 
C 2438 661 2195 96 1606 96 
C 986 96 723 744 723 2308 
C 723 3660 960 4192 1568 4192 
z
" id="URWPalladioL-Roma-30" transform="scale(0.015625)"/>
        <path d="M 794 744 
C 602 744 429 564 429 372 
C 429 179 602 0 787 0 
C 992 0 1171 173 1171 372 
C 1171 564 992 744 794 744 
z
" id="URWPalladioL-Roma-2e" transform="scale(0.015625)"/>
       </defs>
       <use transform="scale(0.996264)" xlink:href="#URWPalladioL-Roma-30"/>
       <use transform="translate(49.8132 0)scale(0.996264)" xlink:href="#URWPalladioL-Roma-2e"/>
       <use transform="translate(74.719801 0)scale(0.996264)" xlink:href="#URWPalladioL-Roma-30"/>
      </g>
     </g>
    </g>
    <g id="xtick_2">
     <g id="line2d_3">
      <path clip-path="url(#pb70d095705)" d="M 146.796005 351.353477 
L 146.796005 25.193477 
" style="fill:none;stroke:#303030;stroke-dasharray:4.144,1.792;stroke-dashoffset:0;stroke-opacity:0.5;stroke-width:1.12;"/>
     </g>
     <g id="line2d_4">
      <g>
       <use style="fill:#bbbbbb;stroke:#bbbbbb;stroke-width:0.8;" x="146.796005" xlink:href="#ma1ded69ad6" y="351.353477"/>
      </g>
     </g>
     <g id="text_2">
      <!-- $\mathdefault{0.2}$ -->
      <g style="fill:#bbbbbb;" transform="translate(138.576842 366.362741)scale(0.132 -0.132)">
       <defs>
        <path d="M 102 160 
L 102 0 
C 1299 0 1299 0 1530 0 
C 1760 0 1760 0 2995 0 
C 2982 125 2982 186 2982 269 
C 2982 348 2982 407 2995 539 
C 2259 539 1965 539 781 539 
L 1946 1761 
C 2566 2414 2758 2763 2758 3238 
C 2758 3966 2259 4416 1446 4416 
C 986 4416 672 4288 358 3969 
L 250 3099 
L 435 3099 
L 518 3393 
C 621 3763 851 3923 1280 3923 
C 1830 3923 2182 3577 2182 3035 
C 2182 2555 1914 2083 1190 1316 
L 102 160 
z
" id="URWPalladioL-Roma-32" transform="scale(0.015625)"/>
       </defs>
       <use transform="scale(0.996264)" xlink:href="#URWPalladioL-Roma-30"/>
       <use transform="translate(49.8132 0)scale(0.996264)" xlink:href="#URWPalladioL-Roma-2e"/>
       <use transform="translate(74.719801 0)scale(0.996264)" xlink:href="#URWPalladioL-Roma-32"/>
      </g>
     </g>
    </g>
    <g id="xtick_3">
     <g id="line2d_5">
      <path clip-path="url(#pb70d095705)" d="M 247.236005 351.353477 
L 247.236005 25.193477 
" style="fill:none;stroke:#303030;stroke-dasharray:4.144,1.792;stroke-dashoffset:0;stroke-opacity:0.5;stroke-width:1.12;"/>
     </g>
     <g id="line2d_6">
      <g>
       <use style="fill:#bbbbbb;stroke:#bbbbbb;stroke-width:0.8;" x="247.236005" xlink:href="#ma1ded69ad6" y="351.353477"/>
      </g>
     </g>
     <g id="text_3">
      <!-- $\mathdefault{0.4}$ -->
      <g style="fill:#bbbbbb;" transform="translate(239.016842 366.362741)scale(0.132 -0.132)">
       <defs>
        <path d="M 1792 1152 
L 1792 673 
C 1792 289 1722 199 1408 199 
L 1011 199 
L 1011 0 
C 1862 0 1862 0 2016 0 
C 2170 0 2170 0 3021 0 
L 3021 199 
L 2714 199 
C 2400 199 2330 282 2330 669 
L 2330 1152 
C 2707 1152 2842 1152 3021 1133 
L 3021 1588 
C 2720 1563 2598 1563 2502 1563 
L 2483 1563 
L 2330 1563 
L 2330 2457 
C 2330 3600 2342 4152 2374 4416 
L 2298 4448 
L 1824 4275 
L 13 1299 
L 83 1152 
L 1792 1152 
z
M 1792 1563 
L 416 1563 
L 1792 3826 
L 1792 1563 
z
" id="URWPalladioL-Roma-34" transform="scale(0.015625)"/>
       </defs>
       <use transform="scale(0.996264)" xlink:href="#URWPalladioL-Roma-30"/>
       <use transform="translate(49.8132 0)scale(0.996264)" xlink:href="#URWPalladioL-Roma-2e"/>
       <use transform="translate(74.719801 0)scale(0.996264)" xlink:href="#URWPalladioL-Roma-34"/>
      </g>
     </g>
    </g>
    <g id="xtick_4">
     <g id="line2d_7">
      <path clip-path="url(#pb70d095705)" d="M 347.676005 351.353477 
L 347.676005 25.193477 
" style="fill:none;stroke:#303030;stroke-dasharray:4.144,1.792;stroke-dashoffset:0;stroke-opacity:0.5;stroke-width:1.12;"/>
     </g>
     <g id="line2d_8">
      <g>
       <use style="fill:#bbbbbb;stroke:#bbbbbb;stroke-width:0.8;" x="347.676005" xlink:href="#ma1ded69ad6" y="351.353477"/>
      </g>
     </g>
     <g id="text_4">
      <!-- $\mathdefault{0.6}$ -->
      <g style="fill:#bbbbbb;" transform="translate(339.456842 366.362741)scale(0.132 -0.132)">
       <defs>
        <path d="M 2662 4310 
L 2426 4419 
C 1811 4214 1549 4086 1222 3804 
C 563 3246 205 2464 205 1585 
C 205 526 717 -128 1542 -128 
C 2374 -128 2995 532 2995 1405 
C 2995 2143 2554 2624 1875 2624 
C 1555 2624 1363 2540 986 2239 
C 915 2181 909 2175 838 2124 
C 973 3284 1510 3913 2662 4259 
L 2662 4310 
z
M 1632 2239 
C 2118 2239 2445 1816 2445 1181 
C 2445 513 2118 83 1626 83 
C 1082 83 787 551 787 1412 
C 787 1636 813 1758 883 1867 
C 1024 2085 1325 2239 1632 2239 
z
" id="URWPalladioL-Roma-36" transform="scale(0.015625)"/>
       </defs>
       <use transform="scale(0.996264)" xlink:href="#URWPalladioL-Roma-30"/>
       <use transform="translate(49.8132 0)scale(0.996264)" xlink:href="#URWPalladioL-Roma-2e"/>
       <use transform="translate(74.719801 0)scale(0.996264)" xlink:href="#URWPalladioL-Roma-36"/>
      </g>
     </g>
    </g>
    <g id="xtick_5">
     <g id="line2d_9">
      <path clip-path="url(#pb70d095705)" d="M 448.116005 351.353477 
L 448.116005 25.193477 
" style="fill:none;stroke:#303030;stroke-dasharray:4.144,1.792;stroke-dashoffset:0;stroke-opacity:0.5;stroke-width:1.12;"/>
     </g>
     <g id="line2d_10">
      <g>
       <use style="fill:#bbbbbb;stroke:#bbbbbb;stroke-width:0.8;" x="448.116005" xlink:href="#ma1ded69ad6" y="351.353477"/>
      </g>
     </g>
     <g id="text_5">
      <!-- $\mathdefault{0.8}$ -->
      <g style="fill:#bbbbbb;" transform="translate(439.896842 366.362741)scale(0.132 -0.132)">
       <defs>
        <path d="M 1075 2211 
C 813 2090 704 2019 563 1884 
C 320 1641 192 1352 192 1019 
C 192 359 723 -128 1446 -128 
C 2278 -128 2970 526 2970 1320 
C 2970 1833 2733 2109 2003 2442 
C 2586 2840 2790 3109 2790 3493 
C 2790 4044 2336 4416 1658 4416 
C 896 4416 339 3929 339 3257 
C 339 2821 512 2577 1075 2211 
z
M 1818 1891 
C 2221 1711 2464 1397 2464 1052 
C 2464 513 2061 90 1542 90 
C 998 90 646 475 646 1071 
C 646 1538 832 1833 1306 2122 
L 1818 1891 
z
M 1427 2712 
C 1024 2910 819 3167 819 3487 
C 819 3910 1126 4198 1581 4198 
C 2048 4198 2355 3891 2355 3422 
C 2355 3058 2195 2808 1779 2538 
L 1427 2712 
z
" id="URWPalladioL-Roma-38" transform="scale(0.015625)"/>
       </defs>
       <use transform="scale(0.996264)" xlink:href="#URWPalladioL-Roma-30"/>
       <use transform="translate(49.8132 0)scale(0.996264)" xlink:href="#URWPalladioL-Roma-2e"/>
       <use transform="translate(74.719801 0)scale(0.996264)" xlink:href="#URWPalladioL-Roma-38"/>
      </g>
     </g>
    </g>
    <g id="xtick_6">
     <g id="line2d_11">
      <path clip-path="url(#pb70d095705)" d="M 548.556005 351.353477 
L 548.556005 25.193477 
" style="fill:none;stroke:#303030;stroke-dasharray:4.144,1.792;stroke-dashoffset:0;stroke-opacity:0.5;stroke-width:1.12;"/>
     </g>
     <g id="line2d_12">
      <g>
       <use style="fill:#bbbbbb;stroke:#bbbbbb;stroke-width:0.8;" x="548.556005" xlink:href="#ma1ded69ad6" y="351.353477"/>
      </g>
     </g>
     <g id="text_6">
      <!-- $\mathdefault{1.0}$ -->
      <g style="fill:#bbbbbb;" transform="translate(540.336842 366.362741)scale(0.132 -0.132)">
       <defs>
        <path d="M 429 3584 
L 493 3584 
L 1318 3956 
C 1325 3962 1331 3962 1338 3962 
C 1376 3962 1389 3905 1389 3751 
L 1389 613 
C 1389 276 1318 205 973 205 
L 614 205 
L 614 0 
C 1600 0 1600 0 1670 0 
C 1754 0 1894 0 2112 0 
C 2189 0 2413 0 2675 0 
L 2675 205 
L 2342 205 
C 1990 205 1926 276 1926 612 
L 1926 4443 
L 1837 4475 
C 1421 4257 966 4065 384 3860 
L 429 3584 
z
" id="URWPalladioL-Roma-31" transform="scale(0.015625)"/>
       </defs>
       <use transform="scale(0.996264)" xlink:href="#URWPalladioL-Roma-31"/>
       <use transform="translate(49.8132 0)scale(0.996264)" xlink:href="#URWPalladioL-Roma-2e"/>
       <use transform="translate(74.719801 0)scale(0.996264)" xlink:href="#URWPalladioL-Roma-30"/>
      </g>
     </g>
    </g>
    <g id="text_7">
     <!-- False Positive Rate -->
     <g style="fill:#bbbbbb;" transform="translate(243.216836 383.48042)scale(0.132 -0.132)">
      <defs>
       <path d="M 1382 2100 
C 1562 2112 1754 2112 2042 2112 
C 2515 2112 2688 2094 2803 2040 
L 2854 1890 
L 2886 1536 
L 3078 1536 
C 3059 2132 3059 2132 3059 2247 
C 3059 2350 3059 2350 3078 2991 
L 2886 2991 
L 2854 2642 
C 2848 2581 2829 2521 2803 2467 
C 2688 2414 2509 2394 2086 2394 
C 1818 2394 1600 2394 1382 2394 
L 1382 4117 
C 1574 4160 1690 4160 2067 4160 
C 2374 4160 2733 4124 2931 4076 
C 3085 4039 3104 4008 3104 3868 
L 3104 3465 
L 3328 3465 
C 3328 3843 3360 4146 3430 4423 
C 3117 4423 2925 4423 2650 4423 
L 1965 4423 
C 1651 4423 1427 4423 1267 4423 
C 1082 4423 1082 4423 141 4423 
L 141 4224 
L 448 4224 
C 742 4224 774 4172 774 3663 
L 774 766 
C 774 256 742 205 448 205 
L 141 205 
L 141 0 
C 518 0 742 0 1075 0 
C 1408 0 1638 0 2016 0 
L 2016 205 
L 1709 205 
C 1414 205 1382 256 1382 766 
L 1382 2100 
z
" id="URWPalladioL-Roma-46" transform="scale(0.015625)"/>
       <path d="M 2074 538 
L 2042 -1 
C 2458 -1 2458 -1 2541 -1 
C 2573 -1 2733 -1 3014 -1 
L 3014 192 
L 2765 192 
C 2611 192 2586 244 2586 558 
L 2586 1731 
C 2586 2668 2317 3008 1574 3008 
C 1299 3008 1043 2937 800 2791 
L 461 2585 
L 461 2171 
L 627 2126 
L 710 2323 
C 845 2623 909 2668 1203 2668 
C 1805 2668 2054 2431 2074 1852 
L 1440 1736 
C 570 1577 205 1277 205 722 
C 205 224 506 -64 1011 -64 
C 1126 -64 1235 -45 1280 -13 
L 2074 538 
z
M 2074 806 
C 1888 544 1485 302 1235 302 
C 979 302 755 538 755 812 
C 755 1048 883 1271 1075 1392 
C 1235 1488 1587 1577 2074 1648 
L 2074 806 
z
" id="URWPalladioL-Roma-61" transform="scale(0.015625)"/>
       <path d="M 147 4256 
L 506 4256 
C 621 4256 666 4185 666 3992 
L 666 651 
C 666 244 646 199 429 199 
L 134 199 
L 134 0 
C 774 0 774 0 934 0 
C 1094 0 1094 0 1734 0 
L 1734 199 
L 1440 199 
C 1222 199 1203 244 1203 650 
L 1203 4621 
L 1146 4673 
C 864 4564 653 4512 147 4435 
L 147 4256 
z
" id="URWPalladioL-Roma-6c" transform="scale(0.015625)"/>
       <path d="M 262 917 
C 262 475 243 282 192 26 
C 525 -83 774 -128 1069 -128 
C 1907 -128 2502 321 2502 949 
C 2502 1148 2445 1295 2323 1424 
C 2157 1584 1946 1661 1382 1770 
C 858 1873 685 2001 685 2296 
C 685 2616 909 2796 1299 2796 
C 1728 2796 2054 2572 2054 2270 
L 2054 2123 
L 2234 2123 
C 2240 2495 2246 2648 2266 2847 
C 1926 2963 1696 3008 1434 3008 
C 691 3008 237 2655 237 2078 
C 237 1770 378 1552 672 1417 
C 845 1340 1184 1238 1619 1141 
C 1907 1077 2029 943 2029 699 
C 2029 353 1709 109 1254 109 
C 787 109 454 333 454 654 
L 454 917 
L 262 917 
z
" id="URWPalladioL-Roma-73" transform="scale(0.015625)"/>
       <path d="M 2797 447 
L 2714 511 
C 2304 269 2157 212 1882 212 
C 1466 212 1120 398 941 711 
C 819 921 774 1101 762 1472 
L 1696 1472 
C 2138 1472 2413 1472 2854 1544 
C 2861 1634 2867 1693 2867 1771 
C 2867 2520 2394 3008 1677 3008 
C 1440 3008 1165 2924 902 2770 
C 378 2469 166 2071 166 1404 
C 166 1000 262 654 435 410 
C 691 71 1120 -128 1600 -128 
C 1837 -128 2074 -77 2336 37 
C 2509 108 2643 191 2669 230 
L 2797 447 
z
M 2298 1690 
C 1965 1690 1811 1690 1581 1690 
C 1286 1690 1120 1690 774 1722 
C 774 2027 800 2169 883 2337 
C 1018 2622 1293 2796 1600 2796 
C 1811 2796 1978 2711 2093 2534 
C 2234 2319 2278 2129 2298 1690 
z
" id="URWPalladioL-Roma-65" transform="scale(0.015625)"/>
       <path d="M 1382 4116 
C 1606 4166 1792 4192 2010 4192 
C 2701 4192 3072 3875 3072 3273 
C 3072 2703 2682 2304 2125 2304 
C 1990 2304 1894 2317 1728 2367 
L 1792 2137 
C 1946 2105 2035 2099 2163 2099 
C 3040 2099 3712 2692 3712 3459 
C 3712 4071 3213 4448 2400 4448 
C 2368 4448 2304 4448 2221 4423 
C 1984 4423 1498 4423 1312 4423 
C 1171 4423 1171 4423 147 4423 
L 147 4224 
L 435 4224 
C 723 4224 774 4140 774 3663 
L 774 766 
C 774 256 742 205 448 205 
L 141 205 
L 141 0 
C 518 0 742 0 1075 0 
C 1408 0 1638 0 2016 0 
L 2016 205 
L 1709 205 
C 1414 205 1382 256 1382 764 
L 1382 4116 
z
" id="URWPalladioL-Roma-50" transform="scale(0.015625)"/>
       <path d="M 1786 3008 
C 851 3008 205 2347 205 1392 
C 205 487 774 -128 1600 -128 
C 2586 -128 3290 558 3290 1520 
C 3290 2386 2662 3008 1786 3008 
z
M 1670 2796 
C 2259 2796 2694 2155 2694 1283 
C 2694 545 2368 83 1850 83 
C 1222 83 800 699 800 1610 
C 800 2379 1107 2796 1670 2796 
z
" id="URWPalladioL-Roma-6f" transform="scale(0.015625)"/>
       <path d="M 1203 2993 
L 1146 3019 
C 819 2884 486 2793 147 2755 
L 147 2576 
L 384 2576 
C 640 2576 666 2531 666 2105 
L 666 651 
C 666 244 646 199 429 199 
L 134 199 
L 134 0 
C 774 0 774 0 934 0 
C 1094 0 1094 0 1734 0 
L 1734 199 
L 1440 199 
C 1222 199 1203 244 1203 651 
L 1203 2993 
z
M 909 4416 
C 717 4416 550 4249 550 4056 
C 550 3870 717 3704 902 3704 
C 1088 3704 1261 3870 1261 4056 
C 1261 4236 1088 4416 909 4416 
z
" id="URWPalladioL-Roma-69" transform="scale(0.015625)"/>
       <path d="M 627 2476 
L 627 619 
C 627 142 838 -64 1331 -64 
C 1478 -64 1632 -32 1670 13 
L 1978 353 
L 1894 463 
C 1734 372 1638 340 1517 340 
C 1267 340 1165 470 1165 788 
L 1165 2489 
L 1984 2489 
L 2042 2816 
L 1165 2816 
L 1165 3056 
C 1165 3321 1184 3547 1235 3951 
L 1158 4021 
C 1005 3925 813 3842 614 3778 
C 634 3585 640 3463 640 3271 
L 640 2822 
L 141 2598 
L 141 2476 
L 627 2476 
z
" id="URWPalladioL-Roma-74" transform="scale(0.015625)"/>
       <path d="M 3450 2752 
L 3450 2932 
C 3066 2932 2950 2932 2848 2932 
C 2746 2932 2630 2932 2246 2932 
L 2246 2752 
L 2509 2752 
C 2611 2752 2662 2694 2662 2591 
C 2662 2489 2618 2317 2541 2124 
L 2272 1445 
C 2195 1259 2118 1080 1875 549 
L 1114 2393 
C 1075 2482 1056 2566 1056 2636 
C 1056 2707 1114 2752 1216 2752 
L 1530 2752 
L 1530 2932 
C 902 2932 902 2932 781 2932 
C 659 2932 352 2932 38 2932 
L 38 2752 
L 256 2752 
C 352 2739 384 2701 454 2541 
L 1555 -32 
L 1875 -32 
C 1914 77 1978 243 1978 256 
C 2048 447 2131 664 2138 664 
L 2893 2324 
C 3034 2625 3123 2739 3251 2752 
L 3450 2752 
z
" id="URWPalladioL-Roma-76" transform="scale(0.015625)"/>
       <path d="M 1382 4147 
C 1600 4198 1792 4224 2010 4224 
C 2675 4224 3046 3915 3046 3367 
C 3046 2775 2579 2401 1837 2401 
C 1792 2401 1734 2401 1651 2407 
L 1613 2330 
C 1683 2246 1702 2221 1779 2137 
C 1869 2035 1888 2009 1946 1932 
L 3123 346 
C 3162 295 3200 243 3238 199 
C 3283 141 3322 83 3386 0 
C 3686 0 3750 0 3821 0 
C 3878 0 3878 0 4282 0 
L 4282 186 
C 4077 205 3974 244 3891 354 
L 2438 2259 
C 2797 2349 2963 2419 3174 2566 
C 3507 2803 3686 3123 3686 3495 
C 3686 4109 3238 4455 2445 4455 
L 2342 4455 
C 1510 4455 1510 4455 1293 4455 
C 1082 4455 1082 4455 186 4455 
L 186 4275 
L 448 4243 
C 742 4243 774 4184 774 3679 
L 774 769 
C 774 257 742 205 448 205 
L 141 205 
L 141 0 
C 518 0 742 0 1075 0 
C 1408 0 1638 0 2016 0 
L 2016 205 
L 1709 205 
C 1414 205 1382 256 1382 768 
L 1382 4147 
z
" id="URWPalladioL-Roma-52" transform="scale(0.015625)"/>
      </defs>
      <use transform="scale(0.996264)" xlink:href="#URWPalladioL-Roma-46"/>
      <use transform="translate(55.391677 0)scale(0.996264)" xlink:href="#URWPalladioL-Roma-61"/>
      <use transform="translate(105.204877 0)scale(0.996264)" xlink:href="#URWPalladioL-Roma-6c"/>
      <use transform="translate(134.195239 0)scale(0.996264)" xlink:href="#URWPalladioL-Roma-73"/>
      <use transform="translate(176.436705 0)scale(0.996264)" xlink:href="#URWPalladioL-Roma-65"/>
      <use transform="translate(249.063601 0)scale(0.996264)" xlink:href="#URWPalladioL-Roma-50"/>
      <use transform="translate(309.237196 0)scale(0.996264)" xlink:href="#URWPalladioL-Roma-6f"/>
      <use transform="translate(363.632776 0)scale(0.996264)" xlink:href="#URWPalladioL-Roma-73"/>
      <use transform="translate(405.874242 0)scale(0.996264)" xlink:href="#URWPalladioL-Roma-69"/>
      <use transform="translate(434.864604 0)scale(0.996264)" xlink:href="#URWPalladioL-Roma-74"/>
      <use transform="translate(467.341692 0)scale(0.996264)" xlink:href="#URWPalladioL-Roma-69"/>
      <use transform="translate(496.332053 0)scale(0.996264)" xlink:href="#URWPalladioL-Roma-76"/>
      <use transform="translate(552.619966 0)scale(0.996264)" xlink:href="#URWPalladioL-Roma-65"/>
      <use transform="translate(625.246862 0)scale(0.996264)" xlink:href="#URWPalladioL-Roma-52"/>
      <use transform="translate(691.796556 0)scale(0.996264)" xlink:href="#URWPalladioL-Roma-61"/>
      <use transform="translate(741.609756 0)scale(0.996264)" xlink:href="#URWPalladioL-Roma-74"/>
      <use transform="translate(774.086844 0)scale(0.996264)" xlink:href="#URWPalladioL-Roma-65"/>
     </g>
    </g>
   </g>
   <g id="matplotlib.axis_2">
    <g id="ytick_1">
     <g id="line2d_13">
      <path clip-path="url(#pb70d095705)" d="M 46.356005 351.353477 
L 548.556005 351.353477 
" style="fill:none;stroke:#303030;stroke-dasharray:4.144,1.792;stroke-dashoffset:0;stroke-opacity:0.5;stroke-width:1.12;"/>
     </g>
     <g id="line2d_14">
      <defs>
       <path d="M 0 0 
L 6 0 
" id="m9abd53bd83" style="stroke:#bbbbbb;stroke-width:0.8;"/>
      </defs>
      <g>
       <use style="fill:#bbbbbb;stroke:#bbbbbb;stroke-width:0.8;" x="46.356005" xlink:href="#m9abd53bd83" y="351.353477"/>
      </g>
     </g>
     <g id="text_8">
      <!-- $\mathdefault{0.0}$ -->
      <g style="fill:#bbbbbb;" transform="translate(24.317679 356.058109)scale(0.132 -0.132)">
       <use transform="scale(0.996264)" xlink:href="#URWPalladioL-Roma-30"/>
       <use transform="translate(49.8132 0)scale(0.996264)" xlink:href="#URWPalladioL-Roma-2e"/>
       <use transform="translate(74.719801 0)scale(0.996264)" xlink:href="#URWPalladioL-Roma-30"/>
      </g>
     </g>
    </g>
    <g id="ytick_2">
     <g id="line2d_15">
      <path clip-path="url(#pb70d095705)" d="M 46.356005 289.227762 
L 548.556005 289.227762 
" style="fill:none;stroke:#303030;stroke-dasharray:4.144,1.792;stroke-dashoffset:0;stroke-opacity:0.5;stroke-width:1.12;"/>
     </g>
     <g id="line2d_16">
      <g>
       <use style="fill:#bbbbbb;stroke:#bbbbbb;stroke-width:0.8;" x="46.356005" xlink:href="#m9abd53bd83" y="289.227762"/>
      </g>
     </g>
     <g id="text_9">
      <!-- $\mathdefault{0.2}$ -->
      <g style="fill:#bbbbbb;" transform="translate(24.317679 293.932395)scale(0.132 -0.132)">
       <use transform="scale(0.996264)" xlink:href="#URWPalladioL-Roma-30"/>
       <use transform="translate(49.8132 0)scale(0.996264)" xlink:href="#URWPalladioL-Roma-2e"/>
       <use transform="translate(74.719801 0)scale(0.996264)" xlink:href="#URWPalladioL-Roma-32"/>
      </g>
     </g>
    </g>
    <g id="ytick_3">
     <g id="line2d_17">
      <path clip-path="url(#pb70d095705)" d="M 46.356005 227.102048 
L 548.556005 227.102048 
" style="fill:none;stroke:#303030;stroke-dasharray:4.144,1.792;stroke-dashoffset:0;stroke-opacity:0.5;stroke-width:1.12;"/>
     </g>
     <g id="line2d_18">
      <g>
       <use style="fill:#bbbbbb;stroke:#bbbbbb;stroke-width:0.8;" x="46.356005" xlink:href="#m9abd53bd83" y="227.102048"/>
      </g>
     </g>
     <g id="text_10">
      <!-- $\mathdefault{0.4}$ -->
      <g style="fill:#bbbbbb;" transform="translate(24.317679 231.80668)scale(0.132 -0.132)">
       <use transform="scale(0.996264)" xlink:href="#URWPalladioL-Roma-30"/>
       <use transform="translate(49.8132 0)scale(0.996264)" xlink:href="#URWPalladioL-Roma-2e"/>
       <use transform="translate(74.719801 0)scale(0.996264)" xlink:href="#URWPalladioL-Roma-34"/>
      </g>
     </g>
    </g>
    <g id="ytick_4">
     <g id="line2d_19">
      <path clip-path="url(#pb70d095705)" d="M 46.356005 164.976334 
L 548.556005 164.976334 
" style="fill:none;stroke:#303030;stroke-dasharray:4.144,1.792;stroke-dashoffset:0;stroke-opacity:0.5;stroke-width:1.12;"/>
     </g>
     <g id="line2d_20">
      <g>
       <use style="fill:#bbbbbb;stroke:#bbbbbb;stroke-width:0.8;" x="46.356005" xlink:href="#m9abd53bd83" y="164.976334"/>
      </g>
     </g>
     <g id="text_11">
      <!-- $\mathdefault{0.6}$ -->
      <g style="fill:#bbbbbb;" transform="translate(24.317679 169.680966)scale(0.132 -0.132)">
       <use transform="scale(0.996264)" xlink:href="#URWPalladioL-Roma-30"/>
       <use transform="translate(49.8132 0)scale(0.996264)" xlink:href="#URWPalladioL-Roma-2e"/>
       <use transform="translate(74.719801 0)scale(0.996264)" xlink:href="#URWPalladioL-Roma-36"/>
      </g>
     </g>
    </g>
    <g id="ytick_5">
     <g id="line2d_21">
      <path clip-path="url(#pb70d095705)" d="M 46.356005 102.850619 
L 548.556005 102.850619 
" style="fill:none;stroke:#303030;stroke-dasharray:4.144,1.792;stroke-dashoffset:0;stroke-opacity:0.5;stroke-width:1.12;"/>
     </g>
     <g id="line2d_22">
      <g>
       <use style="fill:#bbbbbb;stroke:#bbbbbb;stroke-width:0.8;" x="46.356005" xlink:href="#m9abd53bd83" y="102.850619"/>
      </g>
     </g>
     <g id="text_12">
      <!-- $\mathdefault{0.8}$ -->
      <g style="fill:#bbbbbb;" transform="translate(24.317679 107.555252)scale(0.132 -0.132)">
       <use transform="scale(0.996264)" xlink:href="#URWPalladioL-Roma-30"/>
       <use transform="translate(49.8132 0)scale(0.996264)" xlink:href="#URWPalladioL-Roma-2e"/>
       <use transform="translate(74.719801 0)scale(0.996264)" xlink:href="#URWPalladioL-Roma-38"/>
      </g>
     </g>
    </g>
    <g id="ytick_6">
     <g id="line2d_23">
      <path clip-path="url(#pb70d095705)" d="M 46.356005 40.724905 
L 548.556005 40.724905 
" style="fill:none;stroke:#303030;stroke-dasharray:4.144,1.792;stroke-dashoffset:0;stroke-opacity:0.5;stroke-width:1.12;"/>
     </g>
     <g id="line2d_24">
      <g>
       <use style="fill:#bbbbbb;stroke:#bbbbbb;stroke-width:0.8;" x="46.356005" xlink:href="#m9abd53bd83" y="40.724905"/>
      </g>
     </g>
     <g id="text_13">
      <!-- $\mathdefault{1.0}$ -->
      <g style="fill:#bbbbbb;" transform="translate(24.317679 45.429538)scale(0.132 -0.132)">
       <use transform="scale(0.996264)" xlink:href="#URWPalladioL-Roma-31"/>
       <use transform="translate(49.8132 0)scale(0.996264)" xlink:href="#URWPalladioL-Roma-2e"/>
       <use transform="translate(74.719801 0)scale(0.996264)" xlink:href="#URWPalladioL-Roma-30"/>
      </g>
     </g>
    </g>
    <g id="text_14">
     <!-- True Positive Rate -->
     <g style="fill:#bbbbbb;" transform="translate(16.609265 240.816248)rotate(-90)scale(0.132 -0.132)">
      <defs>
       <path d="M 1632 4114 
C 1651 3896 1658 3749 1658 3473 
L 1658 763 
C 1658 256 1626 205 1331 205 
L 1024 205 
L 1024 0 
C 1402 0 1626 0 1958 0 
C 2291 0 2522 0 2899 0 
L 2899 205 
L 2592 205 
C 2298 205 2266 256 2266 763 
L 2266 3473 
C 2266 3762 2272 3903 2291 4114 
L 3283 4114 
C 3462 4114 3533 4057 3539 3904 
L 3565 3400 
L 3763 3400 
C 3763 3810 3776 4056 3808 4416 
C 3347 4416 3136 4416 2957 4416 
C 2707 4416 2522 4416 2426 4416 
L 1414 4416 
C 1350 4416 1005 4416 550 4416 
L 115 4416 
C 147 4056 160 3810 160 3400 
L 358 3400 
L 384 3904 
C 390 4057 461 4114 640 4114 
L 1632 4114 
z
" id="URWPalladioL-Roma-54" transform="scale(0.015625)"/>
       <path d="M 147 2565 
L 384 2565 
C 640 2565 666 2520 666 2094 
L 666 643 
C 666 237 646 192 429 192 
L 134 192 
L 134 -7 
C 595 -7 762 -7 922 -7 
C 1050 -7 1050 -7 1837 -7 
L 1837 192 
L 1504 192 
C 1216 192 1203 211 1203 638 
L 1203 1751 
C 1203 2139 1459 2463 1773 2463 
C 1965 2463 2099 2373 2202 2169 
L 2336 2169 
L 2394 2937 
C 2323 2982 2208 3008 2093 3008 
C 1901 3008 1696 2905 1562 2745 
L 1203 2322 
L 1203 2982 
L 1146 3008 
C 819 2873 486 2783 147 2745 
L 147 2565 
z
" id="URWPalladioL-Roma-72" transform="scale(0.015625)"/>
       <path d="M 3219 3009 
L 3162 3035 
C 2835 2900 2502 2810 2163 2772 
L 2163 2592 
L 2400 2592 
C 2656 2592 2682 2547 2682 2121 
L 2682 1070 
C 2682 928 2592 747 2445 599 
C 2266 418 2061 327 1811 327 
C 1587 327 1408 398 1306 521 
C 1216 624 1171 824 1171 1107 
L 1171 3009 
L 1114 3035 
C 787 2900 454 2810 115 2772 
L 115 2592 
L 352 2592 
C 608 2592 634 2547 634 2122 
L 634 1039 
C 634 587 672 387 787 227 
C 928 33 1171 -64 1536 -64 
C 1824 -64 2080 26 2253 186 
L 2682 585 
C 2682 401 2675 298 2656 0 
C 3085 0 3091 0 3187 0 
C 3277 0 3277 0 3718 0 
L 3718 186 
L 3456 212 
C 3238 212 3219 251 3219 664 
L 3219 3009 
z
" id="URWPalladioL-Roma-75" transform="scale(0.015625)"/>
      </defs>
      <use transform="scale(0.996264)" xlink:href="#URWPalladioL-Roma-54"/>
      <use transform="translate(52.104474 0)scale(0.996264)" xlink:href="#URWPalladioL-Roma-72"/>
      <use transform="translate(90.659797 0)scale(0.996264)" xlink:href="#URWPalladioL-Roma-75"/>
      <use transform="translate(150.733532 0)scale(0.996264)" xlink:href="#URWPalladioL-Roma-65"/>
      <use transform="translate(223.360427 0)scale(0.996264)" xlink:href="#URWPalladioL-Roma-50"/>
      <use transform="translate(283.534022 0)scale(0.996264)" xlink:href="#URWPalladioL-Roma-6f"/>
      <use transform="translate(337.929602 0)scale(0.996264)" xlink:href="#URWPalladioL-Roma-73"/>
      <use transform="translate(380.171069 0)scale(0.996264)" xlink:href="#URWPalladioL-Roma-69"/>
      <use transform="translate(409.16143 0)scale(0.996264)" xlink:href="#URWPalladioL-Roma-74"/>
      <use transform="translate(441.638518 0)scale(0.996264)" xlink:href="#URWPalladioL-Roma-69"/>
      <use transform="translate(470.628879 0)scale(0.996264)" xlink:href="#URWPalladioL-Roma-76"/>
      <use transform="translate(526.916793 0)scale(0.996264)" xlink:href="#URWPalladioL-Roma-65"/>
      <use transform="translate(599.543688 0)scale(0.996264)" xlink:href="#URWPalladioL-Roma-52"/>
      <use transform="translate(666.093382 0)scale(0.996264)" xlink:href="#URWPalladioL-Roma-61"/>
      <use transform="translate(715.906583 0)scale(0.996264)" xlink:href="#URWPalladioL-Roma-74"/>
      <use transform="translate(748.38367 0)scale(0.996264)" xlink:href="#URWPalladioL-Roma-65"/>
     </g>
    </g>
   </g>
   <g id="line2d_25">
    <path clip-path="url(#pb70d095705)" d="M 46.356005 351.353477 
L 46.356005 276.841327 
L 46.664861 276.841327 
L 46.664861 257.003677 
L 46.973717 257.003677 
L 46.973717 216.360686 
L 47.282573 216.360686 
L 47.282573 203.780713 
L 47.900285 203.780713 
L 47.900285 199.909952 
L 48.209141 199.909952 
L 48.209141 194.587656 
L 48.517997 194.587656 
L 48.517997 191.684585 
L 49.135709 191.684585 
L 49.135709 189.749204 
L 49.444565 189.749204 
L 49.444565 182.975372 
L 50.67999 182.975372 
L 50.67999 179.588457 
L 50.988846 179.588457 
L 50.988846 177.169231 
L 51.297702 177.169231 
L 51.297702 175.23385 
L 51.606558 175.23385 
L 51.606558 173.29847 
L 51.915414 173.29847 
L 51.915414 170.395399 
L 52.22427 170.395399 
L 52.22427 168.943864 
L 52.533126 168.943864 
L 52.533126 165.556948 
L 52.841982 165.556948 
L 52.841982 162.170032 
L 53.150839 162.170032 
L 53.150839 159.750806 
L 53.459695 159.750806 
L 53.459695 158.783116 
L 53.768551 158.783116 
L 53.768551 153.46082 
L 54.077407 153.46082 
L 54.077407 147.170833 
L 54.386263 147.170833 
L 54.386263 146.686988 
L 54.695119 146.686988 
L 54.695119 144.751607 
L 55.003975 144.751607 
L 55.003975 139.429311 
L 55.930543 139.429311 
L 55.930543 137.977776 
L 56.239399 137.977776 
L 56.239399 133.62317 
L 56.857112 133.62317 
L 56.857112 133.139324 
L 57.165968 133.139324 
L 57.165968 129.268563 
L 58.092536 129.268563 
L 58.092536 125.881648 
L 58.401392 125.881648 
L 58.401392 124.913957 
L 58.710248 124.913957 
L 58.710248 122.978577 
L 59.019104 122.978577 
L 59.019104 121.043196 
L 59.636816 121.043196 
L 59.636816 120.075506 
L 60.563385 120.075506 
L 60.563385 119.591661 
L 60.872241 119.591661 
L 60.872241 116.204745 
L 61.181097 116.204745 
L 61.181097 115.7209 
L 61.489953 115.7209 
L 61.489953 115.237055 
L 61.798809 115.237055 
L 61.798809 114.75321 
L 62.107665 114.75321 
L 62.107665 112.817829 
L 62.416521 112.817829 
L 62.416521 111.850139 
L 62.725377 111.850139 
L 62.725377 111.366294 
L 63.034233 111.366294 
L 63.034233 109.430913 
L 63.343089 109.430913 
L 63.343089 108.463223 
L 63.960802 108.463223 
L 63.960802 107.979378 
L 64.269658 107.979378 
L 64.269658 107.495533 
L 64.578514 107.495533 
L 64.578514 107.011688 
L 65.505082 107.011688 
L 65.505082 106.043997 
L 66.122794 106.043997 
L 66.122794 105.560152 
L 66.43165 105.560152 
L 66.43165 104.592462 
L 66.740506 104.592462 
L 66.740506 104.108617 
L 67.049363 104.108617 
L 67.049363 101.689391 
L 67.667075 101.689391 
L 67.667075 100.237856 
L 67.975931 100.237856 
L 67.975931 96.85094 
L 68.284787 96.85094 
L 68.284787 95.399405 
L 68.593643 95.399405 
L 68.593643 91.528644 
L 68.902499 91.528644 
L 68.902499 91.044798 
L 69.211355 91.044798 
L 69.211355 90.560953 
L 69.520211 90.560953 
L 69.520211 88.625573 
L 70.137923 88.625573 
L 70.137923 88.141728 
L 71.682204 88.141728 
L 71.682204 86.690192 
L 72.608772 86.690192 
L 72.608772 86.206347 
L 72.917628 86.206347 
L 72.917628 85.238657 
L 73.844196 85.238657 
L 73.844196 82.819431 
L 74.153053 82.819431 
L 74.153053 82.335586 
L 74.461909 82.335586 
L 74.461909 81.367896 
L 74.770765 81.367896 
L 74.770765 80.884051 
L 75.079621 80.884051 
L 75.079621 78.464825 
L 76.623901 78.464825 
L 76.623901 77.98098 
L 77.241613 77.98098 
L 77.241613 77.497135 
L 77.55047 77.497135 
L 77.55047 76.045599 
L 78.168182 76.045599 
L 78.168182 75.561754 
L 79.712462 75.561754 
L 79.712462 75.077909 
L 80.330174 75.077909 
L 80.330174 74.594064 
L 80.947887 74.594064 
L 80.947887 74.110219 
L 82.183311 74.110219 
L 82.183311 73.626374 
L 82.492167 73.626374 
L 82.492167 71.690993 
L 84.345303 71.690993 
L 84.345303 71.207148 
L 84.65416 71.207148 
L 84.65416 70.723303 
L 87.74272 70.723303 
L 87.74272 69.271768 
L 89.904713 69.271768 
L 89.904713 68.787923 
L 90.213569 68.787923 
L 90.213569 68.304077 
L 90.522425 68.304077 
L 90.522425 67.820232 
L 90.831281 67.820232 
L 90.831281 66.852542 
L 93.919842 66.852542 
L 93.919842 66.368697 
L 94.84641 66.368697 
L 94.84641 65.884852 
L 96.390691 65.884852 
L 96.390691 64.917162 
L 97.317259 64.917162 
L 97.317259 64.433316 
L 97.626115 64.433316 
L 97.626115 63.949471 
L 97.934971 63.949471 
L 97.934971 63.465626 
L 98.552684 63.465626 
L 98.552684 62.981781 
L 98.86154 62.981781 
L 98.86154 62.497936 
L 99.170396 62.497936 
L 99.170396 62.014091 
L 99.479252 62.014091 
L 99.479252 61.530246 
L 100.40582 61.530246 
L 100.40582 61.046401 
L 101.023532 61.046401 
L 101.023532 60.07871 
L 101.641244 60.07871 
L 101.641244 59.594865 
L 104.729805 59.594865 
L 104.729805 59.11102 
L 107.200654 59.11102 
L 107.200654 58.627175 
L 110.598071 58.627175 
L 110.598071 58.14333 
L 111.215783 58.14333 
L 111.215783 57.659485 
L 111.524639 57.659485 
L 111.524639 57.175639 
L 115.539768 57.175639 
L 115.539768 56.691794 
L 115.848625 56.691794 
L 115.848625 56.207949 
L 116.157481 56.207949 
L 116.157481 55.240259 
L 117.701761 55.240259 
L 117.701761 54.756414 
L 118.937185 54.756414 
L 118.937185 54.272569 
L 119.246041 54.272569 
L 119.246041 53.304878 
L 120.481466 53.304878 
L 120.481466 52.337188 
L 121.71689 52.337188 
L 121.71689 51.853343 
L 122.952315 51.853343 
L 122.952315 51.369498 
L 123.570027 51.369498 
L 123.570027 50.401808 
L 123.878883 50.401808 
L 123.878883 49.917963 
L 125.114307 49.917963 
L 125.114307 49.434117 
L 131.291429 49.434117 
L 131.291429 48.950272 
L 131.600285 48.950272 
L 131.600285 48.466427 
L 133.762278 48.466427 
L 133.762278 47.498737 
L 134.688846 47.498737 
L 134.688846 47.014892 
L 136.850839 47.014892 
L 136.850839 46.531047 
L 137.159695 46.531047 
L 137.159695 46.047202 
L 142.101392 46.047202 
L 142.101392 45.563356 
L 145.189953 45.563356 
L 145.189953 45.079511 
L 148.278514 45.079511 
L 148.278514 44.595666 
L 149.205082 44.595666 
L 149.205082 44.111821 
L 150.13165 44.111821 
L 150.13165 43.627976 
L 150.440506 43.627976 
L 150.440506 43.144131 
L 155.382204 43.144131 
L 155.382204 42.660286 
L 164.030174 42.660286 
L 164.030174 42.176441 
L 168.971872 42.176441 
L 168.971872 41.692595 
L 173.295857 41.692595 
L 173.295857 41.20875 
L 184.10582 41.20875 
L 184.10582 40.724905 
L 548.556005 40.724905 
L 548.556005 40.724905 
" style="fill:none;stroke:#000000;stroke-linecap:round;stroke-width:2;"/>
   </g>
   <g id="line2d_26">
    <path clip-path="url(#pb70d095705)" d="M 46.356005 351.353477 
L 46.356005 193.894314 
L 46.840286 193.894314 
L 46.840286 185.314809 
L 47.324568 185.314809 
L 47.324568 171.183858 
L 47.808849 171.183858 
L 47.808849 165.380075 
L 48.293131 165.380075 
L 48.293131 156.295893 
L 48.777412 156.295893 
L 48.777412 155.286539 
L 49.261694 155.286539 
L 49.261694 154.277186 
L 49.745976 154.277186 
L 49.745976 144.940665 
L 50.230257 144.940665 
L 50.230257 138.127528 
L 50.714539 138.127528 
L 50.714539 133.585437 
L 51.19882 133.585437 
L 51.19882 129.800361 
L 51.683102 129.800361 
L 51.683102 125.005931 
L 52.167384 125.005931 
L 52.167384 124.753593 
L 52.651665 124.753593 
L 52.651665 118.445133 
L 53.135947 118.445133 
L 53.135947 113.398365 
L 53.620228 113.398365 
L 53.620228 111.127319 
L 54.10451 111.127319 
L 54.10451 110.874981 
L 54.588791 110.874981 
L 54.588791 110.622642 
L 55.073073 110.622642 
L 55.073073 109.613289 
L 55.557355 109.613289 
L 55.557355 108.351597 
L 56.041636 108.351597 
L 56.041636 107.089905 
L 56.525918 107.089905 
L 56.525918 100.024429 
L 57.010199 100.024429 
L 57.010199 99.267414 
L 57.494481 99.267414 
L 57.494481 97.753384 
L 57.978763 97.753384 
L 57.978763 93.968308 
L 58.947326 93.968308 
L 58.947326 93.715969 
L 59.431607 93.715969 
L 59.431607 92.958954 
L 59.915889 92.958954 
L 59.915889 92.706616 
L 60.40017 92.706616 
L 60.40017 88.92154 
L 60.884452 88.92154 
L 60.884452 88.164525 
L 61.368734 88.164525 
L 61.368734 87.912186 
L 61.853015 87.912186 
L 61.853015 87.407509 
L 62.337297 87.407509 
L 62.337297 87.155171 
L 62.821578 87.155171 
L 62.821578 86.398156 
L 63.30586 86.398156 
L 63.30586 85.893479 
L 64.274423 85.893479 
L 64.274423 85.136464 
L 65.727268 85.136464 
L 65.727268 83.622433 
L 66.695831 83.622433 
L 66.695831 83.117757 
L 68.632957 83.117757 
L 68.632957 82.61308 
L 69.117239 82.61308 
L 69.117239 82.360741 
L 70.085802 82.360741 
L 70.085802 82.108403 
L 71.538647 82.108403 
L 71.538647 81.099049 
L 72.022928 81.099049 
L 72.022928 80.089696 
L 72.991492 80.089696 
L 72.991492 77.81865 
L 73.960055 77.81865 
L 73.960055 77.566312 
L 74.928618 77.566312 
L 74.928618 77.313973 
L 75.897181 77.313973 
L 75.897181 76.556958 
L 76.381463 76.556958 
L 76.381463 75.042928 
L 77.350026 75.042928 
L 77.350026 73.528897 
L 77.834307 73.528897 
L 77.834307 73.276559 
L 78.318589 73.276559 
L 78.318589 73.02422 
L 79.287152 73.02422 
L 79.287152 72.771882 
L 79.771434 72.771882 
L 79.771434 71.005513 
L 80.255715 71.005513 
L 80.255715 69.99616 
L 81.70856 69.99616 
L 81.70856 69.743821 
L 82.192842 69.743821 
L 82.192842 69.491483 
L 83.161405 69.491483 
L 83.161405 69.239144 
L 84.61425 69.239144 
L 84.61425 68.986806 
L 85.582813 68.986806 
L 85.582813 68.734468 
L 86.067094 68.734468 
L 86.067094 67.977452 
L 88.004221 67.977452 
L 88.004221 66.71576 
L 88.488502 66.71576 
L 88.488502 66.463422 
L 89.457065 66.463422 
L 89.457065 65.958745 
L 90.425628 65.958745 
L 90.425628 65.706407 
L 91.878473 65.706407 
L 91.878473 65.20173 
L 97.205571 65.20173 
L 97.205571 64.444715 
L 99.142697 64.444715 
L 99.142697 63.435361 
L 101.564105 63.435361 
L 101.564105 63.183023 
L 102.532668 63.183023 
L 102.532668 62.930684 
L 103.985513 62.930684 
L 103.985513 62.173669 
L 104.954076 62.173669 
L 104.954076 61.668992 
L 106.406921 61.668992 
L 106.406921 61.416654 
L 107.859765 61.416654 
L 107.859765 61.164316 
L 108.344047 61.164316 
L 108.344047 60.4073 
L 109.31261 60.4073 
L 109.31261 59.902624 
L 111.249737 59.902624 
L 111.249737 59.650285 
L 112.2183 59.650285 
L 112.2183 58.89327 
L 112.702581 58.89327 
L 112.702581 58.640932 
L 114.639708 58.640932 
L 114.639708 58.388593 
L 117.061115 58.388593 
L 117.061115 58.136255 
L 118.998242 58.136255 
L 118.998242 57.883916 
L 119.482523 57.883916 
L 119.482523 57.37924 
L 119.966805 57.37924 
L 119.966805 56.874563 
L 120.935368 56.874563 
L 120.935368 56.117548 
L 121.41965 56.117548 
L 121.41965 55.865209 
L 124.809621 55.865209 
L 124.809621 55.612871 
L 125.778184 55.612871 
L 125.778184 55.360532 
L 128.199592 55.360532 
L 128.199592 55.108194 
L 129.168155 55.108194 
L 129.168155 54.603517 
L 129.652437 54.603517 
L 129.652437 54.351179 
L 130.136718 54.351179 
L 130.136718 54.09884 
L 132.073845 54.09884 
L 132.073845 53.846502 
L 133.526689 53.846502 
L 133.526689 53.594164 
L 137.400942 53.594164 
L 137.400942 53.089487 
L 138.853787 53.089487 
L 138.853787 52.837148 
L 139.338068 52.837148 
L 139.338068 52.332472 
L 139.82235 52.332472 
L 139.82235 52.080133 
L 144.180884 52.080133 
L 144.180884 51.827795 
L 144.665166 51.827795 
L 144.665166 51.575456 
L 145.149447 51.575456 
L 145.149447 51.323118 
L 145.633729 51.323118 
L 145.633729 51.07078 
L 146.602292 51.07078 
L 146.602292 50.818441 
L 147.086574 50.818441 
L 147.086574 50.566103 
L 149.992263 50.566103 
L 149.992263 50.313764 
L 151.929389 50.313764 
L 151.929389 50.061426 
L 155.31936 50.061426 
L 155.31936 49.304411 
L 157.740768 49.304411 
L 157.740768 48.799734 
L 159.677895 48.799734 
L 159.677895 48.295057 
L 161.130739 48.295057 
L 161.130739 48.042719 
L 163.067866 48.042719 
L 163.067866 47.79038 
L 167.910682 47.79038 
L 167.910682 47.285704 
L 175.174905 47.285704 
L 175.174905 47.033365 
L 176.143468 47.033365 
L 176.143468 46.781027 
L 180.986284 46.781027 
L 180.986284 46.27635 
L 181.470566 46.27635 
L 181.470566 46.024012 
L 184.376255 46.024012 
L 184.376255 45.771673 
L 187.766226 45.771673 
L 187.766226 45.519335 
L 191.640479 45.519335 
L 191.640479 45.014658 
L 196.483295 45.014658 
L 196.483295 44.509981 
L 197.93614 44.509981 
L 197.93614 44.257643 
L 201.326111 44.257643 
L 201.326111 44.005304 
L 202.294674 44.005304 
L 202.294674 43.752966 
L 203.263237 43.752966 
L 203.263237 43.500628 
L 204.716082 43.500628 
L 204.716082 42.995951 
L 205.200363 42.995951 
L 205.200363 42.743612 
L 211.980305 42.743612 
L 211.980305 42.491274 
L 214.885995 42.491274 
L 214.885995 42.238936 
L 216.33884 42.238936 
L 216.33884 41.986597 
L 222.150219 41.986597 
L 222.150219 41.734259 
L 239.100074 41.734259 
L 239.100074 41.48192 
L 242.490045 41.48192 
L 242.490045 41.229582 
L 254.597085 41.229582 
L 254.597085 40.977244 
L 257.987056 40.977244 
L 257.987056 40.724905 
L 548.556005 40.724905 
L 548.556005 40.724905 
" style="fill:none;stroke:#00a4bb;stroke-linecap:round;stroke-width:2;"/>
   </g>
   <g id="line2d_27">
    <path clip-path="url(#pb70d095705)" d="M 46.356005 351.353477 
L 46.356005 256.198902 
L 46.624131 256.198902 
L 46.624131 250.694091 
L 46.892257 250.694091 
L 46.892257 248.334887 
L 47.160383 248.334887 
L 47.160383 243.616478 
L 47.428509 243.616478 
L 47.428509 238.89807 
L 47.964761 238.89807 
L 47.964761 227.888449 
L 48.232887 227.888449 
L 48.232887 216.092428 
L 48.501013 216.092428 
L 48.501013 214.519625 
L 48.769139 214.519625 
L 48.769139 211.374019 
L 49.037265 211.374019 
L 49.037265 201.937202 
L 49.305391 201.937202 
L 49.305391 201.1508 
L 49.573517 201.1508 
L 49.573517 192.500384 
L 49.841643 192.500384 
L 49.841643 191.713983 
L 50.377895 191.713983 
L 50.377895 181.490764 
L 50.914147 181.490764 
L 50.914147 175.985954 
L 51.450399 175.985954 
L 51.450399 174.413151 
L 51.986651 174.413151 
L 51.986651 169.694742 
L 52.254777 169.694742 
L 52.254777 168.908341 
L 52.522903 168.908341 
L 52.522903 168.12194 
L 52.791029 168.12194 
L 52.791029 165.762735 
L 53.327281 165.762735 
L 53.327281 164.189932 
L 54.936037 164.189932 
L 54.936037 163.403531 
L 55.204163 163.403531 
L 55.204163 161.044327 
L 56.008541 161.044327 
L 56.008541 158.685122 
L 56.276667 158.685122 
L 56.276667 157.898721 
L 56.544793 157.898721 
L 56.544793 156.325918 
L 56.812919 156.325918 
L 56.812919 154.753115 
L 57.617297 154.753115 
L 57.617297 153.966714 
L 57.885423 153.966714 
L 57.885423 153.180312 
L 58.689801 153.180312 
L 58.689801 150.821108 
L 59.226053 150.821108 
L 59.226053 150.034706 
L 59.494179 150.034706 
L 59.494179 147.675502 
L 60.030431 147.675502 
L 60.030431 145.316298 
L 60.298557 145.316298 
L 60.298557 144.529896 
L 60.566683 144.529896 
L 60.566683 142.957093 
L 60.834809 142.957093 
L 60.834809 142.170692 
L 61.102935 142.170692 
L 61.102935 140.597889 
L 61.907313 140.597889 
L 61.907313 139.811487 
L 62.711691 139.811487 
L 62.711691 136.665882 
L 62.979817 136.665882 
L 62.979817 135.093079 
L 63.247943 135.093079 
L 63.247943 133.520276 
L 63.516069 133.520276 
L 63.516069 132.733874 
L 64.588573 132.733874 
L 64.588573 131.947473 
L 65.124825 131.947473 
L 65.124825 131.161072 
L 65.392951 131.161072 
L 65.392951 130.37467 
L 65.661077 130.37467 
L 65.661077 128.015466 
L 66.197329 128.015466 
L 66.197329 126.442663 
L 67.537959 126.442663 
L 67.537959 125.656261 
L 67.806085 125.656261 
L 67.806085 124.86986 
L 68.342337 124.86986 
L 68.342337 124.083459 
L 68.610463 124.083459 
L 68.610463 123.297057 
L 68.878589 123.297057 
L 68.878589 122.510656 
L 69.146715 122.510656 
L 69.146715 120.937853 
L 69.682967 120.937853 
L 69.682967 120.151451 
L 69.951093 120.151451 
L 69.951093 119.36505 
L 70.219219 119.36505 
L 70.219219 117.792247 
L 71.023597 117.792247 
L 71.023597 117.005846 
L 71.291723 117.005846 
L 71.291723 114.646641 
L 71.827975 114.646641 
L 71.827975 113.073838 
L 72.632353 113.073838 
L 72.632353 112.287437 
L 72.900479 112.287437 
L 72.900479 110.714634 
L 73.704857 110.714634 
L 73.704857 109.928232 
L 74.241109 109.928232 
L 74.241109 109.141831 
L 74.777361 109.141831 
L 74.777361 107.569028 
L 75.849865 107.569028 
L 75.849865 105.996225 
L 76.922369 105.996225 
L 76.922369 105.209824 
L 77.190495 105.209824 
L 77.190495 103.637021 
L 77.726747 103.637021 
L 77.726747 102.850619 
L 77.994873 102.850619 
L 77.994873 99.705014 
L 78.531125 99.705014 
L 78.531125 98.918612 
L 79.603629 98.918612 
L 79.603629 98.132211 
L 79.871755 98.132211 
L 79.871755 97.345809 
L 80.139881 97.345809 
L 80.139881 96.559408 
L 80.676133 96.559408 
L 80.676133 95.773006 
L 81.480511 95.773006 
L 81.480511 94.986605 
L 82.016763 94.986605 
L 82.016763 94.200204 
L 83.089267 94.200204 
L 83.089267 93.413802 
L 83.625519 93.413802 
L 83.625519 91.054598 
L 83.893645 91.054598 
L 83.893645 90.268196 
L 84.429897 90.268196 
L 84.429897 89.481795 
L 84.966149 89.481795 
L 84.966149 88.695393 
L 85.770527 88.695393 
L 85.770527 87.122591 
L 86.574905 87.122591 
L 86.574905 86.336189 
L 87.647409 86.336189 
L 87.647409 85.549788 
L 88.183661 85.549788 
L 88.183661 84.763386 
L 88.719913 84.763386 
L 88.719913 83.976985 
L 89.256165 83.976985 
L 89.256165 83.190583 
L 90.864921 83.190583 
L 90.864921 82.404182 
L 91.133047 82.404182 
L 91.133047 81.61778 
L 91.937425 81.61778 
L 91.937425 80.831379 
L 92.473677 80.831379 
L 92.473677 80.044978 
L 93.814307 80.044978 
L 93.814307 78.472175 
L 95.959315 78.472175 
L 95.959315 77.685773 
L 96.227441 77.685773 
L 96.227441 76.899372 
L 96.495567 76.899372 
L 96.495567 75.326569 
L 96.763693 75.326569 
L 96.763693 74.540167 
L 97.031819 74.540167 
L 97.031819 73.753766 
L 97.299945 73.753766 
L 97.299945 72.967364 
L 97.568071 72.967364 
L 97.568071 72.180963 
L 99.176827 72.180963 
L 99.176827 71.394562 
L 99.713079 71.394562 
L 99.713079 70.60816 
L 100.517457 70.60816 
L 100.517457 69.821759 
L 101.858087 69.821759 
L 101.858087 69.035357 
L 104.539347 69.035357 
L 104.539347 68.248956 
L 106.416229 68.248956 
L 106.416229 67.462554 
L 107.220607 67.462554 
L 107.220607 66.676153 
L 109.901867 66.676153 
L 109.901867 65.889751 
L 112.583127 65.889751 
L 112.583127 65.10335 
L 114.460009 65.10335 
L 114.460009 64.316949 
L 116.336891 64.316949 
L 116.336891 63.530547 
L 117.677521 63.530547 
L 117.677521 61.171343 
L 120.358781 61.171343 
L 120.358781 60.384941 
L 123.844419 60.384941 
L 123.844419 59.59854 
L 124.380671 59.59854 
L 124.380671 58.025737 
L 125.185049 58.025737 
L 125.185049 57.239336 
L 127.598183 57.239336 
L 127.598183 56.452934 
L 128.402561 56.452934 
L 128.402561 54.880131 
L 131.351947 54.880131 
L 131.351947 54.09373 
L 133.765081 54.09373 
L 133.765081 53.307328 
L 135.373837 53.307328 
L 135.373837 52.520927 
L 144.490121 52.520927 
L 144.490121 51.734525 
L 145.562625 51.734525 
L 145.562625 50.948124 
L 154.142657 50.948124 
L 154.142657 50.161723 
L 165.940201 50.161723 
L 165.940201 49.375321 
L 166.744579 49.375321 
L 166.744579 48.58892 
L 171.034595 48.58892 
L 171.034595 47.802518 
L 179.078375 47.802518 
L 179.078375 47.016117 
L 183.368391 47.016117 
L 183.368391 46.229715 
L 188.194659 46.229715 
L 188.194659 45.443314 
L 198.115321 45.443314 
L 198.115321 44.656912 
L 217.420393 44.656912 
L 217.420393 43.870511 
L 220.101653 43.870511 
L 220.101653 43.08411 
L 227.341055 43.08411 
L 227.341055 42.297708 
L 249.595513 42.297708 
L 249.595513 41.511307 
L 278.821248 41.511307 
L 278.821248 40.724905 
L 548.556005 40.724905 
L 548.556005 40.724905 
" style="fill:none;stroke:#ccf900;stroke-linecap:round;stroke-width:2;"/>
   </g>
   <g id="line2d_28">
    <path clip-path="url(#pb70d095705)" d="M 46.356005 351.353477 
L 548.556005 40.724905 
" style="fill:none;stroke:#222222;stroke-dasharray:7.4,3.2;stroke-dashoffset:0;stroke-width:2;"/>
   </g>
   <g id="patch_3">
    <path d="M 46.356005 351.353477 
L 46.356005 25.193477 
" style="fill:none;stroke:#888888;stroke-linecap:square;stroke-linejoin:miter;stroke-width:1.12;"/>
   </g>
   <g id="patch_4">
    <path d="M 548.556005 351.353477 
L 548.556005 25.193477 
" style="fill:none;stroke:#888888;stroke-linecap:square;stroke-linejoin:miter;stroke-width:1.12;"/>
   </g>
   <g id="patch_5">
    <path d="M 46.356005 351.353477 
L 548.556005 351.353477 
" style="fill:none;stroke:#888888;stroke-linecap:square;stroke-linejoin:miter;stroke-width:1.12;"/>
   </g>
   <g id="patch_6">
    <path d="M 46.356005 25.193477 
L 548.556005 25.193477 
" style="fill:none;stroke:#888888;stroke-linecap:square;stroke-linejoin:miter;stroke-width:1.12;"/>
   </g>
   <g id="text_15">
    <!-- RFC ROC: 1$\to$ E, 2$\to$S, 3$\to$S0 $|$ Train Set  -->
    <g style="fill:#bbbbbb;" transform="translate(158.246169 19.193477)scale(0.1584 -0.1584)">
     <defs>
      <path d="M 4288 539 
L 4230 603 
C 3834 346 3392 218 2906 218 
C 1658 218 826 1051 826 2313 
C 826 3493 1555 4274 2656 4274 
C 3283 4274 3930 4018 3930 3769 
L 3930 3307 
L 4128 3307 
C 4134 3627 4160 3857 4250 4280 
C 3706 4460 3238 4544 2771 4544 
C 2214 4544 1683 4409 1254 4159 
C 525 3730 141 3057 141 2192 
C 141 807 1152 -128 2656 -128 
C 3187 -128 3667 -13 4109 218 
L 4288 539 
z
" id="URWPalladioL-Roma-43" transform="scale(0.015625)"/>
      <path d="M 2573 4544 
C 1114 4544 141 3596 141 2186 
C 141 839 1075 -128 2368 -128 
C 3802 -128 4890 942 4890 2351 
C 4890 3698 3994 4544 2573 4544 
z
M 2464 4274 
C 3558 4274 4205 3493 4205 2160 
C 4205 890 3616 141 2624 141 
C 1549 141 826 1051 826 2422 
C 826 3607 1414 4274 2464 4274 
z
" id="URWPalladioL-Roma-4f" transform="scale(0.015625)"/>
      <path d="M 787 744 
C 595 744 422 564 422 372 
C 422 179 595 0 781 0 
C 986 0 1165 173 1165 372 
C 1165 564 986 744 787 744 
z
M 787 2944 
C 595 2944 422 2765 422 2572 
C 422 2380 595 2200 781 2200 
C 986 2200 1165 2373 1165 2566 
C 1165 2765 986 2944 787 2944 
z
" id="URWPalladioL-Roma-3a" transform="scale(0.015625)"/>
      <path d="M 5338 1472 
C 4986 1203 4813 941 4762 858 
C 4474 416 4422 13 4422 6 
C 4422 -70 4499 -70 4550 -70 
C 4659 -70 4666 -58 4691 58 
C 4838 685 5216 1222 5939 1517 
C 6016 1542 6035 1555 6035 1600 
C 6035 1645 5997 1664 5984 1670 
C 5702 1779 4928 2099 4685 3174 
C 4666 3251 4659 3270 4550 3270 
C 4499 3270 4422 3270 4422 3193 
C 4422 3180 4480 2777 4749 2349 
C 4877 2157 5062 1933 5338 1728 
L 582 1728 
C 467 1728 352 1728 352 1600 
C 352 1472 467 1472 582 1472 
L 5338 1472 
z
" id="CMSY10-21" transform="scale(0.015625)"/>
      <path d="M 141 4224 
L 448 4224 
C 742 4224 774 4172 774 3665 
L 774 784 
C 774 276 749 231 448 205 
L 218 186 
L 218 0 
C 640 0 826 0 1005 0 
C 1037 0 1216 0 1459 0 
C 2349 0 2349 0 2490 0 
C 2688 0 2688 0 3558 0 
C 3558 382 3597 736 3661 1079 
L 3437 1079 
C 3424 972 3411 878 3405 852 
C 3366 564 3283 356 3194 323 
C 3059 276 2592 276 2016 276 
C 1683 276 1568 286 1382 315 
L 1382 2100 
C 1562 2112 1754 2112 2042 2112 
C 2515 2112 2688 2094 2803 2040 
L 2854 1890 
L 2886 1536 
L 3078 1536 
C 3059 2132 3059 2132 3059 2247 
C 3059 2350 3059 2350 3078 2991 
L 2886 2991 
L 2854 2642 
C 2848 2581 2829 2521 2803 2467 
C 2688 2414 2509 2394 2086 2394 
C 1818 2394 1600 2394 1382 2394 
L 1382 4117 
C 1581 4160 1690 4160 2131 4160 
C 2496 4160 2854 4130 3059 4076 
C 3213 4039 3232 4008 3232 3868 
L 3232 3465 
L 3456 3465 
C 3456 3843 3488 4146 3558 4423 
C 3245 4423 3046 4423 2765 4423 
C 2605 4423 2394 4423 2131 4423 
C 1728 4423 1453 4423 1280 4423 
C 1062 4423 774 4423 141 4423 
L 141 4224 
z
" id="URWPalladioL-Roma-45" transform="scale(0.015625)"/>
      <path d="M 1306 789 
C 1133 731 1018 693 678 596 
C 634 109 474 -308 102 -923 
L 192 -994 
L 454 -872 
C 973 -199 1216 205 1395 699 
L 1306 789 
z
" id="URWPalladioL-Roma-2c" transform="scale(0.015625)"/>
      <path d="M 2861 3371 
C 2861 3711 2886 3928 2950 4274 
C 2438 4480 2150 4544 1798 4544 
C 845 4544 154 3941 154 3102 
C 154 2788 237 2557 422 2384 
C 640 2186 934 2083 1555 2000 
C 2048 1929 2272 1859 2438 1711 
C 2605 1577 2682 1391 2682 1147 
C 2682 571 2202 154 1536 154 
C 1024 154 525 404 493 666 
L 442 1096 
L 237 1096 
C 243 980 243 878 243 840 
C 243 545 230 404 192 116 
C 557 -45 928 -128 1299 -128 
C 2413 -128 3219 545 3219 1474 
C 3219 1775 3136 1987 2957 2153 
C 2733 2364 2464 2448 1747 2544 
C 966 2646 691 2858 691 3352 
C 691 3890 1094 4274 1658 4274 
C 1907 4274 2144 4223 2317 4127 
C 2528 4018 2598 3922 2618 3737 
L 2656 3371 
L 2861 3371 
z
" id="URWPalladioL-Roma-53" transform="scale(0.015625)"/>
      <path d="M 275 3197 
L 474 3197 
L 589 3554 
C 659 3770 1062 3987 1395 3987 
C 1811 3987 2150 3649 2150 3248 
C 2150 2770 1773 2368 1318 2368 
C 1267 2368 1197 2368 1114 2381 
L 1018 2381 
L 941 2047 
L 986 2008 
C 1229 2118 1350 2150 1523 2150 
C 2054 2150 2362 1809 2362 1222 
C 2362 566 1971 135 1376 135 
C 1082 135 819 231 627 411 
C 474 553 390 701 269 1049 
L 96 985 
C 230 593 282 361 320 39 
C 659 -77 941 -128 1178 -128 
C 1690 -128 2278 161 2630 593 
C 2848 857 2957 1140 2957 1442 
C 2957 1751 2829 2022 2598 2182 
C 2438 2298 2291 2350 1971 2407 
C 2483 2803 2675 3096 2675 3472 
C 2675 4040 2202 4416 1491 4416 
C 1056 4416 768 4295 461 3989 
L 275 3197 
z
" id="URWPalladioL-Roma-33" transform="scale(0.015625)"/>
      <path d="M 1018 4570 
C 1018 4685 1018 4800 890 4800 
C 762 4800 762 4685 762 4570 
L 762 -1370 
C 762 -1485 762 -1600 890 -1600 
C 1018 -1600 1018 -1485 1018 -1370 
L 1018 4570 
z
" id="CMSY10-6a" transform="scale(0.015625)"/>
      <path d="M 2624 -7 
C 3014 -7 3021 -7 3130 -7 
C 3219 -7 3219 -7 3661 -7 
L 3661 179 
L 3398 205 
C 3181 205 3162 244 3162 654 
L 3162 1892 
C 3162 2642 2810 3008 2093 3008 
C 1856 3008 1722 2963 1587 2847 
L 1101 2424 
L 1101 2982 
L 1043 3008 
C 717 2873 384 2783 45 2745 
L 45 2565 
L 282 2565 
C 538 2565 563 2520 563 2094 
L 563 643 
C 563 237 544 192 326 192 
L 38 192 
L 38 -7 
C 474 -7 646 -7 832 -7 
C 1018 -7 1190 -7 1626 -7 
L 1626 192 
L 1338 192 
C 1120 192 1101 237 1101 643 
L 1101 2011 
C 1101 2300 1523 2616 1914 2616 
C 2342 2616 2624 2297 2624 1806 
L 2624 -7 
z
" id="URWPalladioL-Roma-6e" transform="scale(0.015625)"/>
     </defs>
     <use transform="scale(0.996264)" xlink:href="#URWPalladioL-Roma-52"/>
     <use transform="translate(66.549694 0)scale(0.996264)" xlink:href="#URWPalladioL-Roma-46"/>
     <use transform="translate(121.941371 0)scale(0.996264)" xlink:href="#URWPalladioL-Roma-43"/>
     <use transform="translate(217.482764 0)scale(0.996264)" xlink:href="#URWPalladioL-Roma-52"/>
     <use transform="translate(284.032458 0)scale(0.996264)" xlink:href="#URWPalladioL-Roma-4f"/>
     <use transform="translate(362.338739 0)scale(0.996264)" xlink:href="#URWPalladioL-Roma-43"/>
     <use transform="translate(432.973532 0)scale(0.996264)" xlink:href="#URWPalladioL-Roma-3a"/>
     <use transform="translate(482.786733 0)scale(0.996264)" xlink:href="#URWPalladioL-Roma-31"/>
     <use transform="translate(533.845233 0)scale(1.038107)" xlink:href="#CMSY10-21"/>
     <use transform="translate(663.807931 0)scale(0.996264)" xlink:href="#URWPalladioL-Roma-45"/>
     <use transform="translate(724.679562 0)scale(0.996264)" xlink:href="#URWPalladioL-Roma-2c"/>
     <use transform="translate(774.492762 0)scale(0.996264)" xlink:href="#URWPalladioL-Roma-32"/>
     <use transform="translate(825.551262 0)scale(1.038107)" xlink:href="#CMSY10-21"/>
     <use transform="translate(930.60736 0)scale(0.996264)" xlink:href="#URWPalladioL-Roma-53"/>
     <use transform="translate(982.911175 0)scale(0.996264)" xlink:href="#URWPalladioL-Roma-2c"/>
     <use transform="translate(1032.724375 0)scale(0.996264)" xlink:href="#URWPalladioL-Roma-33"/>
     <use transform="translate(1083.782875 0)scale(1.038107)" xlink:href="#CMSY10-21"/>
     <use transform="translate(1188.838973 0)scale(0.996264)" xlink:href="#URWPalladioL-Roma-53"/>
     <use transform="translate(1241.142788 0)scale(0.996264)" xlink:href="#URWPalladioL-Roma-30"/>
     <use transform="translate(1317.107888 0)scale(1.038107)" xlink:href="#CMSY10-6a"/>
     <use transform="translate(1372.051888 0)scale(0.996264)" xlink:href="#URWPalladioL-Roma-54"/>
     <use transform="translate(1424.156362 0)scale(0.996264)" xlink:href="#URWPalladioL-Roma-72"/>
     <use transform="translate(1463.508258 0)scale(0.996264)" xlink:href="#URWPalladioL-Roma-61"/>
     <use transform="translate(1513.321459 0)scale(0.996264)" xlink:href="#URWPalladioL-Roma-69"/>
     <use transform="translate(1542.31182 0)scale(0.996264)" xlink:href="#URWPalladioL-Roma-6e"/>
     <use transform="translate(1625.200481 0)scale(0.996264)" xlink:href="#URWPalladioL-Roma-53"/>
     <use transform="translate(1677.504296 0)scale(0.996264)" xlink:href="#URWPalladioL-Roma-65"/>
     <use transform="translate(1725.224591 0)scale(0.996264)" xlink:href="#URWPalladioL-Roma-74"/>
    </g>
   </g>
   <g id="legend_1">
    <g id="patch_7">
     <path d="M 303.249646 344.753477 
L 539.316005 344.753477 
Q 541.956005 344.753477 541.956005 342.113477 
L 541.956005 284.28044 
Q 541.956005 281.64044 539.316005 281.64044 
L 303.249646 281.64044 
Q 300.609646 281.64044 300.609646 284.28044 
L 300.609646 342.113477 
Q 300.609646 344.753477 303.249646 344.753477 
z
" style="fill:#800080;opacity:0.2;stroke:#cccccc;stroke-linejoin:miter;stroke-width:0.16;"/>
    </g>
    <g id="line2d_29">
     <path d="M 305.889646 291.709705 
L 332.289646 291.709705 
" style="fill:none;stroke:#000000;stroke-linecap:round;stroke-width:2;"/>
    </g>
    <g id="line2d_30"/>
    <g id="text_16">
     <!-- ROC curve of class 1 (area = 0.98) -->
     <g style="fill:#bbbbbb;" transform="translate(342.849646 296.329705)scale(0.132 -0.132)">
      <defs>
       <path d="M 2554 1994 
C 2554 2289 2586 2552 2643 2783 
C 2387 2937 2163 3008 1901 3008 
C 1594 3008 1235 2886 851 2642 
C 403 2360 166 1911 166 1347 
C 166 481 774 -128 1632 -128 
C 1965 -128 2445 -6 2509 90 
L 2643 295 
L 2579 391 
C 2342 263 2138 205 1907 205 
C 1197 205 730 757 730 1603 
C 730 2289 1050 2674 1626 2674 
C 1907 2674 2214 2546 2330 2386 
L 2374 1994 
L 2554 1994 
z
" id="URWPalladioL-Roma-63" transform="scale(0.015625)"/>
       <path d="M 2182 4601 
C 2048 4652 1971 4672 1888 4672 
C 1683 4672 1459 4563 1318 4404 
L 947 3985 
C 762 3775 678 3490 678 3070 
L 678 2803 
L 237 2604 
L 237 2476 
L 678 2476 
L 678 651 
C 678 244 659 199 442 199 
L 147 199 
L 147 0 
C 787 0 787 0 947 0 
C 1107 0 1107 0 1747 0 
L 1747 199 
L 1453 199 
C 1235 199 1216 245 1216 653 
L 1216 2489 
L 2010 2489 
L 2054 2816 
L 1216 2816 
L 1216 3350 
C 1216 4073 1299 4248 1664 4248 
C 1837 4248 1952 4204 2106 4071 
L 2182 4109 
L 2182 4601 
z
" id="URWPalladioL-Roma-66" transform="scale(0.015625)"/>
       <path d="M 1926 -1244 
C 1466 -673 1299 -366 1133 212 
C 998 673 934 1161 934 1706 
C 934 2238 998 2693 1120 3110 
C 1286 3642 1459 3944 1926 4489 
L 1805 4656 
C 1139 4059 877 3707 634 3078 
C 467 2648 384 2193 384 1706 
C 384 1020 544 372 851 -205 
C 1075 -635 1280 -885 1805 -1379 
L 1926 -1244 
z
" id="URWPalladioL-Roma-28" transform="scale(0.015625)"/>
       <path d="M 3552 2496 
L 326 2496 
L 326 2137 
L 3552 2137 
L 3552 2496 
z
M 3552 1255 
L 326 1255 
L 326 896 
L 3552 896 
L 3552 1255 
z
" id="URWPalladioL-Roma-3d" transform="scale(0.015625)"/>
       <path d="M 614 -106 
C 1325 125 1632 272 1978 566 
C 2598 1098 2925 1835 2925 2693 
C 2925 3776 2406 4435 1562 4435 
C 742 4435 128 3795 128 2938 
C 128 2201 608 1664 1274 1664 
C 1491 1664 1741 1734 1856 1830 
L 2304 2202 
C 2253 1125 1555 336 397 54 
L 397 3 
L 614 -106 
z
M 1536 4224 
C 1824 4224 2035 4102 2176 3846 
C 2291 3641 2368 3328 2368 3040 
C 2368 2451 2029 2055 1536 2055 
C 1024 2055 678 2509 678 3174 
C 678 3821 1011 4224 1536 4224 
z
" id="URWPalladioL-Roma-39" transform="scale(0.015625)"/>
       <path d="M 326 -1379 
C 768 -962 954 -750 1152 -436 
C 1542 186 1747 930 1747 1699 
C 1747 2193 1664 2648 1498 3078 
C 1254 3700 992 4053 326 4656 
L 205 4489 
C 672 3937 845 3636 1005 3110 
C 1133 2693 1197 2238 1197 1706 
C 1197 1161 1133 673 998 212 
C 832 -366 666 -673 205 -1244 
L 326 -1379 
z
" id="URWPalladioL-Roma-29" transform="scale(0.015625)"/>
      </defs>
      <use transform="scale(0.996264)" xlink:href="#URWPalladioL-Roma-52"/>
      <use transform="translate(66.549694 0)scale(0.996264)" xlink:href="#URWPalladioL-Roma-4f"/>
      <use transform="translate(144.855975 0)scale(0.996264)" xlink:href="#URWPalladioL-Roma-43"/>
      <use transform="translate(240.397369 0)scale(0.996264)" xlink:href="#URWPalladioL-Roma-63"/>
      <use transform="translate(284.630937 0)scale(0.996264)" xlink:href="#URWPalladioL-Roma-75"/>
      <use transform="translate(344.704672 0)scale(0.996264)" xlink:href="#URWPalladioL-Roma-72"/>
      <use transform="translate(384.056568 0)scale(0.996264)" xlink:href="#URWPalladioL-Roma-76"/>
      <use transform="translate(440.344482 0)scale(0.996264)" xlink:href="#URWPalladioL-Roma-65"/>
      <use transform="translate(512.971377 0)scale(0.996264)" xlink:href="#URWPalladioL-Roma-6f"/>
      <use transform="translate(567.366957 0)scale(0.996264)" xlink:href="#URWPalladioL-Roma-66"/>
      <use transform="translate(625.448787 0)scale(0.996264)" xlink:href="#URWPalladioL-Roma-63"/>
      <use transform="translate(669.682356 0)scale(0.996264)" xlink:href="#URWPalladioL-Roma-6c"/>
      <use transform="translate(698.672717 0)scale(0.996264)" xlink:href="#URWPalladioL-Roma-61"/>
      <use transform="translate(748.485918 0)scale(0.996264)" xlink:href="#URWPalladioL-Roma-73"/>
      <use transform="translate(790.727384 0)scale(0.996264)" xlink:href="#URWPalladioL-Roma-73"/>
      <use transform="translate(857.875451 0)scale(0.996264)" xlink:href="#URWPalladioL-Roma-31"/>
      <use transform="translate(932.595251 0)scale(0.996264)" xlink:href="#URWPalladioL-Roma-28"/>
      <use transform="translate(965.770481 0)scale(0.996264)" xlink:href="#URWPalladioL-Roma-61"/>
      <use transform="translate(1015.583682 0)scale(0.996264)" xlink:href="#URWPalladioL-Roma-72"/>
      <use transform="translate(1053.142999 0)scale(0.996264)" xlink:href="#URWPalladioL-Roma-65"/>
      <use transform="translate(1100.863294 0)scale(0.996264)" xlink:href="#URWPalladioL-Roma-61"/>
      <use transform="translate(1175.583095 0)scale(0.996264)" xlink:href="#URWPalladioL-Roma-3d"/>
      <use transform="translate(1260.862707 0)scale(0.996264)" xlink:href="#URWPalladioL-Roma-30"/>
      <use transform="translate(1310.675908 0)scale(0.996264)" xlink:href="#URWPalladioL-Roma-2e"/>
      <use transform="translate(1335.582508 0)scale(0.996264)" xlink:href="#URWPalladioL-Roma-39"/>
      <use transform="translate(1385.395708 0)scale(0.996264)" xlink:href="#URWPalladioL-Roma-38"/>
      <use transform="translate(1435.208909 0)scale(0.996264)" xlink:href="#URWPalladioL-Roma-29"/>
     </g>
    </g>
    <g id="line2d_31">
     <path d="M 305.889646 311.427384 
L 332.289646 311.427384 
" style="fill:none;stroke:#00a4bb;stroke-linecap:round;stroke-width:2;"/>
    </g>
    <g id="line2d_32"/>
    <g id="text_17">
     <!-- ROC curve of class 2 (area = 0.98) -->
     <g style="fill:#bbbbbb;" transform="translate(342.849646 316.047384)scale(0.132 -0.132)">
      <use transform="scale(0.996264)" xlink:href="#URWPalladioL-Roma-52"/>
      <use transform="translate(66.549694 0)scale(0.996264)" xlink:href="#URWPalladioL-Roma-4f"/>
      <use transform="translate(144.855975 0)scale(0.996264)" xlink:href="#URWPalladioL-Roma-43"/>
      <use transform="translate(240.397369 0)scale(0.996264)" xlink:href="#URWPalladioL-Roma-63"/>
      <use transform="translate(284.630937 0)scale(0.996264)" xlink:href="#URWPalladioL-Roma-75"/>
      <use transform="translate(344.704672 0)scale(0.996264)" xlink:href="#URWPalladioL-Roma-72"/>
      <use transform="translate(384.056568 0)scale(0.996264)" xlink:href="#URWPalladioL-Roma-76"/>
      <use transform="translate(440.344482 0)scale(0.996264)" xlink:href="#URWPalladioL-Roma-65"/>
      <use transform="translate(512.971377 0)scale(0.996264)" xlink:href="#URWPalladioL-Roma-6f"/>
      <use transform="translate(567.366957 0)scale(0.996264)" xlink:href="#URWPalladioL-Roma-66"/>
      <use transform="translate(625.448787 0)scale(0.996264)" xlink:href="#URWPalladioL-Roma-63"/>
      <use transform="translate(669.682356 0)scale(0.996264)" xlink:href="#URWPalladioL-Roma-6c"/>
      <use transform="translate(698.672717 0)scale(0.996264)" xlink:href="#URWPalladioL-Roma-61"/>
      <use transform="translate(748.485918 0)scale(0.996264)" xlink:href="#URWPalladioL-Roma-73"/>
      <use transform="translate(790.727384 0)scale(0.996264)" xlink:href="#URWPalladioL-Roma-73"/>
      <use transform="translate(857.875451 0)scale(0.996264)" xlink:href="#URWPalladioL-Roma-32"/>
      <use transform="translate(932.595251 0)scale(0.996264)" xlink:href="#URWPalladioL-Roma-28"/>
      <use transform="translate(965.770481 0)scale(0.996264)" xlink:href="#URWPalladioL-Roma-61"/>
      <use transform="translate(1015.583682 0)scale(0.996264)" xlink:href="#URWPalladioL-Roma-72"/>
      <use transform="translate(1053.142999 0)scale(0.996264)" xlink:href="#URWPalladioL-Roma-65"/>
      <use transform="translate(1100.863294 0)scale(0.996264)" xlink:href="#URWPalladioL-Roma-61"/>
      <use transform="translate(1175.583095 0)scale(0.996264)" xlink:href="#URWPalladioL-Roma-3d"/>
      <use transform="translate(1260.862707 0)scale(0.996264)" xlink:href="#URWPalladioL-Roma-30"/>
      <use transform="translate(1310.675908 0)scale(0.996264)" xlink:href="#URWPalladioL-Roma-2e"/>
      <use transform="translate(1335.582508 0)scale(0.996264)" xlink:href="#URWPalladioL-Roma-39"/>
      <use transform="translate(1385.395708 0)scale(0.996264)" xlink:href="#URWPalladioL-Roma-38"/>
      <use transform="translate(1435.208909 0)scale(0.996264)" xlink:href="#URWPalladioL-Roma-29"/>
     </g>
    </g>
    <g id="line2d_33">
     <path d="M 305.889646 331.145063 
L 332.289646 331.145063 
" style="fill:none;stroke:#ccf900;stroke-linecap:round;stroke-width:2;"/>
    </g>
    <g id="line2d_34"/>
    <g id="text_18">
     <!-- ROC curve of class 3 (area = 0.96) -->
     <g style="fill:#bbbbbb;" transform="translate(342.849646 335.765063)scale(0.132 -0.132)">
      <use transform="scale(0.996264)" xlink:href="#URWPalladioL-Roma-52"/>
      <use transform="translate(66.549694 0)scale(0.996264)" xlink:href="#URWPalladioL-Roma-4f"/>
      <use transform="translate(144.855975 0)scale(0.996264)" xlink:href="#URWPalladioL-Roma-43"/>
      <use transform="translate(240.397369 0)scale(0.996264)" xlink:href="#URWPalladioL-Roma-63"/>
      <use transform="translate(284.630937 0)scale(0.996264)" xlink:href="#URWPalladioL-Roma-75"/>
      <use transform="translate(344.704672 0)scale(0.996264)" xlink:href="#URWPalladioL-Roma-72"/>
      <use transform="translate(384.056568 0)scale(0.996264)" xlink:href="#URWPalladioL-Roma-76"/>
      <use transform="translate(440.344482 0)scale(0.996264)" xlink:href="#URWPalladioL-Roma-65"/>
      <use transform="translate(512.971377 0)scale(0.996264)" xlink:href="#URWPalladioL-Roma-6f"/>
      <use transform="translate(567.366957 0)scale(0.996264)" xlink:href="#URWPalladioL-Roma-66"/>
      <use transform="translate(625.448787 0)scale(0.996264)" xlink:href="#URWPalladioL-Roma-63"/>
      <use transform="translate(669.682356 0)scale(0.996264)" xlink:href="#URWPalladioL-Roma-6c"/>
      <use transform="translate(698.672717 0)scale(0.996264)" xlink:href="#URWPalladioL-Roma-61"/>
      <use transform="translate(748.485918 0)scale(0.996264)" xlink:href="#URWPalladioL-Roma-73"/>
      <use transform="translate(790.727384 0)scale(0.996264)" xlink:href="#URWPalladioL-Roma-73"/>
      <use transform="translate(857.875451 0)scale(0.996264)" xlink:href="#URWPalladioL-Roma-33"/>
      <use transform="translate(932.595251 0)scale(0.996264)" xlink:href="#URWPalladioL-Roma-28"/>
      <use transform="translate(965.770481 0)scale(0.996264)" xlink:href="#URWPalladioL-Roma-61"/>
      <use transform="translate(1015.583682 0)scale(0.996264)" xlink:href="#URWPalladioL-Roma-72"/>
      <use transform="translate(1053.142999 0)scale(0.996264)" xlink:href="#URWPalladioL-Roma-65"/>
      <use transform="translate(1100.863294 0)scale(0.996264)" xlink:href="#URWPalladioL-Roma-61"/>
      <use transform="translate(1175.583095 0)scale(0.996264)" xlink:href="#URWPalladioL-Roma-3d"/>
      <use transform="translate(1260.862707 0)scale(0.996264)" xlink:href="#URWPalladioL-Roma-30"/>
      <use transform="translate(1310.675908 0)scale(0.996264)" xlink:href="#URWPalladioL-Roma-2e"/>
      <use transform="translate(1335.582508 0)scale(0.996264)" xlink:href="#URWPalladioL-Roma-39"/>
      <use transform="translate(1385.395708 0)scale(0.996264)" xlink:href="#URWPalladioL-Roma-36"/>
      <use transform="translate(1435.208909 0)scale(0.996264)" xlink:href="#URWPalladioL-Roma-29"/>
     </g>
    </g>
   </g>
  </g>
 </g>
 <defs>
  <clipPath id="pb70d095705">
   <rect height="326.16" width="502.2" x="46.356005" y="25.193477"/>
  </clipPath>
 </defs>
</svg>
